person,1,507,303,523,360
person,1,943,353,959,397
person,1,257,276,333,425
person,1,231,295,271,422
person,1,891,341,907,387
person,1,1141,405,1178,477
vehicles,0,727,321,752,346
vehicles,0,665,331,689,347
person,1,960,357,978,403
person,1,285,297,317,403
