vehicles,0,528,324,571,365
vehicles,0,619,292,702,376
person,1,359,337,376,388
person,1,23,381,83,524
person,1,390,331,408,378
person,1,297,346,327,403
person,1,167,378,192,435
person,1,919,356,933,390
person,1,149,372,174,435
person,1,277,349,302,404
