vehicles,0,49,726,111,796
person,1,156,229,206,271
person,1,912,50,932,86
person,1,192,212,220,234
person,1,360,64,381,106
vehicles,0,518,2,694,61
vehicles,0,706,3,828,58
vehicles,0,815,16,900,77
vehicles,0,1092,209,1160,273
vehicles,0,1076,175,1129,226
vehicles,0,1058,155,1095,189
