person,1,55,424,92,488
person,1,130,384,148,413
person,1,23,463,40,493
person,1,288,310,311,351
vehicles,0,612,252,666,292
vehicles,0,294,201,473,346
vehicles,0,587,262,615,280
person,1,979,311,1000,354
