vehicles,0,71,764,108,810
vehicles,0,40,464,90,552
vehicles,0,66,444,99,469
person,1,164,221,211,264
person,1,133,267,179,299
person,1,120,294,159,329
vehicles,0,960,85,1024,141
vehicles,0,1029,130,1070,172
vehicles,0,40,641,90,712
vehicles,0,40,240,169,424
