vehicles,0,388,335,434,363
vehicles,0,1234,449,1280,529
vehicles,0,649,307,801,363
vehicles,0,1028,381,1146,454
person,1,173,334,213,430
person,1,143,334,180,444
vehicles,0,352,349,388,368
vehicles,0,430,325,503,359
person,1,847,329,868,369
