person,1,33,614,76,633
person,1,47,694,76,711
person,1,39,590,77,605
person,1,1069,155,1090,176
vehicles,0,72,776,127,836
vehicles,0,110,853,161,910
vehicles,0,1112,203,1134,221
vehicles,0,1111,218,1161,263
