vehicles,0,12,285,357,627
vehicles,0,704,263,733,282
vehicles,0,468,243,564,322
bicycle,2,983,334,1035,393
bicycle,2,1023,340,1077,415
bicycle,2,1010,339,1058,402
bicycle,2,1085,384,1140,461
vehicles,0,578,194,712,319
