vehicles,0,43,718,78,749
bicycle,2,898,54,999,149
vehicles,0,1008,111,1082,193
vehicles,0,46,432,95,484
vehicles,0,31,513,78,554
person,1,14,480,94,522
person,1,44,329,144,392
vehicles,0,982,87,1020,134
bicycle,2,338,15,474,127
