vehicles,0,624,249,653,278
vehicles,0,568,255,602,281
vehicles,0,584,249,617,274
vehicles,0,729,254,824,318
vehicles,0,527,254,577,293
vehicles,0,846,290,907,326
vehicles,0,818,284,851,306
vehicles,0,401,250,533,336
person,1,1015,339,1036,378
person,1,1044,356,1062,391
person,1,978,328,1004,362
vehicles,0,899,311,967,355
bicycle,2,307,295,375,372
person,1,30,394,81,482
