vehicles,0,31,552,99,680
vehicles,0,47,667,85,733
vehicles,0,307,67,383,119
vehicles,0,788,3,936,83
person,1,1055,150,1085,180
vehicles,0,420,12,505,69
vehicles,0,400,34,428,78
bicycle,2,112,230,200,313
