vehicles,0,688,251,742,290
vehicles,0,678,253,697,279
person,1,381,234,424,329
bicycle,2,242,263,366,456
person,1,1104,365,1141,454
vehicles,0,765,229,1059,441
person,1,490,236,514,298
person,1,1003,287,1049,346
person,1,1046,294,1092,394
