vehicles,0,608,2,687,38
vehicles,0,510,2,628,47
vehicles,0,1190,582,1241,667
bicycle,2,1091,318,1208,462
bicycle,2,884,65,929,131
vehicles,0,1146,414,1232,527
vehicles,0,460,15,515,58
vehicles,0,713,2,809,82
person,1,1129,491,1280,600
