vehicles,0,1208,461,1280,552
vehicles,0,1114,377,1147,441
vehicles,0,1036,348,1121,432
bicycle,2,1021,333,1065,403
bicycle,2,992,336,1027,382
vehicles,0,1141,405,1161,447
vehicles,0,1158,422,1175,450
person,1,506,230,539,298
