vehicles,0,1096,304,1184,421
vehicles,0,938,154,1122,324
vehicles,0,1191,506,1222,562
vehicles,0,695,43,944,162
vehicles,0,347,37,476,108
vehicles,0,461,2,696,80
person,1,699,2,724,50
vehicles,0,1162,428,1215,515
vehicles,0,1202,553,1229,592
