vehicles,0,421,258,540,318
vehicles,0,854,286,971,360
vehicles,0,581,258,608,276
vehicles,0,728,264,796,295
vehicles,0,695,261,738,278
bicycle,2,1012,340,1059,396
bicycle,2,385,281,426,319
bicycle,2,303,306,355,354
bicycle,2,188,341,263,415
