vehicles,0,718,261,765,294
vehicles,0,875,302,928,352
person,1,516,246,531,287
bicycle,2,1043,369,1066,406
vehicles,0,754,269,838,326
vehicles,0,1231,508,1265,545
vehicles,0,691,262,723,284
person,1,379,227,437,341
person,1,433,248,461,316
bicycle,2,1063,380,1086,416
