vehicles,0,893,79,1031,172
vehicles,0,353,14,446,75
vehicles,0,723,6,837,62
vehicles,0,295,66,337,100
vehicles,0,266,80,301,117
person,1,1205,600,1248,628
vehicles,0,442,2,535,42
vehicles,0,583,2,688,27
