vehicles,0,1194,451,1276,537
bicycle,2,406,275,440,315
bicycle,2,346,280,411,335
bicycle,2,294,298,350,364
bicycle,2,432,271,467,306
vehicles,0,579,218,646,281
vehicles,0,940,309,1022,356
vehicles,0,795,269,832,288
vehicles,0,771,263,805,281
vehicles,0,1062,358,1172,431
vehicles,0,826,277,879,297
person,1,498,238,533,308
