vehicles,0,251,95,310,145
vehicles,0,1205,555,1240,666
vehicles,0,1138,763,1217,848
vehicles,0,1191,729,1216,767
vehicles,0,225,132,251,159
vehicles,0,539,3,772,89
bicycle,2,903,93,1006,188
vehicles,0,196,156,225,184
bicycle,2,416,21,455,60
vehicles,0,1181,411,1214,491
vehicles,0,1088,229,1159,336
