vehicles,0,611,324,663,366
vehicles,0,567,340,601,354
vehicles,0,53,427,106,491
vehicles,0,664,334,690,356
bicycle,2,1224,440,1263,521
vehicles,0,1078,374,1140,455
vehicles,0,376,340,469,387
vehicles,0,765,344,797,358
bicycle,2,976,362,1049,448
