vehicles,0,272,62,361,151
vehicles,0,351,3,545,123
vehicles,0,222,121,278,175
vehicles,0,1189,693,1227,749
vehicles,0,1151,421,1243,566
vehicles,0,195,160,210,187
vehicles,0,1196,553,1244,641
bicycle,2,559,12,622,51
vehicles,0,1046,237,1199,429
vehicles,0,612,3,1134,284
