vehicles,0,561,9,639,37
vehicles,0,714,28,803,68
vehicles,0,459,21,505,47
vehicles,0,494,16,554,42
vehicles,0,426,34,462,55
vehicles,0,396,36,430,63
vehicles,0,994,161,1054,224
bicycle,2,1202,528,1222,556
