vehicles,0,1180,696,1226,760
vehicles,0,364,50,408,79
vehicles,0,1205,489,1223,520
bicycle,2,975,139,1010,169
vehicles,0,1104,270,1153,338
person,1,962,107,979,134
vehicles,0,874,61,926,106
vehicles,0,848,66,878,85
vehicles,0,824,48,853,75
vehicles,0,158,196,182,218
vehicles,0,169,123,278,222
vehicles,0,1043,192,1112,271
vehicles,0,1178,403,1210,453
vehicles,0,1213,535,1230,559
vehicles,0,1196,454,1213,491
person,1,1028,163,1046,197
