vehicles,0,1206,660,1228,701
bicycle,2,833,48,878,87
vehicles,0,1212,541,1232,607
person,1,278,90,297,117
vehicles,0,548,2,563,32
vehicles,0,659,2,700,24
vehicles,0,755,30,789,57
vehicles,0,741,18,771,49
vehicles,0,1169,781,1200,817
vehicles,0,916,98,1230,530
person,1,411,3,435,75
person,1,365,27,396,82
