vehicles,0,441,272,543,373
vehicles,0,1168,443,1204,465
vehicles,0,949,371,1064,420
vehicles,0,859,358,883,380
person,1,149,403,166,441
vehicles,0,297,364,339,395
person,1,89,406,115,475
vehicles,0,712,332,774,367
person,1,915,313,951,387
