person,1,916,36,945,90
person,1,418,28,443,68
person,1,286,107,312,144
person,1,83,377,110,394
person,1,881,14,908,69
person,1,969,71,1002,121
vehicles,0,309,50,425,133
vehicles,0,807,19,862,52
person,1,25,397,109,455
