vehicles,0,1171,431,1280,650
vehicles,0,175,151,238,210
vehicles,0,1187,644,1239,701
bicycle,2,1138,367,1197,426
person,1,478,3,510,57
person,1,1168,761,1215,790
person,1,509,3,539,53
vehicles,0,1092,869,1155,939
person,1,1177,742,1230,759
vehicles,0,1172,383,1221,467
