vehicles,0,6,54,588,571
vehicles,0,69,760,88,783
vehicles,0,51,695,80,734
vehicles,0,52,723,78,748
bicycle,2,831,3,895,55
vehicles,0,32,544,85,611
vehicles,0,999,114,1040,159
person,1,918,24,951,82
person,1,938,36,980,104
