vehicles,0,599,325,661,367
vehicles,0,441,339,510,370
vehicles,0,525,329,582,365
vehicles,0,711,328,782,376
vehicles,0,1089,395,1224,510
vehicles,0,338,336,446,397
vehicles,0,775,337,833,383
vehicles,0,835,338,918,394
