vehicles,0,729,314,809,370
bicycle,2,11,463,74,529
person,1,911,328,934,393
person,1,924,326,948,393
vehicles,0,625,333,656,354
vehicles,0,104,318,456,505
vehicles,0,999,334,1216,476
person,1,1109,246,1280,578
