vehicles,0,798,270,875,320
vehicles,0,885,304,1030,386
vehicles,0,734,259,775,287
vehicles,0,288,280,406,360
bicycle,2,1056,372,1102,416
vehicles,0,447,255,577,313
bicycle,2,407,273,449,315
vehicles,0,611,245,686,303
