vehicles,0,328,24,448,95
vehicles,0,284,70,341,120
vehicles,0,1025,198,1122,288
vehicles,0,699,10,761,64
bicycle,2,894,83,953,140
person,1,603,3,633,59
vehicles,0,929,104,1057,212
vehicles,0,475,3,570,53
bicycle,2,847,63,897,114
vehicles,0,782,23,887,103
vehicles,0,584,5,691,52
person,1,1200,501,1247,532
