vehicles,0,898,315,1018,394
vehicles,0,1062,403,1238,544
vehicles,0,55,411,137,502
vehicles,0,801,285,886,334
vehicles,0,763,281,810,307
vehicles,0,585,252,683,326
person,1,201,337,233,398
person,1,303,316,320,340
