vehicles,0,593,237,717,331
person,1,530,246,544,291
vehicles,0,378,256,482,343
bicycle,2,27,433,58,454
bicycle,2,61,417,88,436
bicycle,2,21,416,158,557
vehicles,0,222,399,248,431
person,1,280,241,336,323
vehicles,0,210,426,228,450
person,1,475,242,494,293
person,1,494,244,510,288
person,1,515,242,531,280
vehicles,0,958,339,1111,419
person,1,191,245,301,481
person,1,1086,353,1145,442
