vehicles,0,526,261,584,301
vehicles,0,632,261,658,281
vehicles,0,792,253,1030,434
bicycle,2,1151,432,1211,519
bicycle,2,223,335,271,384
vehicles,0,261,311,326,375
bicycle,2,1034,357,1084,433
person,1,779,272,798,315
vehicles,0,36,382,179,557
