vehicles,0,1050,167,1110,230
vehicles,0,35,579,104,702
vehicles,0,95,819,118,847
bicycle,2,392,44,423,83
person,1,103,223,237,325
person,1,55,340,153,399
person,1,198,106,316,232
person,1,19,467,107,517
vehicles,0,789,8,836,59
bicycle,2,824,29,876,83
person,1,19,436,111,493
vehicles,0,449,11,512,58
vehicles,0,497,8,534,35
vehicles,0,621,2,805,94
vehicles,0,533,3,622,40
