vehicles,0,1201,701,1223,734
vehicles,0,1208,646,1233,689
vehicles,0,1011,155,1061,202
vehicles,0,971,118,1004,150
bicycle,2,1186,468,1220,509
vehicles,0,944,104,972,125
person,1,890,58,925,113
person,1,1145,331,1180,354
person,1,1103,263,1137,294
person,1,1102,253,1134,282
person,1,907,69,935,110
