vehicles,0,359,34,421,92
person,1,16,508,72,538
vehicles,0,81,803,141,886
person,1,904,58,1021,215
person,1,542,3,560,32
person,1,23,467,80,496
vehicles,0,126,224,185,294
person,1,561,3,587,41
person,1,495,3,517,44
