vehicles,0,802,311,1067,457
vehicles,0,525,340,562,358
vehicles,0,428,346,462,375
vehicles,0,716,332,738,358
person,1,207,386,224,434
vehicles,0,773,326,809,376
person,1,89,435,109,475
person,1,137,422,162,452
vehicles,0,636,321,708,351
person,1,700,307,727,355
