vehicles,0,1173,393,1280,529
vehicles,0,491,344,529,365
vehicles,0,167,377,283,456
vehicles,0,434,349,469,372
vehicles,0,732,337,757,361
person,1,142,391,172,463
person,1,958,316,995,408
bicycle,2,102,444,120,469
bicycle,2,1075,397,1120,438
person,1,842,230,928,404
