vehicles,0,774,270,847,318
vehicles,0,698,262,734,285
bicycle,2,1029,350,1054,397
person,1,328,287,360,331
vehicles,0,536,257,580,289
vehicles,0,1083,408,1241,539
vehicles,0,412,255,544,335
bicycle,2,876,304,904,328
vehicles,0,896,305,951,350
person,1,865,284,882,319
person,1,859,279,879,313
bicycle,2,949,328,981,363
