vehicles,0,627,257,654,277
vehicles,0,397,244,542,332
vehicles,0,832,286,900,324
vehicles,0,749,270,780,287
vehicles,0,771,272,833,306
vehicles,0,921,310,984,360
person,1,908,293,925,324
vehicles,0,10,283,362,618
bicycle,2,576,259,592,291
