vehicles,0,59,722,121,808
vehicles,0,50,692,75,724
person,1,108,175,251,304
person,1,1080,170,1107,202
vehicles,0,19,657,93,694
bicycle,2,35,536,86,568
bicycle,2,88,343,170,455
person,1,0,574,123,668
bicycle,2,51,450,127,519
