vehicles,0,848,279,894,304
vehicles,0,792,269,825,289
vehicles,0,760,255,790,282
vehicles,0,887,290,967,329
bicycle,2,1120,381,1151,414
vehicles,0,1001,321,1082,378
vehicles,0,1080,364,1135,406
person,1,209,290,285,403
person,1,578,252,590,285
person,1,1180,398,1214,457
person,1,1123,354,1150,395
bicycle,2,174,329,276,454
person,1,991,296,1017,352
person,1,412,173,482,377
person,1,619,237,637,259
