vehicles,0,628,336,650,354
bicycle,2,177,382,252,457
bicycle,2,264,395,306,430
vehicles,0,421,342,464,384
bicycle,2,1075,375,1224,519
vehicles,0,442,333,530,383
vehicles,0,11,393,192,558
vehicles,0,792,292,1017,448
vehicles,0,365,353,422,398
bicycle,2,313,362,369,413
vehicles,0,593,337,618,356
vehicles,0,712,322,758,366
vehicles,0,737,324,809,380
person,1,1162,395,1189,463
