vehicles,0,1190,615,1228,691
vehicles,0,1192,679,1223,712
vehicles,0,1142,817,1182,860
bicycle,2,977,165,1018,207
vehicles,0,1078,287,1145,369
vehicles,0,1203,567,1225,608
bicycle,2,1124,345,1182,410
bicycle,2,1001,206,1090,290
vehicles,0,162,175,204,218
vehicles,0,284,49,418,126
