vehicles,0,504,337,554,368
vehicles,0,703,325,782,379
vehicles,0,549,340,576,360
vehicles,0,673,333,707,362
vehicles,0,560,326,592,357
bicycle,2,378,366,413,390
bicycle,2,979,375,1037,420
bicycle,2,411,361,436,382
person,1,1075,368,1121,449
person,1,130,393,161,472
