vehicles,0,648,255,680,279
vehicles,0,73,239,436,578
vehicles,0,559,254,588,287
vehicles,0,499,250,568,301
vehicles,0,995,348,1094,432
vehicles,0,875,298,938,352
bicycle,2,454,264,473,303
vehicles,0,683,262,712,280
person,1,929,297,950,333
person,1,955,305,976,349
