vehicles,0,58,705,86,744
vehicles,0,105,832,156,890
vehicles,0,922,73,1097,213
vehicles,0,77,766,119,817
person,1,841,3,863,44
vehicles,0,137,890,161,919
person,1,60,410,84,429
person,1,70,195,258,354
person,1,36,355,108,405
person,1,31,473,72,504
person,1,148,165,177,219
