vehicles,0,568,249,608,279
vehicles,0,316,281,387,329
vehicles,0,392,274,414,304
vehicles,0,759,241,967,384
person,1,1219,485,1249,515
person,1,1234,504,1257,534
person,1,131,334,175,418
person,1,115,348,159,424
