vehicles,0,536,3,758,95
vehicles,0,1133,361,1243,544
vehicles,0,292,54,378,129
vehicles,0,180,161,217,195
vehicles,0,207,145,231,167
vehicles,0,882,111,1132,333
bicycle,2,417,32,437,74
vehicles,0,474,16,549,63
vehicles,0,1114,292,1168,374
person,1,377,22,414,89
