vehicles,0,554,340,580,360
vehicles,0,519,340,561,367
vehicles,0,352,344,465,408
vehicles,0,463,350,521,373
person,1,1197,376,1226,460
person,1,1219,389,1270,499
person,1,908,327,918,374
person,1,60,450,84,512
person,1,97,421,143,494
vehicles,0,122,374,353,481
bicycle,2,804,324,870,385
vehicles,0,726,324,829,376
