vehicles,0,78,788,125,840
vehicles,0,1065,156,1101,191
vehicles,0,1095,189,1117,214
vehicles,0,1123,225,1150,253
vehicles,0,58,737,87,774
bicycle,2,49,391,111,476
bicycle,2,183,187,221,224
vehicles,0,40,446,92,532
person,1,496,2,511,41
person,1,454,3,484,46
person,1,833,4,852,34
person,1,997,97,1018,123
person,1,866,20,884,50
vehicles,0,741,3,797,19
person,1,85,299,138,351
person,1,818,3,841,41
person,1,115,247,169,294
person,1,974,71,997,97
