vehicles,0,555,257,582,276
vehicles,0,852,295,912,327
vehicles,0,968,336,1005,359
vehicles,0,197,334,231,365
vehicles,0,445,273,476,295
person,1,1206,470,1230,505
person,1,21,444,64,517
vehicles,0,741,269,826,310
person,1,270,295,296,344
bicycle,2,110,377,155,419
