vehicles,0,68,767,154,860
vehicles,0,44,650,86,735
vehicles,0,35,551,67,587
vehicles,0,514,3,623,34
person,1,154,228,182,266
person,1,2,582,102,625
person,1,8,606,97,635
person,1,27,714,58,727
vehicles,0,849,17,914,63
person,1,47,414,91,458
person,1,997,87,1018,108
