vehicles,0,409,349,463,384
vehicles,0,311,356,415,406
vehicles,0,497,330,548,367
bicycle,2,297,381,317,402
bicycle,2,205,401,242,428
bicycle,2,258,387,292,414
vehicles,0,1069,363,1179,448
vehicles,0,821,345,868,369
person,1,1166,356,1252,492
