vehicles,0,863,305,1225,548
vehicles,0,386,351,453,386
vehicles,0,251,364,367,429
vehicles,0,461,338,517,370
vehicles,0,10,446,126,547
vehicles,0,787,340,885,393
person,1,95,384,151,501
person,1,140,375,184,484
person,1,785,316,801,351
vehicles,0,572,293,706,401
