vehicles,0,632,257,661,280
vehicles,0,1009,372,1131,454
vehicles,0,860,296,957,353
vehicles,0,549,255,593,284
vehicles,0,587,256,610,278
vehicles,0,794,279,848,310
vehicles,0,760,273,800,297
bicycle,2,32,411,182,563
bicycle,2,386,277,423,307
vehicles,0,605,254,628,276
bicycle,2,1152,436,1222,530
bicycle,2,503,259,541,296
vehicles,0,1205,477,1260,558
