vehicles,0,993,184,1125,322
vehicles,0,1199,559,1223,595
vehicles,0,1131,349,1197,456
vehicles,0,1182,462,1233,563
vehicles,0,1134,771,1198,841
vehicles,0,1203,670,1222,694
vehicles,0,243,111,277,140
bicycle,2,901,107,947,143
vehicles,0,526,8,643,54
bicycle,2,416,27,466,65
person,1,666,3,776,146
person,1,720,3,858,172
vehicles,0,620,8,652,27
bicycle,2,324,72,359,98
