vehicles,0,193,3,806,333
vehicles,0,74,780,127,846
vehicles,0,799,17,1003,163
vehicles,0,1033,132,1084,194
vehicles,0,30,275,203,583
vehicles,0,986,70,1057,173
vehicles,0,12,501,99,652
vehicles,0,1078,176,1124,225
person,1,52,735,81,750
