vehicles,0,1009,115,1084,173
vehicles,0,380,23,548,157
bicycle,2,532,3,623,123
bicycle,2,265,90,381,233
person,1,4,434,203,539
vehicles,0,640,22,665,46
vehicles,0,642,49,666,80
vehicles,0,623,3,1007,132
person,1,60,730,115,753
person,1,6,555,182,678
