bicycle,2,1093,341,1201,537
bicycle,2,248,380,292,445
bicycle,2,1001,304,1112,469
vehicles,0,730,310,1074,451
vehicles,0,34,478,109,556
vehicles,0,120,413,193,498
person,1,102,415,132,500
person,1,704,295,738,354
person,1,687,317,706,363
person,1,649,320,671,366
