person,1,171,124,243,198
person,1,885,3,954,103
person,1,859,3,922,82
bicycle,2,54,137,263,398
person,1,30,333,90,371
vehicles,0,1019,123,1109,203
person,1,77,198,203,310
bicycle,2,61,283,220,498
vehicles,0,11,324,159,692
vehicles,0,68,751,110,801
