bicycle,2,957,324,1177,520
bicycle,2,178,394,233,468
person,1,368,333,387,367
person,1,873,301,896,372
person,1,844,308,864,348
bicycle,2,801,340,836,375
person,1,824,319,839,347
bicycle,2,708,332,740,363
vehicles,0,343,336,470,416
person,1,303,356,321,387
person,1,461,295,509,397
person,1,683,300,710,374
person,1,572,324,586,354
person,1,526,315,555,368
person,1,510,320,531,367
person,1,323,349,338,409
