vehicles,0,634,333,660,353
vehicles,0,516,324,593,376
vehicles,0,1118,351,1280,602
person,1,661,327,676,357
person,1,429,337,443,374
person,1,436,334,453,373
vehicles,0,62,316,370,526
person,1,775,248,850,398
person,1,937,329,997,405
person,1,726,289,767,381
