vehicles,0,75,772,95,798
vehicles,0,107,848,183,928
bicycle,2,858,29,953,153
person,1,251,64,318,164
person,1,28,402,104,441
person,1,20,416,99,474
person,1,89,191,146,245
person,1,19,602,56,620
person,1,260,3,403,164
vehicles,0,24,642,83,709
bicycle,2,25,609,101,673
vehicles,0,29,577,84,623
vehicles,0,950,74,1104,213
person,1,24,701,131,763
person,1,101,159,230,287
