vehicles,0,1141,427,1234,608
vehicles,0,277,49,381,150
bicycle,2,1139,390,1186,427
person,1,705,9,732,61
vehicles,0,350,2,659,134
bicycle,2,1043,231,1113,297
person,1,1133,359,1194,394
person,1,1165,409,1209,433
person,1,1184,415,1227,454
person,1,1201,451,1235,478
vehicles,0,1189,730,1217,766
vehicles,0,1180,769,1203,794
person,1,1172,632,1262,680
person,1,158,191,178,231
person,1,1145,325,1179,360
