vehicles,0,740,264,803,303
vehicles,0,774,270,866,334
vehicles,0,247,284,367,411
person,1,82,346,118,421
vehicles,0,582,244,677,314
bicycle,2,50,358,262,596
vehicles,0,423,250,577,321
person,1,920,262,1004,379
person,1,854,240,920,354
