vehicles,0,497,330,574,383
vehicles,0,565,330,604,364
person,1,231,384,251,424
person,1,848,324,872,387
person,1,976,362,1001,398
person,1,985,364,1006,400
vehicles,0,663,340,728,362
vehicles,0,242,332,471,441
person,1,607,321,623,361
person,1,73,286,182,533
person,1,922,316,954,384
person,1,1125,283,1244,478
person,1,1087,340,1146,438
