vehicles,0,722,264,769,296
vehicles,0,754,267,832,319
vehicles,0,699,264,738,288
bicycle,2,39,403,151,621
bicycle,2,401,259,453,331
vehicles,0,470,268,518,310
bicycle,2,245,301,348,398
person,1,427,249,454,282
person,1,263,251,299,335
person,1,343,257,367,300
person,1,362,253,390,299
vehicles,0,581,245,675,314
bicycle,2,100,342,290,524
person,1,1130,411,1179,474
person,1,1155,430,1199,472
