person,1,76,226,191,317
vehicles,0,972,70,1141,234
person,1,840,1,911,76
bicycle,2,758,2,968,182
bicycle,2,509,3,686,176
person,1,459,2,515,89
person,1,450,2,482,61
person,1,187,51,307,206
person,1,229,34,337,172
vehicles,0,21,332,169,658
