vehicles,0,707,239,839,320
vehicles,0,792,266,1280,651
bicycle,2,27,393,251,596
vehicles,0,251,248,492,386
person,1,291,261,345,310
bicycle,2,49,324,214,498
bicycle,2,157,300,314,492
vehicles,0,501,249,558,312
