vehicles,0,438,302,678,425
vehicles,0,770,334,811,372
vehicles,0,838,343,870,383
person,1,418,322,438,393
person,1,107,400,140,475
person,1,79,393,135,504
person,1,57,405,105,521
vehicles,0,702,340,733,358
vehicles,0,817,340,857,374
vehicles,0,31,424,178,526
