vehicles,0,947,328,1180,483
vehicles,0,1172,462,1270,553
vehicles,0,548,251,609,278
vehicles,0,611,243,662,270
bicycle,2,262,316,282,357
vehicles,0,290,288,323,323
vehicles,0,403,275,428,299
person,1,431,225,473,324
vehicles,0,611,242,810,320
person,1,454,232,483,310
person,1,810,257,832,298
