vehicles,0,1198,619,1236,687
vehicles,0,1160,764,1210,823
vehicles,0,1199,714,1218,742
bicycle,2,549,4,598,45
person,1,316,58,338,89
person,1,310,56,330,95
bicycle,2,486,16,528,49
bicycle,2,618,2,678,48
bicycle,2,393,38,418,68
vehicles,0,604,32,1129,349
