vehicles,0,1213,464,1270,523
vehicles,0,408,277,451,297
vehicles,0,522,260,558,283
bicycle,2,162,357,198,403
vehicles,0,199,315,285,391
person,1,188,357,203,390
vehicles,0,18,389,163,518
person,1,143,374,165,404
bicycle,2,146,367,179,416
