vehicles,0,360,26,469,86
vehicles,0,804,61,990,183
vehicles,0,527,2,720,65
vehicles,0,233,111,274,144
vehicles,0,1042,206,1229,564
person,1,1207,579,1243,599
person,1,1146,777,1220,814
vehicles,0,267,94,301,125
