vehicles,0,539,342,562,359
person,1,335,300,372,419
person,1,205,380,218,419
person,1,52,428,76,475
person,1,35,440,54,485
person,1,188,384,204,430
person,1,239,309,305,450
person,1,1006,210,1174,535
