vehicles,0,464,18,520,48
vehicles,0,748,24,794,47
vehicles,0,1042,189,1070,217
person,1,886,46,962,164
person,1,447,8,471,68
person,1,1204,651,1251,673
person,1,507,10,530,42
person,1,802,27,817,62
person,1,1116,268,1140,289
person,1,1119,279,1143,300
vehicles,0,544,3,649,37
vehicles,0,675,6,735,39
person,1,175,168,214,206
person,1,250,93,278,154
person,1,1102,259,1135,284
person,1,1165,466,1250,538
person,1,644,3,679,74
person,1,818,3,876,99
