vehicles,0,723,48,1038,237
vehicles,0,1022,201,1152,345
vehicles,0,275,67,362,142
vehicles,0,542,3,703,63
vehicles,0,424,9,537,74
vehicles,0,1168,433,1222,511
vehicles,0,198,141,238,179
vehicles,0,1138,804,1193,867
vehicles,0,248,111,266,141
bicycle,2,1203,622,1228,639
person,1,369,32,400,85
