vehicles,0,916,317,1058,416
vehicles,0,755,205,948,355
vehicles,0,729,262,764,299
vehicles,0,541,254,607,288
vehicles,0,1092,426,1275,579
vehicles,0,196,315,282,391
bicycle,2,30,444,83,525
vehicles,0,674,258,702,274
