vehicles,0,284,51,410,141
vehicles,0,183,144,235,197
vehicles,0,246,93,292,156
vehicles,0,686,3,764,71
vehicles,0,397,24,447,59
vehicles,0,884,82,928,106
vehicles,0,1166,638,1227,737
vehicles,0,1176,769,1195,795
vehicles,0,494,8,608,53
vehicles,0,1183,456,1248,589
