vehicles,0,1177,762,1207,797
vehicles,0,974,149,1087,242
vehicles,0,355,37,415,85
vehicles,0,274,99,295,126
vehicles,0,643,13,795,66
vehicles,0,396,27,471,74
vehicles,0,1146,350,1213,494
bicycle,2,798,49,829,79
vehicles,0,291,85,324,116
vehicles,0,491,15,561,49
person,1,1136,327,1171,350
person,1,1197,500,1229,519
