vehicles,0,490,342,519,360
vehicles,0,38,456,96,510
vehicles,0,862,320,884,374
vehicles,0,308,368,332,403
vehicles,0,366,353,463,385
vehicles,0,691,316,856,386
vehicles,0,161,361,315,453
bicycle,2,807,310,910,398
