vehicles,0,1098,193,1127,222
vehicles,0,997,101,1102,212
bicycle,2,84,374,114,407
bicycle,2,51,654,84,715
bicycle,2,858,22,945,164
vehicles,0,54,707,81,735
person,1,62,325,134,374
vehicles,0,609,3,821,148
bicycle,2,942,63,1011,172
person,1,15,488,63,525
