vehicles,0,1041,372,1152,442
vehicles,0,1154,443,1263,547
vehicles,0,785,272,816,293
vehicles,0,884,303,956,340
vehicles,0,478,259,573,302
vehicles,0,557,250,595,284
vehicles,0,615,228,664,279
vehicles,0,749,269,781,289
vehicles,0,997,339,1046,383
