vehicles,0,1184,511,1233,601
vehicles,0,1201,573,1256,671
bicycle,2,670,13,724,52
bicycle,2,461,28,487,67
vehicles,0,297,78,345,118
bicycle,2,1106,317,1165,379
vehicles,0,877,67,907,98
vehicles,0,735,21,791,61
bicycle,2,436,31,471,75
vehicles,0,880,89,999,170
vehicles,0,225,98,288,168
