vehicles,0,243,68,321,150
vehicles,0,222,133,250,163
vehicles,0,1062,221,1115,289
bicycle,2,1039,199,1068,228
vehicles,0,410,42,440,65
vehicles,0,578,7,746,64
vehicles,0,1193,500,1234,589
vehicles,0,1155,384,1207,481
vehicles,0,1196,707,1225,758
vehicles,0,1206,658,1225,711
bicycle,2,530,19,569,42
person,1,1123,299,1157,319
