vehicles,0,75,772,105,807
vehicles,0,476,3,539,37
bicycle,2,134,241,233,344
bicycle,2,54,379,137,464
vehicles,0,846,28,922,103
bicycle,2,365,62,400,105
bicycle,2,711,3,760,30
bicycle,2,322,71,385,137
person,1,816,3,860,75
person,1,839,3,875,71
vehicles,0,548,3,691,44
person,1,432,3,483,90
vehicles,0,230,98,337,198
bicycle,2,179,183,249,232
person,1,49,731,82,748
person,1,31,686,86,712
vehicles,0,87,812,109,839
vehicles,0,95,839,122,863
vehicles,0,345,57,394,95
