vehicles,0,585,326,617,357
vehicles,0,499,339,530,365
vehicles,0,423,343,486,386
vehicles,0,681,316,728,355
bicycle,2,49,460,85,514
vehicles,0,771,309,864,380
vehicles,0,899,308,1116,438
vehicles,0,127,345,424,494
vehicles,0,17,485,53,538
