vehicles,0,618,329,646,352
vehicles,0,657,324,690,359
vehicles,0,255,361,360,423
bicycle,2,1018,359,1059,408
person,1,905,309,938,390
vehicles,0,386,349,461,384
vehicles,0,464,348,497,366
vehicles,0,542,339,594,359
vehicles,0,848,340,901,365
vehicles,0,924,343,1032,400
vehicles,0,1221,405,1280,507
bicycle,2,1149,406,1232,479
