vehicles,0,1143,745,1202,800
vehicles,0,217,107,280,161
vehicles,0,1106,817,1178,883
vehicles,0,274,82,310,119
vehicles,0,832,59,866,96
bicycle,2,764,44,798,71
person,1,791,39,810,70
vehicles,0,1101,303,1151,361
bicycle,2,1040,223,1088,277
vehicles,0,1126,357,1195,524
vehicles,0,352,3,754,163
