vehicles,0,857,298,927,339
vehicles,0,501,258,548,294
vehicles,0,540,259,568,286
vehicles,0,813,281,865,313
vehicles,0,732,263,763,281
bicycle,2,1011,355,1027,388
vehicles,0,774,272,797,293
vehicles,0,426,261,512,321
vehicles,0,130,291,396,455
vehicles,0,1041,366,1208,500
