vehicles,0,1131,774,1188,847
person,1,673,8,687,41
person,1,1048,196,1075,229
bicycle,2,1023,188,1053,209
person,1,1007,160,1042,196
person,1,1011,155,1036,185
vehicles,0,794,55,959,145
vehicles,0,627,12,655,33
person,1,614,3,629,32
person,1,650,8,667,42
person,1,683,5,703,41
