vehicles,0,601,324,652,364
person,1,1142,367,1192,481
bicycle,2,801,322,838,389
person,1,820,308,846,378
vehicles,0,558,325,606,349
person,1,271,347,293,398
person,1,306,351,336,393
person,1,255,363,271,403
