vehicles,0,611,206,674,284
vehicles,0,687,251,731,278
vehicles,0,669,246,694,270
vehicles,0,85,395,160,467
person,1,763,238,786,290
person,1,921,247,959,339
person,1,868,251,905,329
person,1,784,238,803,292
vehicles,0,150,250,466,477
vehicles,0,566,244,606,266
bicycle,2,50,433,196,557
