person,1,941,81,991,162
person,1,714,10,743,61
person,1,217,152,237,179
person,1,228,147,250,172
person,1,915,70,963,146
person,1,327,45,367,108
person,1,442,3,479,80
person,1,693,3,713,57
person,1,1198,511,1256,545
person,1,1178,534,1272,573
vehicles,0,531,13,606,40
person,1,506,3,541,63
person,1,481,3,512,68
person,1,467,3,491,68
person,1,739,3,762,67
person,1,1215,582,1254,599
