vehicles,0,1168,777,1192,798
vehicles,0,1186,632,1215,683
person,1,1175,594,1247,642
vehicles,0,290,3,1008,209
vehicles,0,1002,157,1103,265
vehicles,0,1171,690,1210,763
vehicles,0,1171,435,1224,608
person,1,1091,224,1144,276
person,1,1136,397,1167,459
person,1,1100,311,1213,380
