vehicles,0,1033,353,1078,405
bicycle,2,346,307,379,349
vehicles,0,760,280,842,324
bicycle,2,864,302,894,333
vehicles,0,894,312,929,341
person,1,483,265,501,321
person,1,1102,353,1198,526
person,1,927,304,944,344
vehicles,0,517,277,532,306
person,1,501,251,522,319
person,1,1004,352,1021,381
vehicles,0,1090,394,1151,470
vehicles,0,533,274,570,311
bicycle,2,1133,441,1241,581
person,1,312,286,342,356
