vehicles,0,779,42,912,154
vehicles,0,416,12,473,68
bicycle,2,137,207,202,263
person,1,380,43,403,81
person,1,288,81,314,120
person,1,329,71,348,104
bicycle,2,173,170,224,219
vehicles,0,246,96,328,158
vehicles,0,753,8,790,36
vehicles,0,505,0,635,74
bicycle,2,592,6,701,97
vehicles,0,642,16,703,55
vehicles,0,723,55,765,101
vehicles,0,927,115,1158,341
