vehicles,0,510,323,558,359
vehicles,0,621,319,646,345
person,1,857,330,876,389
person,1,1015,361,1039,426
person,1,891,336,912,391
person,1,67,441,83,474
person,1,796,319,819,375
person,1,824,335,846,381
person,1,114,414,142,473
person,1,135,405,155,459
person,1,126,408,145,455
vehicles,0,479,342,502,364
person,1,1197,392,1247,475
person,1,253,352,281,426
