vehicles,0,1097,329,1254,615
vehicles,0,1185,566,1258,680
vehicles,0,974,139,1034,192
bicycle,2,930,105,951,131
vehicles,0,1072,225,1096,260
vehicles,0,301,3,848,202
person,1,1066,202,1095,241
vehicles,0,1073,191,1104,244
