vehicles,0,163,177,196,213
vehicles,0,1145,491,1243,674
vehicles,0,426,10,554,78
vehicles,0,188,128,253,196
vehicles,0,1192,704,1219,740
vehicles,0,399,45,431,71
vehicles,0,289,83,320,120
vehicles,0,768,39,856,89
vehicles,0,832,85,1053,236
vehicles,0,316,45,385,112
person,1,1095,262,1162,317
person,1,276,87,293,122
vehicles,0,658,13,714,56
