vehicles,0,1012,385,1080,420
vehicles,0,131,413,170,452
vehicles,0,609,319,656,368
vehicles,0,327,372,350,391
vehicles,0,38,454,68,492
person,1,972,353,991,408
person,1,984,350,997,400
vehicles,0,668,337,692,360
person,1,1123,351,1190,477
person,1,931,322,972,390
person,1,867,306,913,382
person,1,819,319,846,380
person,1,787,327,809,375
vehicles,0,558,330,610,363
