vehicles,0,925,63,1014,130
vehicles,0,997,117,1092,206
vehicles,0,103,327,150,377
vehicles,0,70,430,101,476
vehicles,0,884,22,991,87
vehicles,0,87,758,136,786
vehicles,0,326,100,371,142
vehicles,0,278,130,333,189
bicycle,2,332,23,506,222
vehicles,0,738,3,859,105
vehicles,0,216,66,349,250
vehicles,0,300,187,330,223
vehicles,0,84,794,184,924
