vehicles,0,377,18,464,78
vehicles,0,318,36,390,100
vehicles,0,575,3,741,60
vehicles,0,448,3,572,59
vehicles,0,285,75,323,116
vehicles,0,259,91,290,131
vehicles,0,1161,736,1216,804
vehicles,0,196,143,228,174
vehicles,0,1207,640,1227,677
bicycle,2,1173,551,1228,640
person,1,926,167,1269,438
