vehicles,0,811,3,932,99
vehicles,0,49,427,86,477
vehicles,0,69,766,128,834
person,1,31,644,74,663
vehicles,0,87,162,259,428
vehicles,0,197,124,284,182
vehicles,0,29,476,90,590
vehicles,0,547,2,824,77
bicycle,2,937,63,1014,142
person,1,28,655,71,673
