vehicles,0,786,56,914,124
vehicles,0,434,18,518,63
vehicles,0,246,121,273,146
vehicles,0,283,47,349,117
person,1,913,82,932,117
person,1,1173,397,1206,427
vehicles,0,659,23,813,67
bicycle,2,1003,171,1043,211
vehicles,0,1190,453,1205,489
vehicles,0,1132,326,1167,365
vehicles,0,1123,770,1222,868
