vehicles,0,607,312,679,369
bicycle,2,1109,355,1162,435
bicycle,2,158,417,199,452
person,1,51,451,72,497
person,1,60,449,80,493
person,1,898,314,914,364
person,1,371,350,385,383
person,1,380,352,397,379
vehicles,0,679,315,884,387
vehicles,0,237,374,314,422
vehicles,0,495,334,532,356
