vehicles,0,612,246,674,294
vehicles,0,724,253,756,278
vehicles,0,1019,361,1126,434
vehicles,0,868,300,927,332
bicycle,2,959,331,979,354
person,1,1123,398,1145,435
vehicles,0,418,242,585,321
bicycle,2,99,351,170,418
person,1,68,358,118,442
bicycle,2,1221,500,1252,543
person,1,131,294,197,407
bicycle,2,178,348,331,468
vehicles,0,281,251,390,389
vehicles,0,802,278,828,299
bicycle,2,44,388,126,466
