vehicles,0,807,25,835,55
vehicles,0,348,45,394,76
vehicles,0,1160,760,1209,817
vehicles,0,1104,279,1180,370
bicycle,2,1056,194,1089,232
vehicles,0,1169,382,1206,434
vehicles,0,1169,382,1206,434
vehicles,0,483,2,624,36
vehicles,0,404,23,432,48
vehicles,0,284,87,309,111
person,1,884,49,914,87
