vehicles,0,73,779,130,840
vehicles,0,1099,192,1127,219
person,1,914,27,1012,171
vehicles,0,93,329,119,347
vehicles,0,92,288,140,340
person,1,485,3,508,28
vehicles,0,983,87,1055,176
person,1,870,3,956,155
person,1,839,3,948,166
vehicles,0,843,28,870,50
person,1,95,205,184,309
person,1,27,633,75,672
person,1,39,673,67,698
