vehicles,0,667,25,881,128
vehicles,0,622,18,752,62
vehicles,0,464,15,582,67
vehicles,0,269,92,322,137
vehicles,0,1131,350,1195,452
vehicles,0,1175,442,1211,502
vehicles,0,219,142,243,163
vehicles,0,1167,769,1206,816
vehicles,0,1190,490,1250,581
vehicles,0,878,71,921,122
bicycle,2,871,91,898,134
vehicles,0,135,229,163,256
vehicles,0,907,95,997,181
bicycle,2,984,156,1021,199
