vehicles,0,367,47,421,92
vehicles,0,319,66,375,111
vehicles,0,1148,386,1202,468
vehicles,0,1163,773,1214,825
vehicles,0,1207,648,1224,676
vehicles,0,1092,280,1145,341
vehicles,0,1191,482,1212,513
vehicles,0,251,121,275,144
vehicles,0,234,132,253,154
vehicles,0,416,2,596,79
bicycle,2,695,29,732,56
vehicles,0,963,173,1111,318
bicycle,2,1122,344,1159,371
vehicles,0,1205,588,1227,629
