vehicles,0,69,769,123,832
bicycle,2,898,43,990,168
vehicles,0,36,638,89,709
bicycle,2,184,147,262,209
vehicles,0,768,22,792,90
vehicles,0,758,3,900,158
vehicles,0,1012,95,1124,221
bicycle,2,221,36,474,284
bicycle,2,459,3,600,197
vehicles,0,57,710,84,760
bicycle,2,68,173,268,392
bicycle,2,967,78,1022,169
