vehicles,0,620,250,662,283
vehicles,0,879,304,970,352
vehicles,0,1103,422,1233,529
vehicles,0,845,283,900,321
vehicles,0,797,278,858,316
bicycle,2,358,280,377,318
bicycle,2,129,330,208,416
bicycle,2,218,310,280,369
vehicles,0,962,320,1082,415
vehicles,0,583,260,616,278
bicycle,2,1228,483,1250,532
vehicles,0,380,246,572,337
