vehicles,0,431,236,547,325
vehicles,0,529,237,579,295
vehicles,0,618,250,659,283
vehicles,0,1118,440,1242,532
vehicles,0,965,346,1081,418
vehicles,0,125,268,324,473
bicycle,2,37,373,150,560
vehicles,0,317,279,370,313
vehicles,0,775,274,826,309
