vehicles,0,628,248,669,284
vehicles,0,1100,426,1254,558
bicycle,2,423,289,519,339
bicycle,2,492,252,528,298
bicycle,2,230,265,353,450
vehicles,0,592,251,618,275
vehicles,0,823,288,869,316
vehicles,0,785,278,825,301
vehicles,0,864,298,971,355
bicycle,2,10,357,218,600
vehicles,0,544,254,600,281
person,1,1242,497,1263,531
person,1,1091,375,1111,404
