vehicles,0,378,297,558,391
vehicles,0,609,336,638,360
vehicles,0,242,371,338,423
vehicles,0,167,380,269,447
bicycle,2,1078,359,1252,617
bicycle,2,682,335,735,368
bicycle,2,879,335,930,383
person,1,935,316,979,398
person,1,376,347,388,384
person,1,815,311,836,355
vehicles,0,42,436,137,507
person,1,783,312,807,370
