vehicles,0,64,773,95,802
bicycle,2,968,103,1047,199
vehicles,0,79,442,147,491
bicycle,2,37,449,80,480
bicycle,2,32,526,62,549
bicycle,2,139,151,238,254
bicycle,2,166,230,394,432
vehicles,0,35,280,204,450
bicycle,2,400,2,730,233
