vehicles,0,313,357,407,412
vehicles,0,701,325,778,376
vehicles,0,530,342,559,364
bicycle,2,406,362,426,384
vehicles,0,58,419,192,523
person,1,12,461,39,526
vehicles,0,790,254,1267,579
vehicles,0,504,351,530,366
