vehicles,0,1119,333,1200,443
vehicles,0,203,149,224,171
vehicles,0,1202,605,1228,651
vehicles,0,358,35,457,94
vehicles,0,1043,220,1079,260
bicycle,2,1076,260,1103,288
bicycle,2,1172,436,1198,465
vehicles,0,590,14,617,34
person,1,695,16,712,44
vehicles,0,474,3,593,61
vehicles,0,910,109,1058,235
vehicles,0,1202,562,1225,608
