vehicles,0,13,411,153,532
vehicles,0,449,338,524,374
vehicles,0,335,369,389,397
vehicles,0,680,263,776,363
vehicles,0,619,322,669,365
vehicles,0,382,362,421,383
vehicles,0,1141,410,1256,508
vehicles,0,822,343,1060,429
