vehicles,0,69,769,137,845
vehicles,0,37,475,78,542
vehicles,0,691,3,750,26
bicycle,2,830,16,896,81
vehicles,0,150,217,200,268
person,1,171,155,217,228
vehicles,0,312,50,358,102
vehicles,0,70,287,159,427
bicycle,2,206,150,275,224
person,1,15,529,73,565
