vehicles,0,634,334,661,356
vehicles,0,117,389,261,479
vehicles,0,457,345,504,374
vehicles,0,435,350,469,375
vehicles,0,503,344,534,364
vehicles,0,381,353,432,387
vehicles,0,677,329,703,358
vehicles,0,568,331,599,352
vehicles,0,1214,429,1265,489
person,1,1099,327,1166,455
vehicles,0,738,324,825,371
person,1,1241,421,1280,512
