vehicles,0,758,47,903,124
vehicles,0,869,94,1126,286
vehicles,0,1085,271,1183,395
vehicles,0,1155,386,1208,471
vehicles,0,1184,463,1221,532
vehicles,0,1204,572,1241,632
vehicles,0,241,26,346,143
vehicles,0,1079,759,1218,959
bicycle,2,1202,535,1228,551
vehicles,0,344,10,614,91
vehicles,0,604,13,749,62
