vehicles,0,571,254,608,279
vehicles,0,1141,448,1277,557
vehicles,0,592,243,618,274
bicycle,2,46,367,193,550
vehicles,0,467,262,505,281
person,1,108,307,150,393
bicycle,2,242,263,384,390
person,1,945,316,963,343
