vehicles,0,801,276,871,318
vehicles,0,960,334,1060,398
vehicles,0,739,262,772,286
vehicles,0,577,252,607,273
vehicles,0,592,250,614,271
bicycle,2,1159,432,1201,479
bicycle,2,247,278,327,389
vehicles,0,866,287,976,347
vehicles,0,717,258,747,278
vehicles,0,719,241,765,267
vehicles,0,533,254,580,280
vehicles,0,692,246,715,270
vehicles,0,351,253,512,343
