vehicles,0,697,32,875,111
vehicles,0,889,108,1038,221
vehicles,0,1128,339,1190,440
bicycle,2,1083,261,1114,301
vehicles,0,430,16,551,70
vehicles,0,1161,791,1206,837
vehicles,0,267,88,318,129
vehicles,0,312,55,392,115
bicycle,2,1021,198,1065,254
bicycle,2,1054,225,1085,268
vehicles,0,1177,434,1214,513
person,1,1201,524,1234,544
vehicles,0,385,45,420,75
person,1,885,67,914,113
