vehicles,0,688,329,721,359
vehicles,0,658,324,676,352
bicycle,2,207,410,234,447
bicycle,2,1187,388,1280,493
vehicles,0,716,325,807,365
bicycle,2,90,445,139,495
bicycle,2,164,421,196,469
bicycle,2,20,487,61,537
vehicles,0,265,383,307,427
vehicles,0,318,357,452,411
vehicles,0,462,341,543,372
bicycle,2,894,317,992,411
