vehicles,0,12,431,102,522
vehicles,0,1029,384,1098,434
vehicles,0,430,327,494,373
vehicles,0,507,343,534,362
vehicles,0,98,431,132,463
vehicles,0,126,422,158,447
vehicles,0,1235,464,1254,491
vehicles,0,1248,472,1268,497
vehicles,0,610,323,659,367
person,1,818,329,832,372
person,1,1012,356,1027,412
vehicles,0,1113,409,1175,460
bicycle,2,953,362,1000,405
person,1,199,394,216,424
vehicles,0,688,334,767,372
person,1,901,322,927,400
