vehicles,0,11,181,357,621
vehicles,0,810,284,891,326
vehicles,0,527,251,567,293
vehicles,0,981,342,1084,422
vehicles,0,929,315,972,358
vehicles,0,765,273,825,297
vehicles,0,332,240,537,374
vehicles,0,558,250,598,286
