vehicles,0,999,364,1125,449
vehicles,0,1138,457,1271,567
vehicles,0,895,313,994,368
vehicles,0,614,250,658,281
vehicles,0,785,274,812,292
bicycle,2,448,252,490,309
vehicles,0,836,290,891,325
bicycle,2,65,367,111,454
vehicles,0,146,300,255,393
vehicles,0,587,234,619,271
