vehicles,0,228,117,263,154
bicycle,2,584,14,614,30
bicycle,2,921,101,961,137
vehicles,0,1204,521,1224,561
person,1,1146,341,1177,385
vehicles,0,476,18,518,51
vehicles,0,620,13,726,41
person,1,861,58,886,91
