vehicles,0,307,361,390,395
vehicles,0,58,437,111,491
vehicles,0,567,245,741,404
vehicles,0,205,378,304,429
bicycle,2,193,402,213,431
person,1,184,404,198,433
person,1,885,327,911,385
bicycle,2,754,331,826,392
person,1,1201,381,1237,479
