vehicles,0,1096,403,1215,490
vehicles,0,599,252,619,273
vehicles,0,909,309,974,346
vehicles,0,542,223,593,287
vehicles,0,810,274,861,301
vehicles,0,850,281,916,321
vehicles,0,780,268,820,290
vehicles,0,755,263,789,282
vehicles,0,1068,376,1088,400
person,1,341,283,362,310
person,1,324,289,351,317
person,1,361,251,399,322
