vehicles,0,0,49,339,579
vehicles,0,1118,218,1148,250
vehicles,0,975,84,1086,207
vehicles,0,1081,178,1115,212
vehicles,0,446,3,1006,230
person,1,31,656,88,686
vehicles,0,29,592,99,675
vehicles,0,23,532,98,592
vehicles,0,0,638,89,740
