vehicles,0,608,247,691,306
vehicles,0,1056,400,1171,484
vehicles,0,759,274,806,303
vehicles,0,903,313,1004,378
vehicles,0,483,196,598,298
vehicles,0,813,279,877,321
bicycle,2,1009,359,1051,401
vehicles,0,430,259,483,294
vehicles,0,415,262,431,295
vehicles,0,872,297,901,330
person,1,214,295,238,354
bicycle,2,103,362,164,468
