vehicles,0,1158,788,1215,842
person,1,373,24,397,72
person,1,221,129,242,149
person,1,283,70,314,118
person,1,334,36,365,89
person,1,356,27,384,79
person,1,344,34,366,77
person,1,212,138,232,160
person,1,1043,168,1134,263
person,1,248,95,277,135
person,1,299,47,338,114
person,1,238,110,259,133
person,1,1199,528,1247,555
