vehicles,0,977,343,1031,406
bicycle,2,437,335,472,365
person,1,1169,387,1228,511
person,1,1103,366,1152,474
person,1,923,334,954,408
person,1,88,393,125,466
person,1,59,409,91,478
vehicles,0,110,407,131,449
vehicles,0,126,381,204,445
vehicles,0,307,341,427,387
vehicles,0,463,326,584,357
person,1,197,342,238,408
vehicles,0,13,450,85,504
