vehicles,0,1162,759,1206,811
vehicles,0,1168,484,1251,633
vehicles,0,1012,148,1038,185
vehicles,0,985,132,1011,154
vehicles,0,242,108,267,135
vehicles,0,317,51,392,98
person,1,876,53,901,86
person,1,889,58,908,90
person,1,908,73,962,130
person,1,931,81,982,151
person,1,294,72,310,103
