vehicles,0,569,333,604,357
vehicles,0,698,340,729,356
bicycle,2,785,344,810,389
bicycle,2,809,358,838,397
person,1,1099,329,1150,494
person,1,941,332,971,417
vehicles,0,624,329,660,361
bicycle,2,718,338,749,361
