vehicles,0,553,3,802,93
vehicles,0,1075,267,1224,451
vehicles,0,1197,706,1218,732
vehicles,0,828,84,1083,261
vehicles,0,257,82,296,140
vehicles,0,229,121,265,158
vehicles,0,216,126,238,166
vehicles,0,193,152,219,180
vehicles,0,1184,470,1232,576
bicycle,2,796,31,866,100
vehicles,0,1205,617,1227,655
vehicles,0,447,3,552,57
vehicles,0,1203,575,1230,619
person,1,287,65,317,118
