vehicles,0,504,3,799,83
vehicles,0,1111,310,1224,509
vehicles,0,155,170,202,223
vehicles,0,1188,501,1236,609
bicycle,2,414,24,467,62
vehicles,0,1184,752,1206,785
vehicles,0,982,125,1120,296
bicycle,2,920,109,1015,203
vehicles,0,287,45,384,126
person,1,366,11,407,91
vehicles,0,1197,678,1223,727
