vehicles,0,806,278,890,328
vehicles,0,559,256,582,282
vehicles,0,498,249,565,295
vehicles,0,715,259,749,281
bicycle,2,59,423,145,508
vehicles,0,347,272,434,338
vehicles,0,1055,380,1276,578
bicycle,2,129,349,225,441
bicycle,2,201,327,286,396
person,1,947,302,975,351
vehicles,0,958,317,1069,410
vehicles,0,773,271,826,300
person,1,762,258,775,288
