vehicles,0,510,257,559,291
vehicles,0,709,258,736,279
vehicles,0,673,256,698,273
vehicles,0,730,245,797,288
bicycle,2,361,275,405,342
bicycle,2,923,298,969,345
bicycle,2,968,324,1011,363
vehicles,0,783,269,871,316
vehicles,0,1006,341,1217,488
vehicles,0,597,242,652,288
vehicles,0,129,276,369,461
vehicles,0,405,255,528,328
