vehicles,0,686,5,909,127
vehicles,0,313,16,450,112
vehicles,0,229,117,270,159
vehicles,0,1192,475,1241,568
vehicles,0,209,139,231,171
vehicles,0,1132,328,1218,485
vehicles,0,1207,558,1239,623
vehicles,0,1210,621,1234,661
bicycle,2,488,3,560,59
bicycle,2,1069,229,1127,285
