vehicles,0,280,81,324,126
vehicles,0,385,3,545,86
vehicles,0,320,42,389,108
vehicles,0,1107,311,1213,467
vehicles,0,1181,463,1234,571
vehicles,0,1201,565,1235,610
vehicles,0,168,178,190,201
vehicles,0,1170,752,1211,801
vehicles,0,242,93,286,147
bicycle,2,537,3,576,32
vehicles,0,569,3,662,43
person,1,664,3,729,63
vehicles,0,1132,844,1159,878
