vehicles,0,790,26,917,134
vehicles,0,591,3,673,56
bicycle,2,973,135,1041,195
bicycle,2,1157,402,1207,473
vehicles,0,1029,185,1100,252
bicycle,2,1207,556,1231,588
vehicles,0,367,3,537,80
person,1,393,14,409,41
person,1,324,61,341,94
vehicles,0,204,135,236,164
vehicles,0,1022,160,1047,184
vehicles,0,974,120,1008,152
vehicles,0,907,76,966,122
