vehicles,0,52,694,78,727
vehicles,0,1069,163,1113,208
vehicles,0,122,250,186,310
vehicles,0,82,303,150,366
person,1,53,337,136,401
vehicles,0,58,382,114,449
vehicles,0,96,370,129,395
vehicles,0,394,3,831,86
vehicles,0,34,568,73,645
person,1,20,601,77,632
