vehicles,0,549,258,584,282
vehicles,0,540,253,563,274
vehicles,0,952,301,1011,351
vehicles,0,905,289,943,327
vehicles,0,314,283,417,343
bicycle,2,1039,354,1087,395
bicycle,2,25,469,87,557
vehicles,0,178,380,221,409
vehicles,0,125,320,279,447
vehicles,0,268,313,293,366
vehicles,0,285,321,305,360
vehicles,0,1025,342,1067,372
person,1,1094,336,1157,418
