vehicles,0,269,85,315,125
vehicles,0,794,23,842,54
vehicles,0,1182,700,1228,760
vehicles,0,432,13,463,48
vehicles,0,379,27,424,64
vehicles,0,576,2,702,32
vehicles,0,970,106,996,135
person,1,299,72,319,98
person,1,689,3,735,45
vehicles,0,1185,435,1242,518
vehicles,0,766,7,795,42
bicycle,2,1190,465,1212,489
person,1,907,44,968,115
