vehicles,0,425,259,525,307
vehicles,0,776,271,804,289
vehicles,0,1115,398,1249,508
bicycle,2,359,273,416,330
person,1,519,254,533,287
vehicles,0,638,257,668,275
vehicles,0,1082,363,1116,409
vehicles,0,969,316,1037,368
person,1,412,261,428,296
person,1,947,296,974,345
