vehicles,0,958,100,1016,151
vehicles,0,723,3,900,99
bicycle,2,37,509,90,589
vehicles,0,489,21,522,51
vehicles,0,564,28,600,65
bicycle,2,500,3,619,84
vehicles,0,541,3,583,48
vehicles,0,1101,209,1144,254
vehicles,0,574,3,686,56
bicycle,2,675,6,702,51
bicycle,2,269,83,393,198
person,1,943,58,976,117
