vehicles,0,283,70,346,124
vehicles,0,204,144,233,169
vehicles,0,1150,440,1240,582
vehicles,0,255,97,288,138
vehicles,0,1163,733,1212,793
vehicles,0,426,15,467,55
vehicles,0,1062,252,1194,416
vehicles,0,1201,698,1227,729
vehicles,0,1152,798,1190,843
vehicles,0,519,3,743,71
person,1,340,53,361,81
vehicles,0,796,63,1067,238
person,1,330,50,344,80
