vehicles,0,508,337,534,359
vehicles,0,447,332,510,369
vehicles,0,932,258,1280,605
vehicles,0,623,329,661,360
vehicles,0,745,300,901,406
vehicles,0,540,338,568,353
vehicles,0,704,325,759,369
vehicles,0,678,335,711,357
vehicles,0,73,397,211,467
vehicles,0,241,384,265,408
