vehicles,0,205,3,848,356
vehicles,0,25,310,217,598
vehicles,0,32,545,109,688
vehicles,0,1056,139,1121,236
vehicles,0,78,779,106,813
vehicles,0,1118,214,1144,245
vehicles,0,945,54,1070,178
vehicles,0,874,22,937,83
