vehicles,0,178,262,441,472
vehicles,0,858,276,997,357
vehicles,0,423,252,547,335
vehicles,0,787,266,856,310
vehicles,0,586,253,650,278
vehicles,0,534,248,586,290
bicycle,2,1061,364,1094,417
person,1,651,244,670,281
vehicles,0,1125,409,1242,526
vehicles,0,757,267,789,288
bicycle,2,1083,384,1130,428
