vehicles,0,836,56,1082,266
vehicles,0,1190,620,1235,705
vehicles,0,1075,253,1152,351
vehicles,0,1126,327,1173,389
bicycle,2,1206,578,1230,605
vehicles,0,260,83,317,137
vehicles,0,314,30,404,109
vehicles,0,399,2,592,80
