vehicles,0,1147,378,1216,492
vehicles,0,1178,575,1280,721
vehicles,0,1186,473,1228,543
vehicles,0,1151,751,1209,824
vehicles,0,823,32,960,151
vehicles,0,966,126,1032,190
person,1,1110,211,1143,240
vehicles,0,1035,196,1164,387
vehicles,0,538,4,642,53
vehicles,0,195,125,246,177
