vehicles,0,643,14,907,140
vehicles,0,1161,432,1222,542
vehicles,0,245,89,300,146
vehicles,0,224,121,251,159
bicycle,2,1126,344,1179,394
vehicles,0,178,161,203,191
vehicles,0,292,66,359,125
vehicles,0,366,32,450,89
vehicles,0,428,3,619,83
vehicles,0,946,145,1148,345
vehicles,0,1195,529,1234,602
