vehicles,0,596,218,697,305
vehicles,0,470,259,543,304
vehicles,0,524,256,566,290
vehicles,0,707,258,770,302
vehicles,0,555,254,586,282
vehicles,0,820,286,914,336
vehicles,0,911,318,1013,382
bicycle,2,43,422,139,545
vehicles,0,73,288,383,519
vehicles,0,1017,363,1169,477
