vehicles,0,783,269,853,309
vehicles,0,617,242,659,278
vehicles,0,45,320,344,581
vehicles,0,753,263,797,290
vehicles,0,731,258,772,283
vehicles,0,874,290,1006,364
vehicles,0,422,288,435,320
vehicles,0,1011,326,1222,520
vehicles,0,516,259,559,290
vehicles,0,335,262,426,355
person,1,495,236,520,301
