vehicles,0,1061,248,1173,391
vehicles,0,1143,365,1213,488
vehicles,0,1202,558,1230,611
vehicles,0,255,101,296,140
vehicles,0,888,78,956,148
bicycle,2,931,124,979,161
vehicles,0,676,6,727,40
vehicles,0,993,157,1071,238
vehicles,0,1185,475,1226,551
vehicles,0,729,24,794,60
