vehicles,0,624,253,667,283
vehicles,0,579,254,612,282
vehicles,0,759,269,796,295
vehicles,0,727,265,752,282
vehicles,0,513,250,585,302
bicycle,2,861,298,886,321
vehicles,0,466,264,511,298
vehicles,0,829,287,859,311
vehicles,0,1111,395,1153,443
vehicles,0,1160,439,1240,524
