vehicles,0,633,3,655,38
person,1,83,337,120,364
person,1,473,3,516,55
person,1,206,145,255,199
vehicles,0,1003,110,1055,157
vehicles,0,899,54,985,109
vehicles,0,802,26,893,70
vehicles,0,718,11,785,42
person,1,198,170,236,214
person,1,163,191,223,252
person,1,147,209,202,261
person,1,24,422,82,461
vehicles,0,41,500,60,549
