vehicles,0,10,181,431,631
vehicles,0,473,243,582,316
vehicles,0,689,237,826,309
vehicles,0,1043,310,1206,465
vehicles,0,1107,363,1234,524
vehicles,0,1170,404,1265,549
person,1,875,154,1073,439
person,1,430,244,452,287
