vehicles,0,453,256,537,316
vehicles,0,679,245,885,372
bicycle,2,990,312,1253,647
vehicles,0,577,245,613,288
vehicles,0,629,248,690,293
person,1,549,232,587,299
bicycle,2,1089,415,1211,505
bicycle,2,1123,341,1207,479
