vehicles,0,407,3,693,100
vehicles,0,299,40,420,130
vehicles,0,251,94,303,152
vehicles,0,206,122,256,173
vehicles,0,1152,432,1230,565
vehicles,0,1156,814,1191,850
vehicles,0,1181,630,1280,750
person,1,962,97,1000,147
person,1,961,95,989,146
vehicles,0,1068,180,1212,446
