vehicles,0,34,395,215,523
vehicles,0,710,292,814,381
vehicles,0,497,340,539,367
vehicles,0,510,324,554,358
vehicles,0,331,333,444,405
bicycle,2,1233,423,1280,534
bicycle,2,1086,377,1151,450
bicycle,2,1114,403,1142,442
bicycle,2,1214,390,1255,410
bicycle,2,1219,415,1240,489
vehicles,0,207,370,336,438
vehicles,0,1056,382,1097,449
vehicles,0,849,338,1073,437
bicycle,2,1158,381,1202,490
