vehicles,0,673,336,704,356
vehicles,0,528,285,629,386
vehicles,0,1041,385,1142,461
vehicles,0,1133,395,1222,505
bicycle,2,1220,416,1280,537
bicycle,2,979,377,1024,414
vehicles,0,646,334,678,354
person,1,807,297,844,374
vehicles,0,395,352,430,379
