vehicles,0,117,359,278,477
vehicles,0,621,325,657,360
vehicles,0,1104,348,1165,444
vehicles,0,1158,374,1232,485
vehicles,0,15,470,75,528
bicycle,2,1248,392,1280,503
person,1,408,345,424,385
person,1,959,301,980,349
person,1,979,309,996,350
vehicles,0,298,373,314,399
vehicles,0,314,375,347,399
vehicles,0,757,326,1100,417
person,1,290,377,305,405
