vehicles,0,451,19,534,63
vehicles,0,969,150,1142,296
vehicles,0,523,6,593,37
vehicles,0,302,55,395,106
person,1,588,6,609,49
vehicles,0,267,96,300,121
bicycle,2,1100,282,1127,318
vehicles,0,422,42,452,61
vehicles,0,604,10,938,122
vehicles,0,1159,764,1210,822
