vehicles,0,935,89,1070,196
vehicles,0,0,639,86,738
vehicles,0,1094,193,1135,230
vehicles,0,49,750,121,824
vehicles,0,155,913,191,954
vehicles,0,753,3,789,26
vehicles,0,362,43,422,109
bicycle,2,633,3,660,31
vehicles,0,653,3,740,35
vehicles,0,222,151,286,204
vehicles,0,51,422,90,501
bicycle,2,319,93,348,135
vehicles,0,285,93,327,158
vehicles,0,8,581,97,693
vehicles,0,68,188,272,461
bicycle,2,338,71,363,117
vehicles,0,433,3,625,75
vehicles,0,783,3,881,52
vehicles,0,795,12,857,49
