vehicles,0,51,765,112,820
vehicles,0,75,818,123,861
bicycle,2,323,51,429,166
bicycle,2,475,3,546,116
bicycle,2,188,181,262,273
bicycle,2,138,205,227,312
bicycle,2,80,353,135,439
vehicles,0,93,255,191,392
vehicles,0,151,263,195,312
vehicles,0,35,451,105,673
vehicles,0,768,9,1032,152
bicycle,2,622,3,709,83
