vehicles,0,272,3,633,180
vehicles,0,185,132,271,209
vehicles,0,1187,641,1237,722
vehicles,0,1101,354,1258,655
vehicles,0,743,22,808,65
vehicles,0,811,43,830,73
vehicles,0,896,92,964,140
vehicles,0,561,11,737,45
vehicles,0,961,128,1056,220
