vehicles,0,609,274,674,360
vehicles,0,193,302,499,464
vehicles,0,529,325,592,367
vehicles,0,585,334,613,354
vehicles,0,677,312,717,354
bicycle,2,931,340,995,414
vehicles,0,715,333,769,358
bicycle,2,1088,367,1152,471
person,1,1134,410,1165,451
bicycle,2,1141,393,1209,497
bicycle,2,1183,427,1199,476
bicycle,2,843,340,894,387
