vehicles,0,565,333,609,362
vehicles,0,630,303,669,350
vehicles,0,605,337,629,355
bicycle,2,1179,384,1234,509
bicycle,2,837,327,874,377
vehicles,0,740,331,769,359
vehicles,0,392,317,549,406
person,1,944,336,961,391
