vehicles,0,766,255,949,385
vehicles,0,693,256,751,297
vehicles,0,98,397,127,419
vehicles,0,662,257,685,276
vehicles,0,407,262,587,316
vehicles,0,202,324,264,360
bicycle,2,373,286,417,328
vehicles,0,1014,353,1215,496
vehicles,0,16,424,91,495
person,1,288,286,318,347
