vehicles,0,550,330,604,365
vehicles,0,626,297,675,358
vehicles,0,234,306,508,457
bicycle,2,941,343,979,405
bicycle,2,1090,378,1140,430
person,1,678,326,691,357
person,1,1068,354,1103,418
person,1,968,343,981,376
vehicles,0,742,335,787,361
vehicles,0,599,336,627,356
