vehicles,0,196,133,256,187
vehicles,0,166,178,198,213
vehicles,0,1171,533,1254,678
vehicles,0,1127,342,1236,529
vehicles,0,268,19,513,161
vehicles,0,1097,739,1250,929
person,1,972,122,991,145
vehicles,0,990,151,1063,208
vehicles,0,876,73,932,112
