bicycle,2,899,91,931,126
vehicles,0,1072,246,1115,293
vehicles,0,573,18,610,37
vehicles,0,774,38,797,67
vehicles,0,621,15,655,39
vehicles,0,1164,388,1207,466
vehicles,0,1129,324,1177,392
vehicles,0,1103,281,1141,328
vehicles,0,1199,482,1229,525
vehicles,0,1120,774,1211,867
vehicles,0,1012,180,1047,211
vehicles,0,1035,197,1070,241
vehicles,0,677,23,711,45
