vehicles,0,415,3,634,78
vehicles,0,1181,686,1227,768
vehicles,0,921,33,1128,279
vehicles,0,1105,370,1252,631
bicycle,2,704,8,751,62
person,1,832,21,878,100
vehicles,0,272,12,410,143
vehicles,0,1203,621,1235,678
vehicles,0,1149,344,1203,401
vehicles,0,1178,390,1205,417
vehicles,0,255,104,283,134
vehicles,0,218,118,271,168
vehicles,0,172,177,193,203
