vehicles,0,711,262,784,299
vehicles,0,658,258,687,277
vehicles,0,600,254,623,272
vehicles,0,684,258,714,278
vehicles,0,547,231,599,282
person,1,109,346,151,428
person,1,129,341,154,410
vehicles,0,483,254,523,290
bicycle,2,992,351,1030,378
vehicles,0,294,262,464,339
bicycle,2,43,395,115,508
vehicles,0,7,452,74,557
vehicles,0,1026,354,1258,547
person,1,162,309,192,371
person,1,958,317,979,349
person,1,187,299,216,365
