vehicles,0,783,261,848,314
vehicles,0,626,239,656,276
vehicles,0,81,339,211,455
bicycle,2,227,306,302,400
vehicles,0,375,249,462,321
vehicles,0,672,255,700,277
vehicles,0,701,248,764,292
person,1,750,244,789,299
person,1,332,219,387,329
person,1,503,233,528,283
person,1,553,236,572,277
vehicles,0,500,255,550,285
