vehicles,0,17,491,123,674
vehicles,0,1115,208,1137,231
bicycle,2,674,3,705,31
vehicles,0,745,10,806,41
vehicles,0,982,96,1114,223
person,1,128,240,185,295
bicycle,2,104,326,150,363
bicycle,2,64,449,93,469
bicycle,2,641,3,671,30
vehicles,0,897,53,954,99
