vehicles,0,231,345,402,432
person,1,980,255,1048,485
person,1,1025,244,1117,519
person,1,784,333,801,369
person,1,1094,249,1210,559
person,1,482,288,511,398
person,1,60,399,87,471
person,1,168,367,187,405
person,1,1179,311,1271,541
person,1,809,273,858,402
