vehicles,0,177,177,199,199
vehicles,0,152,203,173,225
person,1,1186,717,1233,735
person,1,1168,776,1215,793
bicycle,2,1100,301,1163,392
person,1,1144,300,1177,337
vehicles,0,266,73,362,148
person,1,363,43,385,84
person,1,1164,386,1208,410
