vehicles,0,75,767,102,798
vehicles,0,122,870,150,900
vehicles,0,306,53,396,134
person,1,463,3,493,70
person,1,0,572,108,618
person,1,471,3,509,66
person,1,891,34,914,75
person,1,771,3,792,35
person,1,997,89,1020,131
person,1,0,472,159,548
person,1,0,354,195,484
person,1,0,427,172,530
vehicles,0,392,38,465,87
person,1,68,197,230,338
person,1,80,239,157,328
person,1,522,3,574,50
