vehicles,0,1066,151,1125,227
vehicles,0,14,412,154,688
vehicles,0,60,725,97,776
person,1,149,186,202,236
person,1,386,28,402,71
person,1,192,149,246,199
vehicles,0,87,798,128,849
vehicles,0,56,697,73,727
person,1,79,319,119,348
person,1,74,340,115,367
person,1,130,216,181,261
person,1,120,237,167,274
person,1,206,115,272,183
vehicles,0,887,51,1082,214
person,1,325,33,385,98
person,1,226,108,286,172
person,1,269,61,320,140
