person,1,24,427,68,515
person,1,498,309,527,373
person,1,528,306,560,370
vehicles,0,170,402,237,447
vehicles,0,236,368,345,427
vehicles,0,662,308,1076,428
bicycle,2,993,291,1148,478
bicycle,2,1119,365,1238,590
vehicles,0,31,411,185,518
vehicles,0,391,342,463,382
