vehicles,0,1073,254,1167,370
vehicles,0,1037,191,1084,256
person,1,921,74,968,151
person,1,840,31,882,104
person,1,819,34,870,102
person,1,1182,620,1259,660
vehicles,0,1168,412,1228,509
vehicles,0,901,105,1053,224
person,1,762,3,813,81
person,1,731,3,771,69
person,1,1181,661,1254,701
