vehicles,0,653,15,812,89
vehicles,0,304,62,374,115
vehicles,0,210,116,252,163
vehicles,0,1161,394,1201,463
vehicles,0,252,104,283,138
vehicles,0,1126,326,1173,397
vehicles,0,375,2,541,84
vehicles,0,1199,544,1226,593
vehicles,0,1188,742,1210,765
vehicles,0,1175,780,1195,807
vehicles,0,1093,847,1168,940
vehicles,0,1184,461,1214,505
vehicles,0,193,151,221,177
