vehicles,0,1095,291,1207,442
vehicles,0,1156,794,1196,835
vehicles,0,1203,544,1228,593
vehicles,0,1177,433,1223,540
vehicles,0,882,85,985,159
vehicles,0,775,39,863,92
vehicles,0,350,47,409,80
vehicles,0,1203,586,1236,647
vehicles,0,499,3,635,49
bicycle,2,1074,246,1117,295
vehicles,0,213,85,317,174
