vehicles,0,69,774,136,847
vehicles,0,62,738,88,772
vehicles,0,19,608,105,724
vehicles,0,105,847,123,869
vehicles,0,122,870,150,908
vehicles,0,32,536,74,612
vehicles,0,51,413,84,466
person,1,25,473,69,496
person,1,31,459,73,481
vehicles,0,744,3,1025,165
person,1,1074,166,1101,195
vehicles,0,96,3,729,373
