vehicles,0,1174,477,1239,597
vehicles,0,1197,579,1236,639
vehicles,0,1151,768,1217,833
vehicles,0,915,126,1088,293
person,1,289,82,311,114
vehicles,0,1083,303,1222,494
vehicles,0,464,3,909,154
vehicles,0,204,137,243,178
bicycle,2,305,79,353,121
