vehicles,0,219,338,398,451
vehicles,0,615,325,658,362
vehicles,0,409,332,500,389
vehicles,0,495,334,540,367
vehicles,0,710,320,786,377
vehicles,0,689,327,726,362
vehicles,0,764,296,995,444
vehicles,0,12,397,167,562
vehicles,0,1170,452,1280,574
