vehicles,0,847,363,896,382
vehicles,0,346,377,378,392
vehicles,0,960,372,1007,417
vehicles,0,435,361,468,377
vehicles,0,1094,408,1128,435
vehicles,0,12,122,269,552
vehicles,0,1015,380,1046,423
vehicles,0,299,387,332,402
person,1,803,322,831,384
