vehicles,0,23,408,107,510
vehicles,0,807,279,842,302
vehicles,0,1163,432,1194,474
vehicles,0,839,288,864,307
vehicles,0,564,252,598,279
vehicles,0,150,335,238,403
vehicles,0,1006,338,1088,405
vehicles,0,604,250,646,273
vehicles,0,1107,405,1170,458
bicycle,2,545,259,569,283
