vehicles,0,102,843,135,884
bicycle,2,199,142,275,222
vehicles,0,285,102,327,146
vehicles,0,979,115,1023,152
vehicles,0,1043,172,1098,224
person,1,485,3,609,181
vehicles,0,788,23,843,62
vehicles,0,62,442,103,486
vehicles,0,139,210,247,301
vehicles,0,76,273,193,450
vehicles,0,962,100,989,131
vehicles,0,839,42,970,121
bicycle,2,718,3,794,53
bicycle,2,596,8,638,25
vehicles,0,38,561,82,673
