vehicles,0,753,27,847,83
vehicles,0,362,33,428,86
vehicles,0,1035,211,1166,378
vehicles,0,1145,371,1217,494
vehicles,0,158,194,179,214
vehicles,0,1204,527,1232,585
vehicles,0,207,148,231,173
person,1,1193,486,1231,506
vehicles,0,1124,863,1163,905
vehicles,0,1152,840,1184,874
vehicles,0,841,52,938,121
vehicles,0,514,2,711,54
vehicles,0,414,12,514,69
vehicles,0,308,61,352,103
vehicles,0,145,207,167,233
