vehicles,0,1029,139,1107,213
vehicles,0,56,730,78,757
vehicles,0,27,651,85,722
vehicles,0,103,836,143,881
vehicles,0,902,47,1061,148
bicycle,2,43,608,69,645
person,1,113,237,132,263
vehicles,0,4,240,238,635
