vehicles,0,17,492,117,674
vehicles,0,42,656,86,722
vehicles,0,46,709,78,750
vehicles,0,811,29,1070,204
vehicles,0,29,56,403,530
vehicles,0,296,17,440,124
vehicles,0,757,3,901,49
vehicles,0,426,3,743,79
