bicycle,2,838,6,943,126
bicycle,2,36,494,119,571
vehicles,0,795,3,891,53
vehicles,0,66,761,109,813
vehicles,0,43,681,89,739
vehicles,0,95,835,150,895
vehicles,0,193,5,485,274
bicycle,2,71,298,170,389
person,1,103,250,144,293
