vehicles,0,99,839,162,909
vehicles,0,64,764,108,809
bicycle,2,514,3,560,90
vehicles,0,71,271,186,411
vehicles,0,38,490,92,664
bicycle,2,675,3,742,71
bicycle,2,275,52,367,182
bicycle,2,53,414,112,504
vehicles,0,737,3,1039,154
bicycle,2,212,100,327,215
bicycle,2,384,3,497,133
bicycle,2,341,87,375,123
