vehicles,0,714,246,858,334
vehicles,0,660,253,683,272
vehicles,0,999,344,1096,398
bicycle,2,108,372,187,467
bicycle,2,60,387,124,507
bicycle,2,167,332,249,424
vehicles,0,227,288,369,386
vehicles,0,462,255,503,302
vehicles,0,243,338,263,358
vehicles,0,339,267,462,332
person,1,1193,451,1218,486
