vehicles,0,681,249,769,308
vehicles,0,655,255,681,275
vehicles,0,94,365,170,441
vehicles,0,870,298,919,321
bicycle,2,15,495,51,541
vehicles,0,249,301,317,356
vehicles,0,383,259,572,316
person,1,311,287,336,330
person,1,361,282,382,313
