vehicles,0,47,462,70,516
bicycle,2,315,65,347,111
bicycle,2,372,29,408,75
bicycle,2,411,23,446,57
person,1,0,557,114,617
person,1,4,632,113,685
vehicles,0,960,67,1000,102
vehicles,0,673,3,968,83
bicycle,2,450,3,482,41
vehicles,0,145,136,255,274
bicycle,2,280,83,318,133
person,1,1031,123,1068,182
bicycle,2,58,596,95,651
