vehicles,0,10,435,114,532
vehicles,0,778,323,919,411
vehicles,0,221,346,385,438
vehicles,0,555,337,584,356
vehicles,0,89,412,164,458
bicycle,2,975,357,1030,419
bicycle,2,1194,433,1248,515
bicycle,2,1157,400,1239,468
bicycle,2,906,345,962,403
vehicles,0,953,366,992,394
vehicles,0,375,325,509,378
vehicles,0,1034,404,1141,481
