vehicles,0,723,261,769,292
vehicles,0,778,275,857,322
vehicles,0,435,256,495,308
vehicles,0,480,256,531,296
vehicles,0,710,261,736,282
vehicles,0,495,252,550,287
vehicles,0,348,280,408,341
vehicles,0,846,292,1002,381
vehicles,0,607,240,667,290
vehicles,0,1097,403,1143,451
