vehicles,0,775,274,850,320
vehicles,0,616,246,662,283
vehicles,0,104,298,364,469
vehicles,0,716,265,749,288
bicycle,2,1141,429,1195,479
bicycle,2,376,281,471,344
vehicles,0,587,257,617,272
vehicles,0,562,260,605,276
