vehicles,0,377,9,567,102
vehicles,0,161,194,180,215
vehicles,0,642,20,926,158
vehicles,0,1193,691,1225,738
vehicles,0,286,54,382,134
vehicles,0,176,154,228,207
vehicles,0,1200,557,1243,644
vehicles,0,221,118,285,165
bicycle,2,553,3,590,38
vehicles,0,1151,360,1182,398
vehicles,0,1182,432,1216,486
vehicles,0,1199,495,1226,527
bicycle,2,1065,233,1128,299
vehicles,0,1207,642,1231,675
