vehicles,0,632,3,1036,197
bicycle,2,1015,105,1081,214
vehicles,0,345,60,381,81
vehicles,0,285,94,322,119
vehicles,0,180,196,202,218
vehicles,0,158,224,179,248
vehicles,0,110,286,131,312
bicycle,2,84,325,181,529
vehicles,0,230,140,257,167
