vehicles,0,480,338,522,366
vehicles,0,370,315,480,392
bicycle,2,894,352,926,376
vehicles,0,10,438,82,539
bicycle,2,1096,377,1142,453
vehicles,0,933,347,976,396
bicycle,2,1140,403,1171,455
bicycle,2,771,329,793,363
