vehicles,0,253,85,331,145
vehicles,0,399,3,555,89
vehicles,0,1215,628,1233,655
vehicles,0,1202,540,1236,585
vehicles,0,1210,683,1231,713
vehicles,0,831,62,983,171
vehicles,0,1162,406,1262,546
vehicles,0,538,6,645,53
vehicles,0,1208,580,1243,611
