vehicles,0,882,85,1197,343
vehicles,0,270,78,338,135
vehicles,0,1201,566,1233,618
vehicles,0,1190,486,1228,537
vehicles,0,325,46,398,100
vehicles,0,1150,390,1226,501
vehicles,0,442,16,512,68
vehicles,0,217,129,260,165
