vehicles,0,856,288,915,333
vehicles,0,798,273,859,317
vehicles,0,730,257,754,277
bicycle,2,205,320,278,388
bicycle,2,279,288,349,346
bicycle,2,1207,492,1254,553
vehicles,0,1021,372,1183,485
person,1,986,322,1006,349
