vehicles,0,62,752,117,819
person,1,929,37,960,89
person,1,897,25,936,78
person,1,194,81,218,131
person,1,747,3,772,33
vehicles,0,41,465,70,582
vehicles,0,119,3,478,412
vehicles,0,455,3,570,113
vehicles,0,30,653,88,724
vehicles,0,58,744,76,768
person,1,984,71,1015,111
