vehicles,0,72,781,167,893
bicycle,2,92,177,311,396
bicycle,2,241,42,451,287
vehicles,0,323,12,451,119
person,1,301,13,347,90
vehicles,0,16,294,186,755
person,1,870,3,938,120
bicycle,2,819,11,893,66
person,1,916,25,944,72
