vehicles,0,61,739,102,793
vehicles,0,101,843,122,863
vehicles,0,992,120,1031,166
vehicles,0,939,70,1026,190
bicycle,2,392,0,635,302
bicycle,2,158,17,379,374
person,1,56,323,100,358
vehicles,0,1013,115,1141,230
bicycle,2,795,0,906,150
bicycle,2,23,518,107,676
bicycle,2,636,3,743,170
bicycle,2,110,130,247,529
bicycle,2,874,24,998,194
