vehicles,0,63,747,99,792
vehicles,0,31,690,76,735
bicycle,2,646,3,932,234
bicycle,2,448,116,486,165
bicycle,2,503,3,546,33
bicycle,2,925,57,986,126
bicycle,2,1026,133,1061,170
person,1,964,48,1002,117
vehicles,0,15,3,380,718
bicycle,2,191,232,238,268
bicycle,2,252,3,597,296
