vehicles,0,752,268,785,288
bicycle,2,1111,408,1155,455
vehicles,0,571,256,595,277
bicycle,2,1090,376,1122,425
vehicles,0,426,203,571,325
vehicles,0,893,299,1072,406
vehicles,0,602,253,646,285
vehicles,0,795,276,824,299
