vehicles,0,27,666,79,725
vehicles,0,63,740,88,773
vehicles,0,127,878,150,905
vehicles,0,85,804,106,836
vehicles,0,31,549,78,641
vehicles,0,533,2,652,150
vehicles,0,805,1,1054,179
vehicles,0,1012,117,1087,204
person,1,38,416,65,437
vehicles,0,100,2,529,376
