vehicles,0,68,273,185,436
vehicles,0,24,477,102,549
vehicles,0,26,360,112,482
bicycle,2,958,70,987,92
person,1,200,109,274,190
person,1,8,640,121,713
vehicles,0,343,8,522,181
vehicles,0,990,103,1117,210
bicycle,2,268,96,304,133
