vehicles,0,318,52,402,110
vehicles,0,1100,285,1183,390
vehicles,0,1166,411,1255,546
vehicles,0,1213,597,1233,639
vehicles,0,557,3,720,55
bicycle,2,929,107,974,147
bicycle,2,976,142,1015,178
bicycle,2,790,37,813,63
bicycle,2,816,43,857,82
bicycle,2,852,69,898,102
vehicles,0,237,121,270,151
person,1,476,8,504,51
