vehicles,0,622,257,652,276
vehicles,0,541,248,595,287
vehicles,0,593,257,614,278
vehicles,0,748,268,793,297
bicycle,2,199,301,256,403
bicycle,2,221,294,280,393
bicycle,2,266,284,309,375
vehicles,0,796,287,833,306
vehicles,0,929,323,993,366
vehicles,0,1083,409,1202,513
vehicles,0,1071,378,1108,419
vehicles,0,1023,355,1054,393
vehicles,0,831,273,922,333
vehicles,0,319,271,424,342
vehicles,0,424,259,543,307
