vehicles,0,640,334,665,354
vehicles,0,524,341,549,361
vehicles,0,781,334,918,400
vehicles,0,735,326,811,375
vehicles,0,478,335,528,367
vehicles,0,716,330,749,364
vehicles,0,702,336,725,359
vehicles,0,272,360,314,417
vehicles,0,292,332,457,416
vehicles,0,92,399,194,482
bicycle,2,225,378,281,430
