vehicles,0,589,264,661,290
vehicles,0,949,327,1017,368
bicycle,2,341,292,379,345
vehicles,0,61,311,255,524
bicycle,2,324,306,346,330
vehicles,0,1193,474,1226,510
person,1,756,259,773,312
vehicles,0,397,269,550,319
vehicles,0,1227,510,1265,544
person,1,724,269,755,311
person,1,766,260,785,316
person,1,789,260,810,322
person,1,40,442,70,488
person,1,55,431,80,460
vehicles,0,187,312,343,404
vehicles,0,1004,351,1048,389
