vehicles,0,270,94,314,131
vehicles,0,1129,731,1230,839
vehicles,0,235,99,276,148
vehicles,0,558,14,585,33
vehicles,0,586,8,629,31
person,1,1121,491,1280,609
person,1,815,26,860,112
person,1,776,11,826,98
person,1,863,61,893,97
vehicles,0,899,87,947,129
person,1,487,16,505,41
vehicles,0,979,138,1021,179
vehicles,0,1013,175,1048,202
person,1,1005,159,1031,187
vehicles,0,1081,198,1280,685
vehicles,0,661,6,864,98
person,1,964,111,985,151
