bicycle,2,87,264,171,377
person,1,352,6,418,118
vehicles,0,430,14,501,60
vehicles,0,530,3,682,32
person,1,882,32,910,80
person,1,759,3,777,37
person,1,907,37,928,72
vehicles,0,895,53,937,96
person,1,1013,112,1045,152
person,1,0,549,80,597
person,1,133,24,294,285
person,1,846,17,868,54
person,1,826,7,846,38
bicycle,2,749,8,794,40
