vehicles,0,1113,411,1249,523
vehicles,0,784,270,838,299
vehicles,0,522,245,588,295
bicycle,2,5,434,175,630
vehicles,0,93,308,268,539
bicycle,2,939,316,962,334
vehicles,0,242,387,297,424
vehicles,0,228,341,289,390
vehicles,0,623,256,656,277
vehicles,0,233,273,402,419
vehicles,0,820,273,854,298
vehicles,0,415,255,557,346
