vehicles,0,864,111,1146,348
vehicles,0,230,121,275,163
vehicles,0,169,166,208,209
vehicles,0,1180,502,1232,601
vehicles,0,1197,591,1235,650
vehicles,0,328,24,485,105
vehicles,0,1119,322,1204,459
vehicles,0,1204,649,1228,689
