vehicles,0,395,345,442,368
vehicles,0,589,307,658,367
vehicles,0,543,336,582,354
person,1,99,402,125,463
person,1,1039,375,1065,433
person,1,935,276,1020,422
person,1,1097,333,1172,484
person,1,837,306,873,391
