vehicles,0,464,9,564,53
vehicles,0,1125,745,1221,857
vehicles,0,166,185,186,206
bicycle,2,1069,238,1116,288
vehicles,0,1139,333,1179,398
person,1,870,62,894,97
person,1,389,36,406,63
person,1,803,31,816,65
vehicles,0,339,51,400,91
