vehicles,0,236,47,353,167
vehicles,0,1146,725,1247,842
vehicles,0,1184,399,1220,465
person,1,1022,150,1045,178
person,1,977,112,1013,160
vehicles,0,1036,168,1070,200
vehicles,0,531,3,786,53
vehicles,0,800,21,855,51
vehicles,0,884,54,942,104
person,1,955,86,995,145
vehicles,0,1211,626,1232,687
