vehicles,0,483,333,539,377
vehicles,0,548,336,585,363
vehicles,0,11,445,98,540
vehicles,0,1116,364,1270,520
vehicles,0,125,412,166,468
vehicles,0,378,334,487,407
vehicles,0,763,300,1023,453
vehicles,0,128,352,356,504
vehicles,0,688,321,753,371
