vehicles,0,78,781,164,877
vehicles,0,70,762,94,793
vehicles,0,33,714,80,751
vehicles,0,57,311,147,477
vehicles,0,39,478,81,564
vehicles,0,41,559,67,612
bicycle,2,1014,117,1047,148
vehicles,0,887,61,985,151
person,1,917,35,1011,137
person,1,826,3,878,88
