vehicles,0,1120,403,1137,431
vehicles,0,996,349,1125,435
vehicles,0,680,250,789,300
vehicles,0,627,254,652,271
vehicles,0,945,320,976,340
vehicles,0,992,340,1034,354
vehicles,0,522,260,554,274
vehicles,0,795,279,847,298
person,1,183,339,207,384
person,1,119,279,194,451
person,1,367,277,381,309
person,1,234,239,333,414
