vehicles,0,391,25,469,92
vehicles,0,761,42,1169,351
vehicles,0,299,71,362,123
vehicles,0,710,16,831,80
vehicles,0,480,3,580,74
vehicles,0,202,146,235,180
vehicles,0,262,85,306,137
vehicles,0,1136,356,1198,448
vehicles,0,1173,413,1211,484
vehicles,0,1189,473,1226,554
vehicles,0,1213,635,1238,666
vehicles,0,1186,762,1212,791
vehicles,0,233,107,272,157
