vehicles,0,75,777,150,860
vehicles,0,159,187,214,239
bicycle,2,1033,126,1066,164
person,1,41,696,88,713
vehicles,0,47,393,117,536
person,1,78,305,132,350
vehicles,0,198,71,365,205
person,1,766,3,842,84
person,1,15,582,85,633
person,1,39,317,139,399
