vehicles,0,240,98,300,151
vehicles,0,216,132,245,163
vehicles,0,1204,651,1228,694
bicycle,2,1052,216,1094,278
vehicles,0,1205,685,1230,713
vehicles,0,297,47,405,120
vehicles,0,1072,215,1183,418
vehicles,0,1141,416,1234,545
person,1,425,20,443,54
vehicles,0,805,36,850,76
person,1,978,122,1026,176
vehicles,0,940,122,1036,198
