vehicles,0,907,357,1280,651
vehicles,0,321,294,360,318
vehicles,0,701,252,794,298
vehicles,0,963,324,995,358
bicycle,2,93,383,167,453
vehicles,0,575,234,730,348
person,1,409,273,422,308
vehicles,0,992,332,1067,376
vehicles,0,885,307,933,333
bicycle,2,336,263,432,409
person,1,854,280,870,306
person,1,460,256,479,291
person,1,442,257,461,302
