vehicles,0,749,270,890,349
vehicles,0,589,256,636,290
vehicles,0,470,259,556,319
vehicles,0,704,255,774,302
vehicles,0,682,249,741,291
vehicles,0,666,254,690,283
vehicles,0,546,256,578,286
bicycle,2,407,267,451,326
person,1,986,324,1012,390
person,1,908,299,937,355
person,1,1020,336,1048,364
person,1,1041,341,1056,370
person,1,1181,432,1232,496
vehicles,0,561,250,597,276
vehicles,0,242,306,344,404
