vehicles,0,1192,626,1234,748
vehicles,0,1077,270,1222,534
vehicles,0,1054,260,1131,379
vehicles,0,234,118,288,173
bicycle,2,1187,529,1231,566
bicycle,2,922,94,1045,261
person,1,1205,560,1244,629
vehicles,0,295,7,494,148
bicycle,2,694,3,816,139
