vehicles,0,628,298,695,368
bicycle,2,887,326,1013,420
vehicles,0,160,379,259,446
bicycle,2,308,367,329,394
vehicles,0,322,361,358,391
vehicles,0,386,338,449,374
person,1,1178,373,1232,490
person,1,347,328,378,392
person,1,1041,322,1078,418
person,1,253,348,282,424
person,1,477,324,489,359
person,1,455,324,467,363
person,1,289,342,324,409
vehicles,0,725,320,905,380
bicycle,2,1040,361,1107,419
person,1,1212,371,1239,489
