vehicles,0,479,242,553,292
vehicles,0,742,236,820,302
vehicles,0,712,252,745,280
vehicles,0,633,251,668,276
vehicles,0,407,264,477,321
bicycle,2,964,322,1003,358
person,1,25,408,118,543
bicycle,2,468,260,498,299
