vehicles,0,977,358,1139,443
vehicles,0,733,335,760,353
person,1,1142,388,1176,459
person,1,1186,410,1227,488
vehicles,0,841,335,875,380
vehicles,0,752,335,834,381
person,1,962,347,977,393
bicycle,2,860,335,901,395
vehicles,0,896,354,968,393
