vehicles,0,1192,593,1242,665
vehicles,0,1177,703,1228,766
vehicles,0,981,119,1051,176
vehicles,0,511,6,540,23
vehicles,0,465,14,491,32
person,1,1162,392,1210,423
vehicles,0,195,83,327,215
vehicles,0,190,170,211,202
vehicles,0,1045,176,1095,229
