vehicles,0,352,0,525,106
vehicles,0,75,781,101,814
vehicles,0,1122,223,1151,252
vehicles,0,1004,104,1026,126
vehicles,0,107,178,222,343
vehicles,0,57,340,120,434
bicycle,2,566,3,597,30
vehicles,0,622,3,694,26
vehicles,0,703,2,798,31
vehicles,0,36,489,96,544
vehicles,0,28,550,85,644
bicycle,2,43,653,73,683
vehicles,0,791,3,811,37
person,1,802,3,839,77
person,1,81,313,113,342
person,1,933,44,987,116
person,1,256,98,308,157
person,1,216,124,265,180
person,1,887,11,914,90
