vehicles,0,756,3,1022,181
vehicles,0,1007,109,1088,203
vehicles,0,34,628,84,699
vehicles,0,102,26,520,451
vehicles,0,62,745,91,779
vehicles,0,1091,188,1119,217
person,1,32,487,67,503
person,1,39,422,93,454
vehicles,0,82,281,121,367
vehicles,0,1122,231,1158,258
