vehicles,0,468,344,508,370
bicycle,2,1190,452,1228,521
person,1,17,481,43,530
vehicles,0,97,390,198,492
vehicles,0,195,389,223,450
vehicles,0,214,360,337,438
vehicles,0,394,348,435,388
vehicles,0,731,335,782,362
vehicles,0,332,350,401,402
vehicles,0,536,337,562,356
person,1,434,328,452,370
vehicles,0,498,342,530,362
