vehicles,0,918,353,1072,453
bicycle,2,1153,388,1265,548
bicycle,2,1224,452,1280,562
vehicles,0,279,378,409,437
vehicles,0,701,358,780,386
vehicles,0,527,357,605,387
person,1,807,277,867,404
bicycle,2,1095,385,1174,494
