vehicles,0,1133,359,1213,484
vehicles,0,1180,465,1220,525
vehicles,0,133,216,169,249
vehicles,0,1179,751,1206,786
vehicles,0,359,50,391,86
bicycle,2,291,92,313,121
vehicles,0,163,140,246,221
person,1,329,47,361,99
person,1,315,54,344,104
