vehicles,0,279,56,360,123
vehicles,0,1136,357,1224,489
vehicles,0,1205,590,1235,633
vehicles,0,1189,458,1267,595
vehicles,0,1080,241,1171,345
bicycle,2,659,3,680,26
bicycle,2,627,3,648,24
bicycle,2,750,15,785,58
bicycle,2,722,3,758,51
bicycle,2,686,3,725,46
bicycle,2,525,3,593,40
vehicles,0,357,31,418,76
bicycle,2,406,24,433,49
bicycle,2,805,24,846,78
