vehicles,0,1148,406,1184,443
vehicles,0,1107,376,1153,418
vehicles,0,7,477,35,511
bicycle,2,345,288,388,328
person,1,505,251,517,292
person,1,982,313,1002,351
vehicles,0,604,250,649,286
bicycle,2,421,280,454,301
bicycle,2,384,282,441,345
person,1,518,239,541,287
person,1,107,296,178,444
person,1,139,257,235,488
