vehicles,0,1127,219,1145,242
vehicles,0,67,759,87,784
bicycle,2,226,109,322,206
vehicles,0,101,191,139,241
vehicles,0,720,10,1096,249
vehicles,0,187,423,239,451
vehicles,0,85,281,241,445
vehicles,0,111,146,315,388
vehicles,0,14,392,162,657
