vehicles,0,133,219,171,253
vehicles,0,951,122,1080,229
bicycle,2,818,45,868,83
bicycle,2,670,10,694,35
vehicles,0,289,72,365,118
vehicles,0,1071,219,1104,258
person,1,646,3,663,34
person,1,931,73,954,110
vehicles,0,453,21,518,52
vehicles,0,497,5,558,30
