vehicles,0,827,58,1001,161
vehicles,0,296,65,345,107
vehicles,0,1040,190,1145,298
vehicles,0,1122,749,1223,864
vehicles,0,488,8,526,43
person,1,549,2,567,29
person,1,993,130,1028,170
vehicles,0,1175,405,1224,478
vehicles,0,1142,332,1206,413
vehicles,0,609,2,753,53
vehicles,0,752,21,809,61
person,1,346,49,366,84
