vehicles,0,385,19,489,73
vehicles,0,486,3,562,37
vehicles,0,1186,521,1245,645
vehicles,0,560,3,595,21
vehicles,0,1196,631,1235,672
vehicles,0,1200,684,1222,705
vehicles,0,357,48,386,66
vehicles,0,1150,374,1198,449
vehicles,0,535,3,824,149
person,1,167,179,204,211
person,1,857,39,876,67
bicycle,2,1020,192,1147,381
bicycle,2,336,62,373,102
bicycle,2,163,179,214,233
