vehicles,0,397,14,454,64
vehicles,0,130,207,177,258
vehicles,0,1152,385,1240,573
vehicles,0,1056,209,1163,318
vehicles,0,645,3,728,19
vehicles,0,437,7,464,38
bicycle,2,1134,338,1189,366
vehicles,0,778,19,911,90
bicycle,2,937,93,1002,154
person,1,362,31,387,61
person,1,325,46,347,85
