vehicles,0,918,295,966,339
vehicles,0,463,257,554,312
vehicles,0,211,294,357,440
vehicles,0,98,370,229,502
person,1,402,285,416,318
vehicles,0,1096,374,1172,431
person,1,860,266,877,304
person,1,886,277,903,302
