vehicles,0,560,246,606,286
vehicles,0,1044,386,1245,546
vehicles,0,862,291,1017,381
vehicles,0,792,280,840,310
vehicles,0,174,380,216,459
vehicles,0,145,329,256,458
vehicles,0,215,300,352,444
vehicles,0,320,275,430,373
vehicles,0,414,259,533,336
vehicles,0,717,267,749,281
bicycle,2,1026,343,1064,386
