vehicles,0,642,324,673,355
vehicles,0,501,331,558,365
vehicles,0,563,335,593,354
vehicles,0,703,333,736,357
bicycle,2,1079,351,1168,479
vehicles,0,887,340,954,397
vehicles,0,135,345,341,471
vehicles,0,387,332,487,389
person,1,826,290,873,395
person,1,71,388,114,484
person,1,759,324,776,349
