vehicles,0,560,252,593,277
vehicles,0,480,244,564,303
vehicles,0,727,255,766,280
vehicles,0,1207,445,1238,480
vehicles,0,181,366,205,400
person,1,867,270,880,302
vehicles,0,139,374,184,428
vehicles,0,246,334,274,356
vehicles,0,249,301,350,354
vehicles,0,764,262,823,285
person,1,1176,414,1205,449
person,1,416,263,430,297
vehicles,0,1165,413,1218,466
