vehicles,0,887,112,1131,315
vehicles,0,1194,545,1236,627
vehicles,0,179,134,246,192
vehicles,0,1164,776,1204,817
vehicles,0,1129,365,1231,535
vehicles,0,492,3,738,78
vehicles,0,1111,275,1144,321
person,1,416,14,440,69
person,1,1143,329,1187,360
person,1,483,3,527,33
person,1,849,34,871,84
