vehicles,0,690,256,772,290
vehicles,0,977,328,1019,347
vehicles,0,1019,346,1074,388
vehicles,0,1003,339,1027,356
bicycle,2,289,310,322,353
bicycle,2,1080,386,1106,410
person,1,1167,420,1192,455
person,1,9,462,83,550
bicycle,2,1203,475,1248,510
person,1,430,253,454,305
