bicycle,2,832,24,877,76
vehicles,0,50,316,157,457
vehicles,0,398,3,582,121
vehicles,0,80,294,148,346
vehicles,0,0,444,130,669
vehicles,0,64,770,196,962
vehicles,0,883,40,908,90
vehicles,0,889,46,1044,154
vehicles,0,159,106,358,292
