vehicles,0,784,273,815,293
vehicles,0,834,279,886,314
vehicles,0,933,309,1042,374
vehicles,0,462,259,548,294
vehicles,0,359,267,397,316
vehicles,0,595,195,697,294
person,1,1247,502,1270,530
person,1,218,246,305,380
person,1,404,213,444,319
person,1,441,225,463,299
