vehicles,0,1010,328,1200,513
vehicles,0,724,300,832,369
vehicles,0,560,341,583,358
vehicles,0,375,359,434,399
vehicles,0,433,344,484,384
vehicles,0,521,345,567,363
vehicles,0,150,359,351,480
vehicles,0,766,325,896,385
vehicles,0,681,338,726,356
