vehicles,0,225,3,462,175
vehicles,0,1028,231,1188,428
vehicles,0,1157,427,1217,502
vehicles,0,1181,497,1215,535
bicycle,2,1187,529,1225,566
vehicles,0,783,70,1025,227
vehicles,0,490,3,740,92
vehicles,0,1171,775,1202,813
