vehicles,0,11,413,135,531
vehicles,0,484,340,526,367
vehicles,0,523,342,547,360
vehicles,0,535,330,569,358
vehicles,0,632,333,662,358
vehicles,0,689,336,724,362
bicycle,2,784,341,858,403
vehicles,0,204,358,342,444
vehicles,0,735,340,764,371
vehicles,0,869,324,1280,609
vehicles,0,336,344,431,398
