vehicles,0,669,10,897,121
vehicles,0,1094,283,1247,481
vehicles,0,305,60,355,114
vehicles,0,268,87,308,133
vehicles,0,932,132,1111,294
vehicles,0,242,113,271,149
vehicles,0,1201,556,1237,610
vehicles,0,209,143,234,169
bicycle,2,424,29,485,70
vehicles,0,350,28,431,93
vehicles,0,1195,514,1227,561
vehicles,0,1193,497,1215,523
vehicles,0,1168,776,1204,817
