vehicles,0,721,316,844,395
vehicles,0,698,328,739,368
vehicles,0,235,359,356,430
vehicles,0,364,345,446,392
vehicles,0,443,343,493,373
vehicles,0,486,341,524,365
vehicles,0,522,339,553,359
vehicles,0,41,394,211,509
bicycle,2,1157,403,1241,504
vehicles,0,1010,353,1099,432
