vehicles,0,1215,618,1235,659
vehicles,0,1216,652,1233,679
vehicles,0,710,20,765,56
vehicles,0,897,94,951,136
vehicles,0,968,135,1059,223
vehicles,0,458,20,511,52
bicycle,2,1086,254,1118,288
bicycle,2,1186,446,1213,486
person,1,1060,204,1089,241
person,1,305,71,325,109
person,1,1058,185,1079,211
person,1,1057,201,1085,236
bicycle,2,794,43,861,88
bicycle,2,1197,496,1222,538
vehicles,0,1173,783,1206,822
