vehicles,0,865,72,904,105
vehicles,0,924,104,952,130
bicycle,2,1141,343,1161,368
bicycle,2,367,54,391,83
person,1,951,113,981,152
person,1,748,12,764,52
vehicles,0,1172,752,1202,794
vehicles,0,387,8,502,74
vehicles,0,199,117,260,171
vehicles,0,255,92,309,136
vehicles,0,1171,421,1214,484
vehicles,0,956,126,1003,173
