vehicles,0,61,742,91,788
bicycle,2,729,3,844,73
vehicles,0,822,8,963,110
vehicles,0,293,18,458,162
vehicles,0,38,276,176,471
vehicles,0,34,615,59,660
bicycle,2,1034,136,1061,164
person,1,983,91,1034,160
