vehicles,0,483,250,570,313
vehicles,0,613,252,653,283
vehicles,0,880,296,984,361
vehicles,0,808,277,875,318
vehicles,0,576,257,604,279
vehicles,0,775,271,819,296
vehicles,0,745,267,782,287
vehicles,0,988,335,1066,396
vehicles,0,366,269,454,316
bicycle,2,1208,488,1258,546
bicycle,2,1127,417,1169,457
vehicles,0,1052,364,1091,420
