vehicles,0,623,9,830,95
vehicles,0,451,3,592,70
vehicles,0,1058,156,1280,750
vehicles,0,902,102,1114,268
vehicles,0,259,98,306,139
vehicles,0,226,130,248,157
vehicles,0,242,118,263,148
vehicles,0,1178,772,1203,801
vehicles,0,361,28,457,90
vehicles,0,1101,857,1166,921
