person,1,272,69,343,154
vehicles,0,102,486,143,507
vehicles,0,8,454,166,561
vehicles,0,0,499,119,689
vehicles,0,613,2,657,44
vehicles,0,657,2,700,26
vehicles,0,43,310,193,490
vehicles,0,673,2,1017,198
vehicles,0,387,3,625,196
