bicycle,2,152,412,185,454
vehicles,0,188,401,228,442
vehicles,0,220,379,278,426
vehicles,0,282,371,320,410
bicycle,2,345,361,365,389
bicycle,2,323,370,340,396
person,1,957,329,979,408
person,1,962,329,988,411
vehicles,0,1018,383,1055,405
person,1,11,450,42,529
person,1,897,345,911,377
