vehicles,0,518,245,589,297
bicycle,2,415,269,485,322
bicycle,2,481,259,525,315
vehicles,0,891,301,999,368
vehicles,0,587,258,620,279
bicycle,2,1139,427,1177,469
bicycle,2,997,337,1017,373
vehicles,0,809,280,883,324
bicycle,2,1060,385,1109,427
