vehicles,0,1166,403,1214,476
vehicles,0,239,115,282,153
vehicles,0,220,130,241,162
vehicles,0,1215,564,1234,595
person,1,478,11,493,40
person,1,753,14,765,48
person,1,811,35,829,67
person,1,942,110,965,141
person,1,953,116,978,148
vehicles,0,1208,673,1240,711
person,1,346,45,375,74
vehicles,0,1006,156,1167,350
vehicles,0,1209,504,1226,536
