vehicles,0,792,274,833,299
vehicles,0,1057,375,1208,485
vehicles,0,753,264,787,287
vehicles,0,550,254,595,283
vehicles,0,919,305,1011,364
bicycle,2,112,427,173,474
vehicles,0,343,245,533,355
vehicles,0,637,253,659,274
person,1,1213,444,1243,498
person,1,892,289,907,319
person,1,99,315,163,427
person,1,334,259,364,309
