vehicles,0,539,253,574,275
bicycle,2,66,359,132,475
bicycle,2,49,381,94,479
vehicles,0,100,382,137,459
vehicles,0,414,245,528,300
vehicles,0,110,260,333,443
person,1,524,236,542,276
person,1,350,220,393,342
person,1,736,233,754,292
person,1,1062,361,1082,400
