bicycle,2,96,342,165,455
bicycle,2,204,291,273,386
vehicles,0,8,461,62,545
vehicles,0,252,251,447,361
person,1,543,236,560,278
person,1,458,223,486,290
vehicles,0,132,319,222,428
vehicles,0,1178,437,1280,552
