vehicles,0,79,786,106,819
vehicles,0,36,690,71,727
vehicles,0,352,25,448,105
vehicles,0,35,444,108,547
bicycle,2,32,380,128,451
vehicles,0,650,3,759,94
vehicles,0,759,3,816,56
vehicles,0,26,47,341,406
bicycle,2,548,3,641,93
vehicles,0,39,612,74,640
