vehicles,0,402,339,477,383
vehicles,0,475,341,514,366
vehicles,0,80,385,272,498
vehicles,0,296,353,403,414
vehicles,0,512,340,545,359
vehicles,0,543,308,592,356
vehicles,0,636,333,661,354
vehicles,0,910,355,950,393
bicycle,2,854,350,892,377
person,1,1182,419,1211,496
person,1,1201,432,1239,508
