vehicles,0,393,346,464,387
vehicles,0,279,351,389,419
vehicles,0,455,338,507,370
vehicles,0,630,334,657,355
vehicles,0,46,354,260,515
vehicles,0,502,329,544,361
vehicles,0,1085,402,1113,425
bicycle,2,849,350,884,378
vehicles,0,761,338,839,373
person,1,14,446,52,531
