vehicles,0,657,254,680,273
vehicles,0,821,270,1101,442
vehicles,0,173,365,208,469
bicycle,2,113,295,291,454
vehicles,0,80,298,178,448
vehicles,0,760,242,866,312
vehicles,0,1089,371,1224,528
vehicles,0,180,321,305,422
