vehicles,0,42,676,102,761
vehicles,0,45,636,72,684
bicycle,2,369,19,465,120
bicycle,2,559,3,633,60
person,1,888,24,914,68
person,1,868,9,893,65
person,1,926,46,946,78
vehicles,0,35,746,114,831
person,1,58,386,97,411
vehicles,0,168,51,394,270
person,1,64,373,101,397
vehicles,0,547,3,688,57
vehicles,0,69,162,187,305
