vehicles,0,179,153,232,222
vehicles,0,703,2,897,81
vehicles,0,1136,535,1265,759
vehicles,0,959,133,1110,273
vehicles,0,206,2,575,210
vehicles,0,652,3,696,26
person,1,953,111,970,135
person,1,1161,370,1211,411
person,1,1138,330,1188,363
