vehicles,0,941,297,990,340
vehicles,0,989,315,1095,381
vehicles,0,902,291,934,318
bicycle,2,1134,380,1165,430
person,1,1170,399,1201,444
vehicles,0,439,140,805,445
vehicles,0,1221,460,1278,529
vehicles,0,9,47,473,620
vehicles,0,826,270,872,301
person,1,1095,338,1139,406
