vehicles,0,1123,286,1181,365
bicycle,2,797,16,827,53
vehicles,0,1010,129,1109,218
vehicles,0,1191,422,1212,444
person,1,1185,403,1217,429
vehicles,0,813,22,1015,161
vehicles,0,1203,452,1219,490
vehicles,0,760,12,797,46
vehicles,0,389,3,667,60
