vehicles,0,76,777,109,816
vehicles,0,1131,233,1157,256
vehicles,0,104,841,150,898
bicycle,2,634,3,791,177
vehicles,0,691,3,797,84
bicycle,2,777,3,911,188
vehicles,0,395,3,690,227
vehicles,0,869,8,1123,218
vehicles,0,787,3,866,98
vehicles,0,111,333,149,353
vehicles,0,119,31,477,397
vehicles,0,12,354,186,711
