vehicles,0,666,15,741,41
vehicles,0,915,106,1034,197
vehicles,0,852,64,910,104
vehicles,0,1179,633,1241,726
vehicles,0,160,191,181,215
vehicles,0,739,28,853,83
vehicles,0,134,223,157,246
vehicles,0,1056,222,1137,314
vehicles,0,1182,421,1224,490
vehicles,0,1213,542,1230,585
vehicles,0,175,153,235,213
vehicles,0,1139,333,1190,417
vehicles,0,430,18,517,50
vehicles,0,280,38,369,109
vehicles,0,297,75,342,104
