vehicles,0,920,102,996,152
vehicles,0,980,151,1103,268
vehicles,0,556,3,685,33
vehicles,0,1170,388,1214,465
vehicles,0,355,41,418,75
vehicles,0,281,89,310,112
vehicles,0,703,13,807,50
vehicles,0,1178,652,1237,734
vehicles,0,175,139,251,212
vehicles,0,768,36,926,113
vehicles,0,427,3,521,50
