vehicles,0,735,299,893,407
vehicles,0,683,328,723,361
vehicles,0,670,320,701,354
vehicles,0,619,325,672,365
vehicles,0,409,350,460,367
vehicles,0,891,348,1245,506
vehicles,0,1222,458,1268,543
vehicles,0,424,329,482,358
