vehicles,0,425,281,589,423
vehicles,0,582,334,606,355
vehicles,0,751,325,822,370
vehicles,0,727,338,760,365
vehicles,0,68,414,139,481
vehicles,0,668,328,702,356
vehicles,0,1044,330,1084,397
bicycle,2,973,294,1136,483
vehicles,0,992,351,1041,431
vehicles,0,1091,371,1157,483
vehicles,0,138,344,393,485
