vehicles,0,381,308,440,380
vehicles,0,466,307,494,365
vehicles,0,530,331,576,356
vehicles,0,1015,362,1092,431
vehicles,0,851,350,914,385
person,1,1130,368,1164,451
person,1,452,267,474,391
person,1,430,265,465,399
vehicles,0,925,351,991,401
vehicles,0,230,364,325,403
