vehicles,0,64,760,87,789
bicycle,2,456,6,569,80
vehicles,0,102,229,197,326
vehicles,0,61,328,132,448
bicycle,2,943,71,976,101
person,1,178,146,239,217
person,1,24,616,71,632
vehicles,0,44,670,68,717
person,1,1018,114,1061,158
