vehicles,0,250,340,408,433
vehicles,0,949,347,1213,484
vehicles,0,444,326,522,379
vehicles,0,520,336,555,364
vehicles,0,778,329,867,379
vehicles,0,917,345,963,384
vehicles,0,90,435,117,496
vehicles,0,630,318,697,371
vehicles,0,94,384,226,475
person,1,220,355,261,420
vehicles,0,738,321,794,361
