vehicles,0,448,3,706,98
vehicles,0,826,85,1148,342
vehicles,0,1101,325,1220,505
vehicles,0,196,135,233,180
vehicles,0,1196,597,1239,650
vehicles,0,1175,459,1253,604
vehicles,0,177,172,195,195
bicycle,2,838,55,920,100
