vehicles,0,691,245,754,294
vehicles,0,601,239,709,323
vehicles,0,760,232,1278,554
bicycle,2,392,269,435,311
bicycle,2,336,280,397,332
bicycle,2,437,269,464,300
vehicles,0,884,271,1237,623
bicycle,2,470,257,491,289
person,1,527,244,538,282
person,1,79,284,172,513
