vehicles,0,723,22,799,60
vehicles,0,402,32,444,61
vehicles,0,157,174,199,220
vehicles,0,1142,752,1204,823
vehicles,0,364,47,404,74
vehicles,0,1126,831,1169,881
vehicles,0,1197,550,1213,588
vehicles,0,1158,395,1214,463
