vehicles,0,70,763,124,825
vehicles,0,47,742,85,784
bicycle,2,328,53,375,125
bicycle,2,812,8,887,71
vehicles,0,196,107,288,213
person,1,360,32,387,75
vehicles,0,39,281,154,508
vehicles,0,122,194,236,320
vehicles,0,886,41,1035,133
person,1,155,180,215,216
vehicles,0,1074,167,1124,213
