vehicles,0,703,5,739,38
vehicles,0,1145,775,1199,838
vehicles,0,406,28,448,59
vehicles,0,1194,490,1223,531
vehicles,0,1133,332,1186,408
vehicles,0,733,21,799,50
vehicles,0,524,2,567,45
vehicles,0,569,10,631,44
person,1,841,35,884,91
