vehicles,0,625,325,673,363
vehicles,0,443,328,526,378
vehicles,0,523,328,566,361
vehicles,0,1040,343,1280,579
vehicles,0,736,329,771,360
vehicles,0,718,333,741,355
bicycle,2,897,305,1060,462
vehicles,0,343,352,413,395
