vehicles,0,557,235,707,349
vehicles,0,837,283,893,322
vehicles,0,935,274,1257,526
vehicles,0,758,269,784,289
bicycle,2,517,252,553,280
bicycle,2,1226,483,1254,543
bicycle,2,309,285,366,341
bicycle,2,265,287,320,339
