vehicles,0,148,171,219,255
vehicles,0,379,9,495,86
vehicles,0,1186,474,1228,545
vehicles,0,195,145,236,184
bicycle,2,1006,170,1039,209
person,1,990,148,1023,184
vehicles,0,1209,608,1225,647
vehicles,0,498,5,610,52
vehicles,0,1063,249,1168,364
bicycle,2,1162,387,1180,410
bicycle,2,1174,412,1190,437
vehicles,0,600,2,796,84
