bicycle,2,1165,394,1228,482
vehicles,0,1212,414,1280,519
vehicles,0,838,340,896,374
bicycle,2,1129,393,1160,449
vehicles,0,892,333,994,393
bicycle,2,159,425,201,452
person,1,142,414,163,462
vehicles,0,231,365,341,434
vehicles,0,440,346,491,376
person,1,1073,332,1125,442
