vehicles,0,36,638,96,749
vehicles,0,1064,153,1111,210
vehicles,0,306,76,350,123
vehicles,0,125,213,212,328
person,1,855,2,903,98
person,1,891,7,936,117
person,1,28,583,77,611
person,1,33,472,90,507
person,1,27,565,75,587
person,1,1037,128,1053,153
vehicles,0,326,39,485,116
vehicles,0,198,179,237,218
vehicles,0,188,158,243,218
