vehicles,0,685,332,718,357
vehicles,0,347,355,424,393
vehicles,0,944,350,1164,463
bicycle,2,331,376,350,397
person,1,859,309,894,397
person,1,222,393,237,421
person,1,1221,401,1265,508
person,1,902,314,931,402
person,1,1187,412,1229,487
vehicles,0,1157,424,1200,465
