vehicles,0,378,26,458,102
bicycle,2,938,104,1038,200
vehicles,0,346,72,369,113
vehicles,0,48,577,93,624
person,1,960,61,994,114
vehicles,0,446,3,605,70
person,1,846,3,870,54
vehicles,0,46,195,249,500
person,1,896,35,920,78
vehicles,0,1114,223,1162,264
person,1,766,3,826,83
