vehicles,0,612,252,657,286
vehicles,0,782,260,984,386
vehicles,0,980,322,1009,349
vehicles,0,244,257,412,327
vehicles,0,738,227,813,289
vehicles,0,78,288,354,478
bicycle,2,524,264,549,306
person,1,525,237,553,284
vehicles,0,34,412,96,502
vehicles,0,1097,383,1149,435
person,1,467,229,510,303
