vehicles,0,760,50,1043,219
vehicles,0,166,183,193,213
vehicles,0,1202,575,1234,637
vehicles,0,259,79,311,141
vehicles,0,229,127,250,158
vehicles,0,188,154,217,181
vehicles,0,1206,634,1225,660
vehicles,0,1014,174,1128,322
vehicles,0,1142,776,1216,851
vehicles,0,1156,400,1213,472
vehicles,0,344,16,482,101
vehicles,0,1179,463,1226,549
vehicles,0,461,3,694,76
person,1,1195,535,1247,567
