vehicles,0,223,99,288,165
vehicles,0,200,145,229,181
vehicles,0,1204,619,1238,665
vehicles,0,1204,675,1225,708
vehicles,0,152,195,179,222
vehicles,0,1188,515,1240,619
vehicles,0,285,56,379,131
vehicles,0,955,136,1187,371
vehicles,0,383,0,557,94
