vehicles,0,110,844,134,869
vehicles,0,49,671,74,720
vehicles,0,124,872,166,911
vehicles,0,1041,134,1078,166
vehicles,0,49,176,281,519
vehicles,0,929,59,1048,166
vehicles,0,618,3,638,37
vehicles,0,732,47,755,79
vehicles,0,27,450,110,625
bicycle,2,360,3,459,155
bicycle,2,452,3,513,119
vehicles,0,816,3,854,95
vehicles,0,645,3,713,84
vehicles,0,549,3,625,96
vehicles,0,714,3,747,73
vehicles,0,757,3,819,79
vehicles,0,745,3,773,43
bicycle,2,324,59,406,133
person,1,1081,166,1107,200
