vehicles,0,409,2,505,44
vehicles,0,1208,564,1264,657
vehicles,0,1203,660,1229,696
vehicles,0,1193,710,1222,744
vehicles,0,1040,186,1111,271
vehicles,0,962,117,1056,201
vehicles,0,1115,282,1178,385
person,1,733,2,753,38
vehicles,0,1173,746,1233,816
person,1,1184,425,1223,447
