vehicles,0,725,263,764,280
vehicles,0,192,296,318,385
bicycle,2,918,313,943,345
person,1,450,221,477,322
person,1,943,304,957,345
person,1,1022,346,1049,375
person,1,949,306,968,349
person,1,380,230,415,332
vehicles,0,612,252,640,267
person,1,958,310,978,353
person,1,72,245,239,578
person,1,539,219,572,289
person,1,599,243,613,275
