vehicles,0,34,487,114,649
bicycle,2,616,3,667,45
bicycle,2,818,25,880,89
vehicles,0,183,220,254,274
vehicles,0,1040,148,1097,210
person,1,286,117,339,139
vehicles,0,358,41,458,109
person,1,773,3,800,45
vehicles,0,528,10,577,41
vehicles,0,61,218,202,510
person,1,134,25,357,339
person,1,43,725,95,752
