vehicles,0,717,256,740,281
vehicles,0,890,303,1040,383
person,1,201,229,286,419
person,1,373,220,417,337
person,1,609,241,629,283
person,1,342,240,380,290
bicycle,2,10,392,138,549
vehicles,0,690,260,723,285
bicycle,2,349,280,395,341
person,1,558,239,574,278
vehicles,0,829,285,887,316
person,1,313,233,375,356
