vehicles,0,1204,548,1241,621
vehicles,0,1103,286,1221,447
vehicles,0,1215,656,1237,684
vehicles,0,1207,693,1225,719
vehicles,0,1073,218,1153,300
person,1,637,3,667,55
person,1,931,78,958,117
person,1,986,121,1019,164
person,1,432,3,461,61
person,1,299,67,317,105
vehicles,0,1191,448,1229,539
