vehicles,0,1122,314,1192,409
vehicles,0,959,137,1050,207
vehicles,0,396,25,485,77
vehicles,0,333,40,401,99
vehicles,0,1178,420,1231,501
bicycle,2,482,21,518,53
person,1,744,10,767,67
vehicles,0,213,131,255,170
vehicles,0,308,73,338,110
vehicles,0,794,54,969,153
vehicles,0,587,3,728,58
person,1,563,3,596,40
