vehicles,0,965,92,1081,190
vehicles,0,943,74,997,107
vehicles,0,884,35,952,148
bicycle,2,1081,198,1106,223
bicycle,2,1087,207,1121,243
vehicles,0,766,0,820,27
person,1,532,0,577,36
vehicles,0,19,0,400,498
bicycle,2,575,0,897,269
person,1,0,406,166,549
bicycle,2,43,543,218,641
