vehicles,0,345,316,485,399
vehicles,0,635,334,665,359
vehicles,0,479,332,536,370
vehicles,0,532,336,569,362
vehicles,0,585,336,617,358
vehicles,0,684,335,717,359
vehicles,0,143,374,239,449
vehicles,0,66,439,113,477
vehicles,0,256,360,297,410
bicycle,2,882,355,922,388
bicycle,2,1129,426,1161,457
vehicles,0,1133,413,1228,484
