vehicles,0,11,331,319,607
vehicles,0,730,318,865,380
vehicles,0,583,340,607,357
vehicles,0,503,321,569,374
person,1,434,337,454,378
person,1,452,340,465,375
vehicles,0,1037,351,1280,594
bicycle,2,1008,347,1096,441
