vehicles,0,707,257,743,283
vehicles,0,841,276,1222,567
vehicles,0,576,249,601,284
bicycle,2,6,429,177,608
person,1,398,258,412,292
vehicles,0,454,190,583,320
vehicles,0,248,267,436,415
vehicles,0,736,259,779,292
vehicles,0,35,326,270,542
