vehicles,0,925,319,1063,397
vehicles,0,821,279,913,332
vehicles,0,149,366,176,399
vehicles,0,685,251,746,286
vehicles,0,752,257,823,302
vehicles,0,623,252,650,272
vehicles,0,1097,407,1229,519
bicycle,2,383,285,408,310
vehicles,0,322,302,352,324
vehicles,0,67,428,98,460
bicycle,2,271,313,321,351
person,1,189,296,238,390
