vehicles,0,660,333,682,356
vehicles,0,414,350,467,383
vehicles,0,268,385,306,426
vehicles,0,747,268,1026,443
vehicles,0,346,361,397,397
vehicles,0,680,329,730,364
vehicles,0,632,337,656,356
vehicles,0,468,349,523,372
person,1,323,348,348,396
