vehicles,0,1170,770,1203,810
bicycle,2,743,36,764,83
vehicles,0,1092,292,1138,345
bicycle,2,688,27,715,71
person,1,720,10,763,78
person,1,672,8,728,68
person,1,760,13,786,69
person,1,393,36,418,72
person,1,289,75,306,119
person,1,1179,392,1206,414
vehicles,0,297,79,336,115
vehicles,0,216,100,293,157
vehicles,0,1187,483,1225,528
vehicles,0,1193,521,1224,548
person,1,1145,363,1197,395
