vehicles,0,511,250,609,367
bicycle,2,166,390,202,443
bicycle,2,15,487,51,546
person,1,132,384,159,449
vehicles,0,596,265,719,396
vehicles,0,182,349,427,436
person,1,942,205,1050,518
person,1,859,277,907,382
