vehicles,0,968,315,1052,385
bicycle,2,160,317,244,409
vehicles,0,491,253,524,280
vehicles,0,1175,452,1221,497
bicycle,2,942,316,980,352
vehicles,0,478,214,721,397
vehicles,0,675,146,857,317
vehicles,0,278,265,360,343
person,1,1113,366,1174,452
person,1,430,227,472,335
person,1,870,277,894,310
