vehicles,0,348,20,450,97
vehicles,0,929,121,1029,195
vehicles,0,1162,417,1222,524
vehicles,0,1192,701,1219,738
person,1,804,30,845,97
person,1,873,64,919,132
bicycle,2,511,16,557,59
vehicles,0,607,3,789,89
vehicles,0,1127,321,1183,395
person,1,865,58,915,114
vehicles,0,832,53,943,133
