vehicles,0,1015,134,1109,222
vehicles,0,67,762,99,800
vehicles,0,92,817,123,852
vehicles,0,37,593,60,686
vehicles,0,51,690,64,728
person,1,27,495,64,515
person,1,1017,104,1038,131
vehicles,0,232,0,941,318
person,1,24,456,80,489
person,1,940,62,960,83
vehicles,0,967,78,1021,124
vehicles,0,1125,233,1161,263
