vehicles,0,169,150,236,216
vehicles,0,780,45,931,116
vehicles,0,984,152,1083,239
vehicles,0,1020,247,1263,637
vehicles,0,1185,643,1235,720
vehicles,0,380,29,449,65
vehicles,0,1156,775,1210,833
vehicles,0,707,2,844,51
vehicles,0,536,4,570,29
