vehicles,0,1157,783,1199,832
vehicles,0,196,157,225,183
person,1,983,126,1037,198
person,1,967,110,1024,180
vehicles,0,1132,372,1159,393
vehicles,0,1129,368,1183,423
vehicles,0,1150,397,1199,447
vehicles,0,1152,425,1221,518
vehicles,0,271,64,356,135
