vehicles,0,635,335,659,354
vehicles,0,557,335,592,358
vehicles,0,667,321,696,355
bicycle,2,881,292,1041,452
bicycle,2,1112,375,1209,477
vehicles,0,724,325,805,377
person,1,830,319,848,370
person,1,842,323,856,372
vehicles,0,582,336,603,354
vehicles,0,162,335,397,475
