vehicles,0,455,256,565,340
vehicles,0,637,260,735,292
vehicles,0,713,265,773,291
vehicles,0,775,273,830,299
person,1,1177,418,1210,479
person,1,297,269,352,391
person,1,1131,409,1157,433
person,1,386,268,408,336
person,1,406,267,431,333
