vehicles,0,124,368,180,438
vehicles,0,686,259,760,309
vehicles,0,82,413,120,452
vehicles,0,620,248,657,284
vehicles,0,894,302,936,326
vehicles,0,565,259,603,290
bicycle,2,204,348,271,408
vehicles,0,1021,346,1078,387
vehicles,0,1156,424,1271,528
vehicles,0,1082,382,1147,427
bicycle,2,948,358,1147,514
