vehicles,0,1039,144,1120,230
person,1,636,2,668,68
person,1,887,34,917,100
vehicles,0,115,854,196,953
vehicles,0,103,839,137,877
vehicles,0,9,367,174,805
person,1,239,105,299,195
bicycle,2,973,107,1051,201
