vehicles,0,647,5,697,33
vehicles,0,182,170,222,212
vehicles,0,702,11,766,41
vehicles,0,140,222,169,248
vehicles,0,766,23,809,47
vehicles,0,795,22,840,52
vehicles,0,546,3,652,42
person,1,255,111,285,147
vehicles,0,847,50,877,78
person,1,997,152,1149,295
