vehicles,0,491,247,577,314
vehicles,0,550,224,714,347
vehicles,0,693,221,788,309
vehicles,0,963,313,1029,360
vehicles,0,1132,370,1213,466
vehicles,0,821,240,961,339
vehicles,0,1193,447,1270,514
bicycle,2,391,283,476,355
person,1,45,405,112,528
person,1,1110,369,1130,411
person,1,320,287,351,361
vehicles,0,1074,355,1158,420
