vehicles,0,54,757,138,847
vehicles,0,1077,176,1116,214
person,1,459,3,514,94
vehicles,0,64,558,112,603
vehicles,0,45,601,113,730
bicycle,2,657,7,762,192
bicycle,2,805,35,924,179
vehicles,0,915,80,1074,198
