vehicles,0,1079,168,1119,206
vehicles,0,62,755,109,803
vehicles,0,83,802,103,825
person,1,91,312,144,350
person,1,42,474,79,497
vehicles,0,565,3,1015,173
vehicles,0,1105,193,1140,233
person,1,1011,118,1032,142
person,1,14,668,110,723
