vehicles,0,731,260,757,286
vehicles,0,757,271,795,294
person,1,99,344,148,441
person,1,134,325,172,409
person,1,185,345,224,395
person,1,297,273,339,346
person,1,40,397,120,518
person,1,455,255,467,298
person,1,478,254,493,291
person,1,38,462,73,536
person,1,70,464,88,503
vehicles,0,1038,352,1260,509
person,1,920,275,961,344
