vehicles,0,172,178,195,200
person,1,819,27,848,63
person,1,867,43,883,73
person,1,971,112,996,145
vehicles,0,194,49,331,179
vehicles,0,128,234,149,253
vehicles,0,1053,252,1201,436
vehicles,0,345,3,740,150
