vehicles,0,207,109,270,185
vehicles,0,182,162,215,194
vehicles,0,625,3,697,50
vehicles,0,1174,775,1202,817
vehicles,0,1197,659,1225,706
vehicles,0,958,141,1036,218
vehicles,0,1149,419,1220,568
person,1,852,63,874,98
