vehicles,0,143,905,201,962
person,1,391,21,417,67
person,1,842,13,909,110
person,1,883,23,964,133
person,1,13,416,109,470
person,1,2,455,108,514
person,1,35,661,76,683
vehicles,0,1109,204,1132,225
person,1,1112,217,1133,239
