vehicles,0,1168,720,1212,771
vehicles,0,1144,788,1192,847
vehicles,0,738,16,909,172
person,1,1102,306,1177,361
bicycle,2,431,14,465,61
vehicles,0,1032,260,1142,362
vehicles,0,345,24,414,73
vehicles,0,1132,413,1226,649
bicycle,2,1101,342,1167,396
bicycle,2,912,137,1037,228
person,1,991,133,1054,212
