vehicles,0,375,14,465,93
vehicles,0,1142,398,1252,630
vehicles,0,1123,312,1205,409
vehicles,0,1076,210,1103,237
vehicles,0,1106,263,1169,320
vehicles,0,1093,242,1138,271
vehicles,0,901,94,1064,267
person,1,1203,669,1253,701
person,1,1180,619,1240,657
vehicles,0,349,41,376,71
person,1,497,3,518,31
