person,1,515,2,561,70
person,1,272,92,290,120
vehicles,0,153,187,190,229
vehicles,0,737,7,763,37
vehicles,0,790,9,837,55
vehicles,0,830,13,930,82
vehicles,0,973,124,1054,184
vehicles,0,1050,197,1180,360
person,1,855,44,918,124
