vehicles,0,752,322,824,379
vehicles,0,628,311,682,367
vehicles,0,508,329,558,363
person,1,37,429,59,493
vehicles,0,269,316,418,413
person,1,67,410,95,476
bicycle,2,958,372,1020,436
person,1,1112,357,1219,524
