vehicles,0,531,148,839,449
bicycle,2,1155,445,1273,586
person,1,216,370,228,409
person,1,276,352,297,399
person,1,222,367,238,407
person,1,884,348,899,381
person,1,69,413,90,470
person,1,192,379,209,419
person,1,8,433,42,521
person,1,290,358,307,394
person,1,178,384,194,427
person,1,970,316,1057,435
