vehicles,0,31,625,97,719
vehicles,0,1072,175,1117,221
person,1,117,257,175,314
person,1,772,3,806,47
person,1,126,259,173,291
person,1,499,3,516,38
vehicles,0,557,3,612,27
person,1,47,345,142,456
person,1,243,71,322,180
