vehicles,0,163,415,185,464
person,1,636,176,757,465
person,1,325,335,354,403
person,1,501,261,575,415
person,1,596,241,661,407
vehicles,0,205,385,251,449
vehicles,0,695,133,1053,391
person,1,234,388,250,428
