vehicles,0,563,244,608,289
person,1,324,267,377,370
person,1,180,298,256,431
vehicles,0,119,346,211,438
person,1,247,290,298,406
person,1,1199,483,1274,583
person,1,810,269,829,305
person,1,45,386,139,515
bicycle,2,1044,371,1074,442
person,1,938,301,956,336
person,1,635,252,652,284
