vehicles,0,877,295,941,333
vehicles,0,784,269,846,311
vehicles,0,1118,386,1260,509
vehicles,0,548,206,656,281
vehicles,0,1086,380,1134,419
vehicles,0,1038,366,1087,398
person,1,90,392,143,482
vehicles,0,574,237,718,338
vehicles,0,277,328,350,397
