vehicles,0,705,245,854,342
vehicles,0,626,245,689,295
vehicles,0,686,255,711,274
bicycle,2,114,411,158,457
bicycle,2,43,469,89,519
bicycle,2,77,440,127,487
vehicles,0,252,330,300,374
vehicles,0,348,307,369,328
vehicles,0,291,313,334,349
