vehicles,0,411,1,551,75
vehicles,0,945,147,1087,272
vehicles,0,153,189,187,225
vehicles,0,1098,296,1232,474
vehicles,0,1209,643,1234,674
vehicles,0,1191,709,1218,748
vehicles,0,182,165,206,195
vehicles,0,196,78,362,215
vehicles,0,1210,607,1235,645
vehicles,0,553,17,581,35
person,1,309,67,328,90
vehicles,0,1201,562,1232,626
person,1,1182,763,1219,791
