vehicles,0,1157,772,1206,827
vehicles,0,167,186,187,208
vehicles,0,154,200,178,224
person,1,1149,366,1191,393
vehicles,0,519,2,843,127
vehicles,0,183,107,298,212
vehicles,0,1204,600,1234,661
vehicles,0,1192,665,1231,727
vehicles,0,338,46,398,85
