vehicles,0,951,305,1068,401
vehicles,0,614,250,670,298
person,1,311,275,346,350
person,1,390,262,402,305
person,1,1103,384,1131,429
person,1,103,360,134,427
vehicles,0,762,246,992,414
vehicles,0,661,255,683,277
vehicles,0,542,246,594,289
