person,1,11,487,51,529
person,1,1220,494,1248,533
person,1,1068,376,1084,407
vehicles,0,790,245,1068,474
vehicles,0,628,248,673,285
person,1,221,325,247,381
person,1,1079,344,1158,480
person,1,271,309,291,337
person,1,229,326,247,360
person,1,397,259,421,302
person,1,37,402,124,486
