vehicles,0,567,253,602,281
vehicles,0,1104,396,1135,429
bicycle,2,954,329,989,378
person,1,814,262,840,336
person,1,13,341,278,635
person,1,874,278,921,361
person,1,860,270,889,342
person,1,1226,492,1257,528
person,1,936,303,951,339
person,1,1242,500,1274,544
person,1,290,215,384,421
person,1,1193,457,1211,484
person,1,1219,482,1240,515
