vehicles,0,1136,235,1156,255
bicycle,2,69,617,112,691
bicycle,2,68,350,240,555
person,1,23,577,70,604
person,1,21,671,112,705
vehicles,0,46,608,86,674
vehicles,0,98,848,180,935
vehicles,0,869,70,1111,236
