vehicles,0,1180,728,1204,782
vehicles,0,1121,343,1179,402
bicycle,2,1144,409,1176,424
person,1,1057,239,1128,303
person,1,1181,560,1230,594
vehicles,0,1052,222,1090,264
person,1,1155,448,1217,494
bicycle,2,960,163,1059,257
person,1,1152,433,1215,464
vehicles,0,604,3,666,49
