vehicles,0,61,766,103,812
person,1,1038,132,1061,159
person,1,23,594,75,618
person,1,23,560,71,586
person,1,22,543,69,563
person,1,974,72,997,108
vehicles,0,76,815,127,864
person,1,1048,139,1070,170
person,1,1073,167,1091,191
bicycle,2,987,116,1020,144
vehicles,0,978,94,1041,147
