vehicles,0,698,330,747,368
vehicles,0,673,337,701,357
vehicles,0,728,315,824,386
bicycle,2,1087,389,1222,544
person,1,1042,329,1071,379
person,1,118,238,234,554
vehicles,0,990,366,1127,518
person,1,1153,330,1211,529
