vehicles,0,615,245,684,299
vehicles,0,686,257,717,280
vehicles,0,730,258,769,290
person,1,1116,381,1172,472
person,1,862,277,878,316
person,1,1208,469,1231,502
person,1,881,288,900,325
person,1,990,286,1067,416
