vehicles,0,523,329,585,372
vehicles,0,570,335,597,361
vehicles,0,603,264,810,422
vehicles,0,130,401,192,454
vehicles,0,44,451,68,481
person,1,302,350,318,397
person,1,284,355,304,383
vehicles,0,379,314,543,416
person,1,978,361,999,416
