vehicles,0,325,329,442,408
vehicles,0,616,315,683,367
vehicles,0,713,321,801,381
vehicles,0,506,313,563,360
bicycle,2,835,342,882,389
bicycle,2,1005,371,1065,428
person,1,1041,330,1112,470
bicycle,2,172,391,259,465
vehicles,0,434,328,513,379
