vehicles,0,9,439,95,532
person,1,479,317,500,366
person,1,466,316,486,367
person,1,460,315,472,367
person,1,495,312,514,363
person,1,1036,362,1057,421
person,1,1037,371,1065,428
person,1,951,352,966,391
person,1,920,344,937,388
person,1,1084,308,1198,521
person,1,731,314,751,353
