vehicles,0,1028,382,1125,453
vehicles,0,593,338,630,359
vehicles,0,673,339,701,357
person,1,419,323,444,406
person,1,43,415,96,517
vehicles,0,1121,426,1171,464
vehicles,0,892,348,1017,437
vehicles,0,1182,416,1280,514
