vehicles,0,350,294,553,422
vehicles,0,629,326,662,356
vehicles,0,676,338,711,353
vehicles,0,575,327,615,357
person,1,764,333,777,365
person,1,826,341,841,375
person,1,267,337,290,412
vehicles,0,142,356,262,482
vehicles,0,547,331,576,357
