vehicles,0,1073,211,1125,266
vehicles,0,750,3,816,39
vehicles,0,1170,379,1226,439
vehicles,0,1132,434,1280,719
vehicles,0,170,3,424,229
vehicles,0,906,48,967,88
vehicles,0,476,3,536,25
vehicles,0,429,15,456,31
vehicles,0,846,17,893,48
