vehicles,0,1093,336,1136,372
vehicles,0,48,380,140,510
vehicles,0,102,372,135,404
vehicles,0,255,268,288,292
vehicles,0,1217,454,1239,481
vehicles,0,290,243,337,278
vehicles,0,347,219,388,247
vehicles,0,901,224,941,251
person,1,131,275,246,436
vehicles,0,137,291,247,401
