vehicles,0,999,291,1166,418
vehicles,0,815,204,859,224
vehicles,0,1189,420,1214,442
vehicles,0,875,224,967,274
vehicles,0,514,163,658,230
vehicles,0,109,353,161,414
vehicles,0,181,318,208,346
vehicles,0,403,184,510,248
vehicles,0,652,170,723,208
vehicles,0,259,217,386,317
vehicles,0,388,211,415,236
vehicles,0,1206,440,1235,475
vehicles,0,1010,278,1046,296
