vehicles,0,1157,320,1185,361
vehicles,0,752,3,964,139
vehicles,0,1209,491,1235,547
vehicles,0,1174,359,1203,415
vehicles,0,1221,549,1237,584
vehicles,0,117,202,171,251
person,1,175,158,208,194
vehicles,0,208,111,263,167
vehicles,0,253,84,310,131
vehicles,0,307,57,343,90
vehicles,0,354,3,583,113
vehicles,0,1030,162,1089,194
vehicles,0,1092,874,1152,950
vehicles,0,1199,596,1248,696
vehicles,0,168,151,221,206
