vehicles,0,225,342,330,406
vehicles,0,368,320,433,360
vehicles,0,423,321,462,346
vehicles,0,479,316,522,336
vehicles,0,67,426,110,467
vehicles,0,836,291,1109,466
vehicles,0,699,310,788,345
vehicles,0,787,314,849,352
