vehicles,0,255,40,369,130
vehicles,0,527,3,762,101
vehicles,0,797,27,834,61
vehicles,0,350,27,397,67
vehicles,0,761,16,793,46
vehicles,0,1085,251,1151,350
vehicles,0,887,69,930,110
vehicles,0,211,102,264,156
vehicles,0,1201,570,1231,664
person,1,1168,427,1230,458
person,1,868,55,885,80
vehicles,0,903,92,1099,297
person,1,1168,443,1216,477
vehicles,0,1147,802,1188,870
