vehicles,0,534,92,931,324
vehicles,0,316,183,432,300
vehicles,0,232,261,287,313
vehicles,0,488,172,534,209
vehicles,0,1081,322,1149,390
vehicles,0,1144,373,1185,421
vehicles,0,1023,280,1061,318
vehicles,0,1175,413,1238,501
vehicles,0,434,191,471,212
vehicles,0,1053,305,1081,325
