vehicles,0,640,156,797,233
vehicles,0,35,229,309,571
vehicles,0,812,189,913,248
vehicles,0,268,245,324,291
vehicles,0,379,160,520,290
vehicles,0,576,167,637,203
vehicles,0,985,249,1060,314
vehicles,0,1205,426,1249,499
vehicles,0,785,189,822,212
vehicles,0,1131,352,1168,388
vehicles,0,956,224,1002,265
vehicles,0,920,223,986,270
vehicles,0,320,226,379,277
vehicles,0,524,179,557,198
