vehicles,0,998,111,1111,223
vehicles,0,39,468,109,614
vehicles,0,235,159,264,185
vehicles,0,67,438,91,485
vehicles,0,314,95,340,123
vehicles,0,56,673,74,719
vehicles,0,51,596,72,639
vehicles,0,90,294,173,410
