vehicles,0,390,3,519,104
vehicles,0,281,36,405,157
vehicles,0,60,415,90,495
vehicles,0,90,364,107,392
vehicles,0,61,713,85,751
vehicles,0,53,667,68,698
person,1,67,378,112,403
person,1,89,348,114,370
vehicles,0,526,3,567,23
vehicles,0,116,126,306,391
vehicles,0,245,77,316,145
vehicles,0,98,810,164,907
