vehicles,0,573,163,600,183
vehicles,0,439,166,509,218
vehicles,0,84,369,133,428
vehicles,0,126,333,164,380
vehicles,0,643,162,666,181
vehicles,0,213,284,238,304
vehicles,0,242,258,271,281
vehicles,0,304,177,449,286
vehicles,0,1101,338,1142,374
vehicles,0,505,154,577,210
vehicles,0,61,430,82,458
