vehicles,0,1204,615,1229,677
vehicles,0,1210,525,1233,584
vehicles,0,1155,328,1185,364
vehicles,0,1214,578,1232,615
vehicles,0,1176,357,1199,389
vehicles,0,1211,492,1228,525
vehicles,0,1198,445,1222,496
vehicles,0,1111,795,1182,910
