vehicles,0,657,3,1022,253
vehicles,0,67,427,98,467
vehicles,0,182,184,238,251
vehicles,0,366,15,489,102
vehicles,0,223,143,281,195
vehicles,0,160,224,190,278
vehicles,0,44,553,79,620
vehicles,0,261,126,303,160
vehicles,0,52,520,70,544
vehicles,0,84,379,109,415
vehicles,0,90,337,136,399
vehicles,0,120,277,169,346
vehicles,0,52,481,83,531
person,1,351,75,371,107
vehicles,0,40,615,128,802
