vehicles,0,581,306,659,345
vehicles,0,512,305,583,351
vehicles,0,650,308,718,347
vehicles,0,446,306,502,357
vehicles,0,45,421,99,476
vehicles,0,283,331,362,387
vehicles,0,959,358,1118,461
vehicles,0,200,347,289,409
vehicles,0,711,313,783,354
vehicles,0,771,315,827,353
vehicles,0,129,381,206,428
person,1,71,275,165,524
vehicles,0,824,326,858,341
