vehicles,0,620,3,857,90
vehicles,0,376,31,454,93
vehicles,0,260,98,325,144
vehicles,0,133,242,197,316
vehicles,0,42,481,100,561
vehicles,0,66,391,123,472
vehicles,0,64,710,109,781
vehicles,0,49,431,91,488
vehicles,0,790,11,1021,196
vehicles,0,219,138,288,205
vehicles,0,82,776,119,834
vehicles,0,107,817,154,883
vehicles,0,53,655,92,712
vehicles,0,45,587,95,662
vehicles,0,97,309,158,400
vehicles,0,167,189,234,255
vehicles,0,423,3,539,77
