vehicles,0,335,232,375,258
vehicles,0,287,252,319,278
vehicles,0,153,334,177,360
vehicles,0,109,373,128,396
vehicles,0,494,189,524,211
vehicles,0,83,395,109,422
vehicles,0,231,272,276,310
vehicles,0,506,187,590,217
person,1,481,187,497,225
