vehicles,0,382,3,595,72
person,1,159,176,180,201
vehicles,0,858,18,888,43
vehicles,0,110,252,131,282
vehicles,0,203,32,391,204
vehicles,0,170,155,208,197
vehicles,0,3,583,72,744
vehicles,0,61,346,83,380
