vehicles,0,51,374,205,471
vehicles,0,266,297,456,396
vehicles,0,586,297,673,352
vehicles,0,1086,397,1196,514
vehicles,0,421,292,501,354
vehicles,0,823,330,855,360
vehicles,0,495,299,592,350
vehicles,0,705,317,740,342
vehicles,0,671,314,706,338
vehicles,0,741,321,784,347
vehicles,0,781,323,827,353
vehicles,0,851,343,887,367
vehicles,0,883,350,916,373
vehicles,0,909,356,945,380
