vehicles,0,918,68,1018,156
vehicles,0,997,131,1085,223
vehicles,0,1076,226,1152,307
vehicles,0,1146,335,1218,447
vehicles,0,1196,465,1237,536
vehicles,0,1214,532,1238,582
vehicles,0,1216,574,1242,630
vehicles,0,1213,629,1236,660
vehicles,0,809,17,909,81
person,1,1196,708,1234,723
person,1,1069,194,1120,238
