vehicles,0,457,312,520,343
vehicles,0,499,308,603,345
vehicles,0,78,406,115,448
vehicles,0,124,396,150,420
vehicles,0,167,370,212,407
vehicles,0,205,363,233,386
vehicles,0,244,348,280,380
vehicles,0,275,344,324,372
