vehicles,0,156,316,317,438
vehicles,0,759,317,833,353
person,1,569,280,597,361
person,1,554,285,576,350
vehicles,0,298,310,415,387
person,1,726,310,740,342
vehicles,0,0,360,173,569
vehicles,0,489,317,535,336
vehicles,0,696,303,747,341
