vehicles,0,782,18,944,124
vehicles,0,964,113,1070,208
vehicles,0,1154,446,1250,698
vehicles,0,1160,359,1221,473
vehicles,0,1187,725,1214,759
person,1,937,76,987,140
vehicles,0,1055,164,1088,223
vehicles,0,1078,195,1114,246
