vehicles,0,136,118,330,322
vehicles,0,271,3,493,141
vehicles,0,121,271,150,320
vehicles,0,475,3,557,60
vehicles,0,20,437,142,693
vehicles,0,741,4,800,27
vehicles,0,99,327,130,362
person,1,78,819,171,876
