vehicles,0,951,272,1189,463
vehicles,0,809,215,1008,293
vehicles,0,330,166,516,281
vehicles,0,638,174,703,211
vehicles,0,763,191,840,219
vehicles,0,252,267,288,297
vehicles,0,1172,396,1198,440
vehicles,0,752,188,783,205
person,1,140,348,161,377
