vehicles,0,657,264,806,385
vehicles,0,486,267,645,367
vehicles,0,904,335,1112,455
vehicles,0,1040,327,1186,468
person,1,843,306,865,354
person,1,829,300,852,349
vehicles,0,368,279,502,374
vehicles,0,322,303,410,375
vehicles,0,262,347,318,374
