vehicles,0,779,3,961,108
vehicles,0,64,275,185,522
vehicles,0,142,182,230,291
vehicles,0,212,108,330,217
vehicles,0,349,61,374,87
vehicles,0,919,48,1038,152
vehicles,0,44,655,77,713
vehicles,0,63,709,85,752
person,1,301,81,361,130
person,1,492,3,534,53
vehicles,0,509,3,530,38
vehicles,0,410,3,519,84
