vehicles,0,957,109,1076,241
vehicles,0,409,2,558,60
vehicles,0,671,3,798,74
vehicles,0,835,27,968,148
vehicles,0,1111,723,1228,890
vehicles,0,1206,500,1234,548
vehicles,0,1205,696,1231,744
person,1,300,3,414,158
vehicles,0,224,80,278,136
vehicles,0,1149,306,1222,444
person,1,1101,264,1165,326
vehicles,0,1062,188,1202,325
