vehicles,0,716,3,933,112
vehicles,0,883,26,992,126
vehicles,0,978,71,1044,166
vehicles,0,1003,87,1075,187
vehicles,0,585,3,724,45
person,1,343,70,398,128
person,1,1104,195,1123,219
vehicles,0,1085,161,1116,216
