vehicles,0,821,289,919,369
vehicles,0,141,336,243,395
vehicles,0,230,313,320,360
vehicles,0,477,269,532,320
vehicles,0,1042,372,1175,468
vehicles,0,938,321,1031,406
vehicles,0,502,247,650,321
vehicles,0,737,277,821,339
person,1,436,268,467,345
person,1,651,255,678,334
vehicles,0,386,310,415,332
