vehicles,0,548,184,569,203
vehicles,0,599,174,649,212
vehicles,0,442,191,512,230
vehicles,0,52,326,206,490
vehicles,0,169,243,342,370
vehicles,0,287,211,425,283
vehicles,0,501,186,545,214
vehicles,0,700,181,745,214
vehicles,0,358,193,450,246
vehicles,0,902,233,1249,561
vehicles,0,741,178,838,242
vehicles,0,820,197,899,257
