vehicles,0,555,176,656,213
vehicles,0,927,245,1080,361
vehicles,0,90,263,371,474
vehicles,0,809,203,913,254
vehicles,0,751,188,812,223
vehicles,0,722,190,759,210
person,1,486,146,528,262
vehicles,0,670,183,702,206
vehicles,0,340,185,536,284
