vehicles,0,40,437,85,492
vehicles,0,685,178,756,209
vehicles,0,643,180,686,198
vehicles,0,776,193,820,221
vehicles,0,811,199,866,233
vehicles,0,64,361,129,474
vehicles,0,271,194,477,310
vehicles,0,99,239,371,458
