vehicles,0,198,332,307,379
vehicles,0,962,318,1163,508
vehicles,0,742,266,902,388
vehicles,0,897,310,940,375
vehicles,0,519,277,638,327
vehicles,0,488,285,562,323
vehicles,0,472,288,528,324
vehicles,0,1141,403,1198,506
vehicles,0,618,266,766,348
