vehicles,0,200,0,476,254
vehicles,0,632,0,907,109
vehicles,0,898,51,988,133
vehicles,0,1141,592,1252,801
vehicles,0,1139,332,1223,468
vehicles,0,1121,290,1195,373
vehicles,0,1108,265,1170,325
vehicles,0,1036,161,1085,205
person,1,1158,462,1246,532
person,1,1163,543,1264,603
