vehicles,0,266,2,632,161
vehicles,0,865,51,1108,302
vehicles,0,1063,213,1211,483
vehicles,0,1202,670,1226,733
vehicles,0,139,119,248,234
person,1,1108,892,1148,918
vehicles,0,1165,367,1232,552
vehicles,0,1092,849,1161,958
