vehicles,0,781,191,985,304
vehicles,0,349,198,476,266
vehicles,0,64,379,151,472
vehicles,0,110,368,145,389
vehicles,0,205,265,309,321
person,1,657,169,674,201
vehicles,0,891,226,1183,474
vehicles,0,147,309,244,390
vehicles,0,265,242,360,283
vehicles,0,477,184,560,216
