vehicles,0,32,245,342,536
vehicles,0,568,168,634,208
vehicles,0,626,175,688,207
person,1,737,172,757,227
person,1,774,171,802,239
person,1,713,160,735,224
vehicles,0,529,182,568,203
vehicles,0,272,196,485,309
vehicles,0,500,189,531,203
