vehicles,0,622,3,825,48
vehicles,0,37,420,83,535
vehicles,0,1045,149,1104,213
vehicles,0,31,585,49,636
vehicles,0,1029,132,1071,163
vehicles,0,997,105,1024,131
vehicles,0,1021,122,1044,141
person,1,105,273,158,320
person,1,964,75,980,104
person,1,978,83,996,114
vehicles,0,32,549,160,874
vehicles,0,435,3,528,47
