vehicles,0,376,17,409,75
vehicles,0,307,55,377,123
vehicles,0,402,3,703,170
vehicles,0,179,155,243,226
vehicles,0,54,416,80,459
vehicles,0,84,250,178,376
vehicles,0,45,450,75,511
vehicles,0,31,559,78,686
vehicles,0,41,500,63,543
person,1,939,69,1044,196
vehicles,0,692,3,974,131
vehicles,0,232,92,307,174
