vehicles,0,755,184,844,230
vehicles,0,1174,418,1203,452
vehicles,0,940,252,976,273
vehicles,0,39,379,141,494
vehicles,0,835,209,897,241
vehicles,0,894,221,928,250
vehicles,0,1152,394,1183,427
vehicles,0,1131,373,1159,404
vehicles,0,1064,319,1101,348
vehicles,0,1037,303,1066,323
vehicles,0,621,167,766,223
vehicles,0,1220,483,1248,513
