vehicles,0,109,125,347,359
vehicles,0,231,51,417,162
vehicles,0,79,311,159,426
vehicles,0,413,18,518,52
vehicles,0,838,22,985,127
vehicles,0,761,5,881,67
vehicles,0,674,3,764,22
vehicles,0,516,3,561,18
