vehicles,0,199,265,503,529
vehicles,0,490,352,564,391
vehicles,0,580,357,613,376
vehicles,0,664,363,717,384
vehicles,0,733,367,780,387
vehicles,0,773,369,828,396
vehicles,0,851,355,936,424
vehicles,0,1083,417,1174,486
vehicles,0,1167,441,1258,523
