vehicles,0,53,427,119,462
vehicles,0,203,386,254,420
vehicles,0,499,346,548,363
vehicles,0,536,331,676,387
vehicles,0,360,346,519,406
vehicles,0,774,357,832,380
vehicles,0,102,419,155,439
vehicles,0,232,362,357,429
vehicles,0,146,403,199,431
