vehicles,0,1116,288,1234,479
vehicles,0,712,3,896,88
vehicles,0,968,94,1028,142
vehicles,0,863,40,970,122
vehicles,0,1114,241,1163,307
vehicles,0,1192,661,1227,746
vehicles,0,1219,567,1234,610
person,1,320,38,338,76
