vehicles,0,36,558,166,868
vehicles,0,747,3,816,26
vehicles,0,97,338,121,368
vehicles,0,323,17,498,142
vehicles,0,212,152,255,185
vehicles,0,36,423,102,579
vehicles,0,63,386,100,445
vehicles,0,167,173,245,265
vehicles,0,296,56,369,138
vehicles,0,151,202,192,277
vehicles,0,495,6,552,39
vehicles,0,656,3,704,22
vehicles,0,813,3,1013,175
