vehicles,0,190,87,361,278
vehicles,0,68,732,179,924
vehicles,0,466,17,512,54
vehicles,0,331,83,362,104
vehicles,0,145,190,210,312
vehicles,0,64,378,113,508
vehicles,0,1047,150,1140,246
vehicles,0,637,3,694,22
vehicles,0,62,705,92,752
person,1,942,76,1027,187
person,1,830,3,908,134
vehicles,0,31,626,64,672
vehicles,0,53,425,82,527
vehicles,0,529,3,596,22
vehicles,0,705,3,946,126
