vehicles,0,1056,144,1082,182
vehicles,0,276,3,986,349
vehicles,0,32,475,109,635
vehicles,0,49,357,130,494
vehicles,0,137,209,206,269
vehicles,0,185,171,240,209
vehicles,0,1080,180,1128,218
person,1,91,283,169,348
