vehicles,0,610,249,707,351
vehicles,0,389,288,496,355
vehicles,0,919,336,988,396
vehicles,0,470,278,591,349
vehicles,0,722,288,820,363
vehicles,0,817,305,927,383
vehicles,0,1101,409,1162,466
vehicles,0,957,350,1040,409
person,1,124,151,333,529
person,1,230,205,312,457
