vehicles,0,698,288,771,341
vehicles,0,417,268,570,360
vehicles,0,314,276,465,370
vehicles,0,757,290,844,351
vehicles,0,198,321,324,396
vehicles,0,843,323,884,349
vehicles,0,892,311,1024,406
vehicles,0,576,261,694,354
vehicles,0,1072,399,1187,504
