vehicles,0,931,228,1144,429
vehicles,0,243,225,361,300
vehicles,0,473,190,518,216
vehicles,0,1118,349,1205,430
vehicles,0,666,172,853,254
person,1,560,137,604,238
vehicles,0,847,212,935,267
vehicles,0,43,245,268,522
person,1,633,134,679,237
vehicles,0,595,163,736,215
