vehicles,0,949,69,1008,104
vehicles,0,806,25,960,97
vehicles,0,19,492,163,778
vehicles,0,64,205,258,442
person,1,526,3,634,124
vehicles,0,774,6,888,29
vehicles,0,743,3,818,26
vehicles,0,980,118,1152,257
vehicles,0,277,22,505,163
