vehicles,0,1064,283,1280,561
vehicles,0,797,22,886,66
vehicles,0,1090,218,1120,254
vehicles,0,1114,255,1142,286
vehicles,0,1180,700,1221,764
vehicles,0,1214,640,1227,675
person,1,917,11,1115,287
person,1,797,3,985,261
vehicles,0,125,47,375,263
vehicles,0,281,3,490,108
vehicles,0,1216,560,1245,642
