vehicles,0,462,3,859,99
vehicles,0,173,114,259,196
vehicles,0,988,126,1042,176
vehicles,0,1133,553,1255,788
vehicles,0,1024,252,1277,693
vehicles,0,1082,202,1148,266
person,1,411,3,470,84
person,1,327,3,398,122
person,1,158,167,214,224
vehicles,0,211,96,287,131
vehicles,0,883,50,916,79
