vehicles,0,133,276,296,419
vehicles,0,931,245,976,280
vehicles,0,844,214,869,233
person,1,342,190,401,299
person,1,367,186,407,284
vehicles,0,546,170,649,221
vehicles,0,580,152,808,250
vehicles,0,946,232,1164,466
