vehicles,0,35,584,107,690
vehicles,0,266,3,1021,339
person,1,71,191,254,349
person,1,0,382,213,566
vehicles,0,101,283,167,396
vehicles,0,238,126,301,165
vehicles,0,278,97,319,127
vehicles,0,1090,178,1137,228
