vehicles,0,1004,168,1151,290
vehicles,0,946,113,1052,184
person,1,822,3,1010,213
person,1,735,3,834,155
vehicles,0,434,3,632,52
vehicles,0,831,36,907,73
vehicles,0,1073,270,1213,450
vehicles,0,1187,442,1220,491
vehicles,0,1099,691,1241,925
vehicles,0,1207,653,1220,689
