vehicles,0,0,53,593,723
vehicles,0,820,15,945,110
vehicles,0,963,85,1075,205
vehicles,0,339,53,387,86
vehicles,0,425,3,520,60
vehicles,0,682,3,839,59
vehicles,0,945,59,976,97
vehicles,0,1064,171,1147,252
