vehicles,0,359,174,497,296
vehicles,0,540,163,664,243
vehicles,0,214,218,368,361
vehicles,0,960,245,1031,307
vehicles,0,652,165,795,242
vehicles,0,119,255,258,416
vehicles,0,499,189,543,208
vehicles,0,868,221,988,288
person,1,995,217,1106,359
person,1,1082,304,1183,412
vehicles,0,1163,397,1230,478
