vehicles,0,159,193,364,384
vehicles,0,1090,320,1138,361
vehicles,0,248,163,520,366
vehicles,0,474,130,792,342
vehicles,0,771,174,1003,340
vehicles,0,941,222,1120,399
vehicles,0,1117,354,1226,491
vehicles,0,46,432,86,485
