vehicles,0,826,318,850,349
vehicles,0,652,267,841,405
vehicles,0,373,279,552,365
vehicles,0,857,287,1076,463
vehicles,0,72,393,157,453
vehicles,0,273,327,343,366
vehicles,0,619,302,647,318
vehicles,0,592,299,619,316
person,1,4,400,97,585
person,1,64,420,77,455
person,1,157,241,257,466
