vehicles,0,365,3,982,297
vehicles,0,40,497,111,669
vehicles,0,38,665,151,822
person,1,966,97,1059,202
vehicles,0,50,375,131,543
person,1,942,66,1018,184
vehicles,0,322,3,446,90
vehicles,0,189,201,213,226
