vehicles,0,263,76,396,181
vehicles,0,363,13,544,108
vehicles,0,132,185,253,332
vehicles,0,10,429,204,872
vehicles,0,453,3,600,50
vehicles,0,768,3,899,66
vehicles,0,1000,102,1043,138
vehicles,0,1094,183,1119,200
person,1,1048,158,1105,218
person,1,63,397,113,431
person,1,70,383,120,420
person,1,73,350,134,387
person,1,1015,129,1077,192
