vehicles,0,904,332,1027,407
vehicles,0,588,240,715,361
vehicles,0,972,336,1057,386
vehicles,0,432,274,574,358
vehicles,0,320,289,459,372
vehicles,0,730,281,888,383
vehicles,0,995,380,1188,525
vehicles,0,250,306,366,382
vehicles,0,708,296,739,337
