vehicles,0,14,432,174,710
vehicles,0,93,202,246,385
vehicles,0,227,104,321,175
vehicles,0,852,54,1062,205
vehicles,0,527,3,659,42
vehicles,0,120,155,276,270
person,1,662,2,723,153
person,1,799,2,915,152
vehicles,0,311,62,405,121
