vehicles,0,293,24,469,209
vehicles,0,423,25,488,59
vehicles,0,512,3,743,107
vehicles,0,724,3,888,105
vehicles,0,146,133,309,356
vehicles,0,88,246,170,469
vehicles,0,1031,117,1097,192
person,1,855,15,938,171
person,1,936,62,992,133
person,1,899,13,972,145
vehicles,0,925,63,1022,151
