vehicles,0,745,289,883,377
vehicles,0,860,315,968,395
vehicles,0,365,283,474,361
vehicles,0,918,320,1052,422
vehicles,0,258,314,332,377
vehicles,0,207,316,315,389
vehicles,0,602,271,715,355
person,1,1140,416,1177,481
person,1,6,357,92,572
vehicles,0,294,292,410,369
vehicles,0,437,263,590,355
vehicles,0,1037,368,1113,443
