0 0.2625 0.51375 0.0328125 0.0825 
0 0.21015625000000002 0.5231250000000001 0.018750000000000003 0.09375 
0 0.18906250000000002 0.525625 0.021875000000000002 0.09375 
0 0.140625 0.538125 0.021875000000000002 0.11125 
0 0.12070312500000001 0.535 0.025781250000000002 0.1275 
0 0.098828125 0.544375 0.02734375 0.11625 
