0 0.8390625 0.40875 0.05 0.215 
0 0.7914062500000001 0.41500000000000004 0.0390625 0.1625 
0 0.6683593750000001 0.450625 0.02421875 0.08375 
0 0.36796875 0.479375 0.0125 0.04125 
0 0.38203125000000004 0.480625 0.0140625 0.03875 
