0 0.193359375 0.4525 0.07734375 0.3025 
0 0.303515625 0.420625 0.10390625 0.46125 
0 0.37226562500000004 0.433125 0.08359375000000001 0.31125 
0 0.6109375 0.46 0.045312500000000006 0.20500000000000002 
0 0.662109375 0.439375 0.06796875000000001 0.26625 
