0 0.9832031250000001 0.44125000000000003 0.03359375 0.1575 
0 0.15234375 0.49 0.028125 0.10250000000000001 
0 0.045312500000000006 0.4925 0.026562500000000003 0.1 
0 0.276953125 0.4675 0.03671875 0.165 
0 0.238671875 0.470625 0.049218750000000006 0.18375 
0 0.069140625 0.486875 0.02890625 0.09875 
0 0.95078125 0.460625 0.026562500000000003 0.10875 
