classes = 1
train = /content/drive/MyDrive/Yolov4/train_yolo.txt
valid = /content/drive/MyDrive/Yolov4/valid_all.txt
names = /content/drive/MyDrive/Yolov4/pedestrian.names
backup =/content/drive/MyDrive/Yolov4/backup/last/
eval=coco