0 0.038671875 0.540625 0.025781250000000002 0.08875 
0 0.162109375 0.52875 0.02421875 0.0825 
0 0.2234375 0.52125 0.021875000000000002 0.09 
0 0.25546875 0.51625 0.018750000000000003 0.0725 
0 0.8187500000000001 0.46187500000000004 0.034375 0.14375000000000002 
