{"info": {
"year": 2021,
"date_created": "2021-12-17T03:39:32Z",
"version": "1.0",
"description": "viecamera None",
"contributor": "",
"url": "https://app.hasty.ai/projects/af3d39f9-e37a-4fa5-8b46-d58b2527cf68"
}, "licenses": [], "categories": [{
"id": 1,
"name": "pedestrian",
"supercategory": "object"
}], "images": [{
"id": 1,
"width": 1280,
"height": 800,
"file_name": "1461942875035462750_left_camera.jpeg",
"license": null,
"flickr_url": "",
"coco_url": null,
"date_captured": "2021-12-17T03:59:14Z"
}, {
"id": 2,
"width": 1280,
"height": 800,
"file_name": "1461942876840465561_left_camera.jpeg",
"license": null,
"flickr_url": "",
"coco_url": null,
"date_captured": "2021-12-17T03:59:14Z"
}, {
"id": 3,
"width": 1280,
"height": 800,
"file_name": "1461942931944846641_left_camera.jpeg",
"license": null,
"flickr_url": "",
"coco_url": null,
"date_captured": "2021-12-17T03:59:14Z"
}, {
"id": 4,
"width": 1280,
"height": 800,
"file_name": "1461942935301470801_left_camera.jpeg",
"license": null,
"flickr_url": "",
"coco_url": null,
"date_captured": "2021-12-17T03:59:14Z"
}, {
"id": 5,
"width": 1280,
"height": 800,
"file_name": "1461942952920720636_left_camera.jpeg",
"license": null,
"flickr_url": "",
"coco_url": null,
"date_captured": "2021-12-17T03:59:16Z"
}, {
"id": 6,
"width": 1280,
"height": 800,
"file_name": "1461942956239215992_left_camera.jpeg",
"license": null,
"flickr_url": "",
"coco_url": null,
"date_captured": "2021-12-17T03:59:16Z"
}, {
"id": 7,
"width": 1280,
"height": 800,
"file_name": "1461942971885963855_left_camera.jpeg",
"license": null,
"flickr_url": "",
"coco_url": null,
"date_captured": "2021-12-17T03:59:16Z"
}, {
"id": 8,
"width": 1280,
"height": 800,
"file_name": "1467641890025027814_left_camera.jpeg",
"license": null,
"flickr_url": "",
"coco_url": null,
"date_captured": "2021-12-17T03:59:16Z"
}, {
"id": 9,
"width": 1280,
"height": 800,
"file_name": "1467641890417571598_left_camera.jpeg",
"license": null,
"flickr_url": "",
"coco_url": null,
"date_captured": "2021-12-17T03:59:16Z"
}, {
"id": 10,
"width": 1280,
"height": 800,
"file_name": "1467641960837160664_left_camera.jpeg",
"license": null,
"flickr_url": "",
"coco_url": null,
"date_captured": "2021-12-17T03:59:18Z"
}, {
"id": 11,
"width": 1280,
"height": 800,
"file_name": "1467641963028450901_left_camera.jpeg",
"license": null,
"flickr_url": "",
"coco_url": null,
"date_captured": "2021-12-17T03:59:19Z"
}, {
"id": 12,
"width": 1280,
"height": 800,
"file_name": "1467641964719169733_left_camera.jpeg",
"license": null,
"flickr_url": "",
"coco_url": null,
"date_captured": "2021-12-17T03:59:19Z"
}, {
"id": 13,
"width": 1280,
"height": 800,
"file_name": "1467641978066119005_left_camera.jpeg",
"license": null,
"flickr_url": "",
"coco_url": null,
"date_captured": "2021-12-17T03:59:19Z"
}, {
"id": 14,
"width": 1280,
"height": 800,
"file_name": "1467641982111966759_left_camera.jpeg",
"license": null,
"flickr_url": "",
"coco_url": null,
"date_captured": "2021-12-17T03:59:19Z"
}, {
"id": 15,
"width": 1280,
"height": 800,
"file_name": "1467641995079349287_left_camera.jpeg",
"license": null,
"flickr_url": "",
"coco_url": null,
"date_captured": "2021-12-17T03:59:20Z"
}, {
"id": 16,
"width": 1280,
"height": 800,
"file_name": "1467641996109496428_left_camera.jpeg",
"license": null,
"flickr_url": "",
"coco_url": null,
"date_captured": "2021-12-17T03:59:21Z"
}, {
"id": 17,
"width": 1280,
"height": 800,
"file_name": "1467641996594961076_left_camera.jpeg",
"license": null,
"flickr_url": "",
"coco_url": null,
"date_captured": "2021-12-17T03:59:21Z"
}, {
"id": 18,
"width": 1280,
"height": 800,
"file_name": "1467642031879575450_left_camera.jpeg",
"license": null,
"flickr_url": "",
"coco_url": null,
"date_captured": "2021-12-17T03:59:21Z"
}, {
"id": 19,
"width": 1280,
"height": 800,
"file_name": "1467642088773274925_left_camera.jpeg",
"license": null,
"flickr_url": "",
"coco_url": null,
"date_captured": "2021-12-17T03:59:21Z"
}, {
"id": 20,
"width": 1280,
"height": 800,
"file_name": "1467642089477446149_left_camera.jpeg",
"license": null,
"flickr_url": "",
"coco_url": null,
"date_captured": "2021-12-17T03:59:22Z"
}, {
"id": 21,
"width": 1280,
"height": 800,
"file_name": "1467642090860919231_left_camera.jpeg",
"license": null,
"flickr_url": "",
"coco_url": null,
"date_captured": "2021-12-17T03:59:23Z"
}, {
"id": 22,
"width": 1280,
"height": 800,
"file_name": "1467642091555810145_left_camera.jpeg",
"license": null,
"flickr_url": "",
"coco_url": null,
"date_captured": "2021-12-17T03:59:23Z"
}, {
"id": 23,
"width": 1280,
"height": 800,
"file_name": "1467642097499750832_left_camera.jpeg",
"license": null,
"flickr_url": "",
"coco_url": null,
"date_captured": "2021-12-17T03:59:23Z"
}, {
"id": 24,
"width": 1280,
"height": 800,
"file_name": "1467642099286290755_left_camera.jpeg",
"license": null,
"flickr_url": "",
"coco_url": null,
"date_captured": "2021-12-17T03:59:23Z"
}, {
"id": 25,
"width": 1280,
"height": 800,
"file_name": "1467642132359551084_left_camera.jpeg",
"license": null,
"flickr_url": "",
"coco_url": null,
"date_captured": "2021-12-17T03:59:25Z"
}, {
"id": 26,
"width": 1280,
"height": 800,
"file_name": "1467642132692044394_left_camera.jpeg",
"license": null,
"flickr_url": "",
"coco_url": null,
"date_captured": "2021-12-17T03:59:24Z"
}, {
"id": 27,
"width": 1280,
"height": 800,
"file_name": "1467642132855825853_left_camera.jpeg",
"license": null,
"flickr_url": "",
"coco_url": null,
"date_captured": "2021-12-17T03:59:59Z"
}, {
"id": 28,
"width": 1280,
"height": 800,
"file_name": "1467642144888465997_left_camera.jpeg",
"license": null,
"flickr_url": "",
"coco_url": null,
"date_captured": "2021-12-17T03:59:25Z"
}, {
"id": 29,
"width": 1280,
"height": 800,
"file_name": "1467642147483370056_left_camera.jpeg",
"license": null,
"flickr_url": "",
"coco_url": null,
"date_captured": "2021-12-17T03:59:26Z"
}, {
"id": 30,
"width": 1280,
"height": 800,
"file_name": "1467642148204962523_left_camera.jpeg",
"license": null,
"flickr_url": "",
"coco_url": null,
"date_captured": "2021-12-17T03:59:27Z"
}, {
"id": 31,
"width": 1280,
"height": 800,
"file_name": "1467642148900314492_left_camera.jpeg",
"license": null,
"flickr_url": "",
"coco_url": null,
"date_captured": "2021-12-17T03:59:27Z"
}, {
"id": 32,
"width": 1280,
"height": 800,
"file_name": "1467642149916648050_left_camera.jpeg",
"license": null,
"flickr_url": "",
"coco_url": null,
"date_captured": "2021-12-17T03:59:27Z"
}, {
"id": 33,
"width": 1280,
"height": 800,
"file_name": "1467642151627197373_left_camera.jpeg",
"license": null,
"flickr_url": "",
"coco_url": null,
"date_captured": "2021-12-17T03:59:27Z"
}, {
"id": 34,
"width": 1280,
"height": 800,
"file_name": "1467642227131518920_left_camera.jpeg",
"license": null,
"flickr_url": "",
"coco_url": null,
"date_captured": "2021-12-17T03:59:29Z"
}, {
"id": 35,
"width": 1280,
"height": 800,
"file_name": "1467642227393297906_left_camera.jpeg",
"license": null,
"flickr_url": "",
"coco_url": null,
"date_captured": "2021-12-17T03:59:29Z"
}, {
"id": 36,
"width": 1280,
"height": 800,
"file_name": "1467642260388038417_left_camera.jpeg",
"license": null,
"flickr_url": "",
"coco_url": null,
"date_captured": "2021-12-17T03:59:28Z"
}, {
"id": 37,
"width": 1280,
"height": 800,
"file_name": "1467642261612544593_left_camera.jpeg",
"license": null,
"flickr_url": "",
"coco_url": null,
"date_captured": "2021-12-17T03:59:28Z"
}, {
"id": 38,
"width": 1280,
"height": 800,
"file_name": "1467642285486798415_left_camera.jpeg",
"license": null,
"flickr_url": "",
"coco_url": null,
"date_captured": "2021-12-17T03:59:29Z"
}, {
"id": 39,
"width": 1280,
"height": 800,
"file_name": "1467642285701447108_left_camera.jpeg",
"license": null,
"flickr_url": "",
"coco_url": null,
"date_captured": "2021-12-17T03:59:31Z"
}, {
"id": 40,
"width": 1280,
"height": 800,
"file_name": "1479393821536794704_left_camera.jpeg",
"license": null,
"flickr_url": "",
"coco_url": null,
"date_captured": "2021-12-17T05:14:21Z"
}, {
"id": 41,
"width": 1280,
"height": 800,
"file_name": "1515062659306582189_left_camera.jpeg",
"license": null,
"flickr_url": "",
"coco_url": null,
"date_captured": "2021-12-17T03:59:31Z"
}, {
"id": 42,
"width": 1280,
"height": 800,
"file_name": "1515062685032679267_left_camera.jpeg",
"license": null,
"flickr_url": "",
"coco_url": null,
"date_captured": "2021-12-17T03:59:31Z"
}, {
"id": 43,
"width": 1280,
"height": 800,
"file_name": "1515062724616640376_left_camera.jpeg",
"license": null,
"flickr_url": "",
"coco_url": null,
"date_captured": "2021-12-17T03:59:31Z"
}, {
"id": 44,
"width": 1280,
"height": 800,
"file_name": "1515062881013204390_left_camera.jpeg",
"license": null,
"flickr_url": "",
"coco_url": null,
"date_captured": "2021-12-17T03:59:31Z"
}, {
"id": 45,
"width": 1280,
"height": 800,
"file_name": "1515062881741031842_left_camera.jpeg",
"license": null,
"flickr_url": "",
"coco_url": null,
"date_captured": "2021-12-17T03:59:33Z"
}, {
"id": 46,
"width": 1280,
"height": 800,
"file_name": "1515062927149392893_left_camera.jpeg",
"license": null,
"flickr_url": "",
"coco_url": null,
"date_captured": "2021-12-17T03:59:33Z"
}, {
"id": 47,
"width": 1280,
"height": 800,
"file_name": "1515062927597290597_left_camera.jpeg",
"license": null,
"flickr_url": "",
"coco_url": null,
"date_captured": "2021-12-17T03:59:33Z"
}, {
"id": 48,
"width": 1280,
"height": 800,
"file_name": "1515062979678106400_left_camera.jpeg",
"license": null,
"flickr_url": "",
"coco_url": null,
"date_captured": "2021-12-17T03:59:33Z"
}, {
"id": 49,
"width": 1280,
"height": 800,
"file_name": "1515062987443998868_left_camera.jpeg",
"license": null,
"flickr_url": "",
"coco_url": null,
"date_captured": "2021-12-17T03:59:33Z"
}, {
"id": 50,
"width": 1280,
"height": 800,
"file_name": "1515062987707404098_left_camera.jpeg",
"license": null,
"flickr_url": "",
"coco_url": null,
"date_captured": "2021-12-17T03:59:14Z"
}, {
"id": 51,
"width": 1280,
"height": 800,
"file_name": "1515062988428053029_left_camera.jpeg",
"license": null,
"flickr_url": "",
"coco_url": null,
"date_captured": "2021-12-17T04:00:23Z"
}, {
"id": 52,
"width": 1280,
"height": 800,
"file_name": "1515063013278991688_left_camera.jpeg",
"license": null,
"flickr_url": "",
"coco_url": null,
"date_captured": "2021-12-17T04:00:24Z"
}, {
"id": 53,
"width": 1280,
"height": 800,
"file_name": "1515063014275722891_left_camera.jpeg",
"license": null,
"flickr_url": "",
"coco_url": null,
"date_captured": "2021-12-17T04:00:24Z"
}, {
"id": 54,
"width": 1280,
"height": 800,
"file_name": "1515063014928667542_left_camera.jpeg",
"license": null,
"flickr_url": "",
"coco_url": null,
"date_captured": "2021-12-17T04:00:23Z"
}, {
"id": 55,
"width": 1280,
"height": 800,
"file_name": "1515063053891910801_left_camera.jpeg",
"license": null,
"flickr_url": "",
"coco_url": null,
"date_captured": "2021-12-17T04:00:25Z"
}, {
"id": 56,
"width": 1280,
"height": 800,
"file_name": "1515063058344556117_left_camera.jpeg",
"license": null,
"flickr_url": "",
"coco_url": null,
"date_captured": "2021-12-17T04:00:26Z"
}, {
"id": 57,
"width": 1280,
"height": 800,
"file_name": "1515063059718452770_left_camera.jpeg",
"license": null,
"flickr_url": "",
"coco_url": null,
"date_captured": "2021-12-17T04:00:26Z"
}, {
"id": 58,
"width": 1280,
"height": 800,
"file_name": "1515063166849894000_left_camera.jpeg",
"license": null,
"flickr_url": "",
"coco_url": null,
"date_captured": "2021-12-17T04:00:26Z"
}, {
"id": 59,
"width": 1280,
"height": 800,
"file_name": "1515063217686132205_left_camera.jpeg",
"license": null,
"flickr_url": "",
"coco_url": null,
"date_captured": "2021-12-17T04:00:26Z"
}, {
"id": 60,
"width": 1280,
"height": 800,
"file_name": "1518519021143023329_left_camera.jpeg",
"license": null,
"flickr_url": "",
"coco_url": null,
"date_captured": "2021-12-17T04:00:28Z"
}, {
"id": 61,
"width": 1280,
"height": 800,
"file_name": "1518519021542039217_left_camera.jpeg",
"license": null,
"flickr_url": "",
"coco_url": null,
"date_captured": "2021-12-17T04:00:28Z"
}, {
"id": 62,
"width": 1280,
"height": 800,
"file_name": "1560848744623483646_left_camera.jpeg",
"license": null,
"flickr_url": "",
"coco_url": null,
"date_captured": "2021-12-17T04:00:28Z"
}, {
"id": 63,
"width": 1280,
"height": 800,
"file_name": "1560848745661740812_left_camera.jpeg",
"license": null,
"flickr_url": "",
"coco_url": null,
"date_captured": "2021-12-17T04:00:28Z"
}, {
"id": 64,
"width": 1280,
"height": 800,
"file_name": "1561539764059334068_left_camera.jpeg",
"license": null,
"flickr_url": "",
"coco_url": null,
"date_captured": "2021-12-17T04:00:28Z"
}, {
"id": 65,
"width": 1280,
"height": 800,
"file_name": "1561539764258322456_left_camera.jpeg",
"license": null,
"flickr_url": "",
"coco_url": null,
"date_captured": "2021-12-17T04:00:30Z"
}, {
"id": 66,
"width": 1280,
"height": 800,
"file_name": "1561539764454712882_left_camera.jpeg",
"license": null,
"flickr_url": "",
"coco_url": null,
"date_captured": "2021-12-17T04:00:30Z"
}, {
"id": 67,
"width": 1280,
"height": 800,
"file_name": "1561539764715413873_left_camera.jpeg",
"license": null,
"flickr_url": "",
"coco_url": null,
"date_captured": "2021-12-17T04:00:30Z"
}, {
"id": 68,
"width": 1280,
"height": 800,
"file_name": "1561539767369699933_left_camera.jpeg",
"license": null,
"flickr_url": "",
"coco_url": null,
"date_captured": "2021-12-17T04:00:30Z"
}, {
"id": 69,
"width": 1280,
"height": 800,
"file_name": "1561539767762400450_left_camera.jpeg",
"license": null,
"flickr_url": "",
"coco_url": null,
"date_captured": "2021-12-17T04:00:30Z"
}, {
"id": 70,
"width": 1280,
"height": 800,
"file_name": "1561539767961509621_left_camera.jpeg",
"license": null,
"flickr_url": "",
"coco_url": null,
"date_captured": "2021-12-17T04:00:31Z"
}, {
"id": 71,
"width": 1280,
"height": 800,
"file_name": "1561539768351992044_left_camera.jpeg",
"license": null,
"flickr_url": "",
"coco_url": null,
"date_captured": "2021-12-17T04:00:32Z"
}, {
"id": 72,
"width": 1280,
"height": 800,
"file_name": "1561539840633941142_left_camera.jpeg",
"license": null,
"flickr_url": "",
"coco_url": null,
"date_captured": "2021-12-17T04:00:32Z"
}, {
"id": 73,
"width": 1280,
"height": 800,
"file_name": "1561539841025304560_left_camera.jpeg",
"license": null,
"flickr_url": "",
"coco_url": null,
"date_captured": "2021-12-17T04:00:32Z"
}, {
"id": 74,
"width": 1280,
"height": 800,
"file_name": "1561539841409140190_left_camera.jpeg",
"license": null,
"flickr_url": "",
"coco_url": null,
"date_captured": "2021-12-17T04:00:32Z"
}, {
"id": 75,
"width": 1280,
"height": 800,
"file_name": "1561539857113675417_left_camera.jpeg",
"license": null,
"flickr_url": "",
"coco_url": null,
"date_captured": "2021-12-17T04:00:34Z"
}, {
"id": 76,
"width": 1280,
"height": 800,
"file_name": "1561539857513402568_left_camera.jpeg",
"license": null,
"flickr_url": "",
"coco_url": null,
"date_captured": "2021-12-17T04:00:34Z"
}, {
"id": 77,
"width": 1280,
"height": 800,
"file_name": "1561539857712662285_left_camera.jpeg",
"license": null,
"flickr_url": "",
"coco_url": null,
"date_captured": "2021-12-17T04:00:34Z"
}, {
"id": 78,
"width": 1280,
"height": 800,
"file_name": "1567680821567368172_left_camera.jpeg",
"license": null,
"flickr_url": "",
"coco_url": null,
"date_captured": "2021-12-17T05:14:21Z"
}, {
"id": 79,
"width": 1280,
"height": 800,
"file_name": "1567680893343512973_left_camera.jpeg",
"license": null,
"flickr_url": "",
"coco_url": null,
"date_captured": "2021-12-17T04:00:34Z"
}, {
"id": 80,
"width": 1280,
"height": 800,
"file_name": "1567680893610543077_left_camera.jpeg",
"license": null,
"flickr_url": "",
"coco_url": null,
"date_captured": "2021-12-17T04:00:34Z"
}, {
"id": 81,
"width": 1280,
"height": 800,
"file_name": "1567681877556211969_left_camera.jpeg",
"license": null,
"flickr_url": "",
"coco_url": null,
"date_captured": "2021-12-17T04:00:36Z"
}, {
"id": 82,
"width": 1280,
"height": 800,
"file_name": "1567681880454808131_left_camera.jpeg",
"license": null,
"flickr_url": "",
"coco_url": null,
"date_captured": "2021-12-17T04:00:36Z"
}, {
"id": 83,
"width": 1280,
"height": 800,
"file_name": "1573652616993239642_left_camera.jpeg",
"license": null,
"flickr_url": "",
"coco_url": null,
"date_captured": "2021-12-17T04:00:36Z"
}, {
"id": 84,
"width": 1280,
"height": 800,
"file_name": "1573652618371238920_left_camera.jpeg",
"license": null,
"flickr_url": "",
"coco_url": null,
"date_captured": "2021-12-17T04:00:36Z"
}, {
"id": 85,
"width": 1280,
"height": 800,
"file_name": "1574946325082026034_left_camera.jpeg",
"license": null,
"flickr_url": "",
"coco_url": null,
"date_captured": "2021-12-17T04:00:38Z"
}, {
"id": 86,
"width": 1280,
"height": 800,
"file_name": "1574946327701392049_left_camera.jpeg",
"license": null,
"flickr_url": "",
"coco_url": null,
"date_captured": "2021-12-17T04:00:38Z"
}, {
"id": 87,
"width": 1280,
"height": 800,
"file_name": "1574946331492910838_left_camera.jpeg",
"license": null,
"flickr_url": "",
"coco_url": null,
"date_captured": "2021-12-17T04:00:39Z"
}, {
"id": 88,
"width": 1280,
"height": 800,
"file_name": "1574946335486933333_left_camera.jpeg",
"license": null,
"flickr_url": "",
"coco_url": null,
"date_captured": "2021-12-17T04:00:39Z"
}, {
"id": 89,
"width": 1280,
"height": 800,
"file_name": "1574946637730041727_left_camera.jpeg",
"license": null,
"flickr_url": "",
"coco_url": null,
"date_captured": "2021-12-17T04:00:38Z"
}, {
"id": 90,
"width": 1280,
"height": 800,
"file_name": "1575538907057934709_left_camera.jpeg",
"license": null,
"flickr_url": "",
"coco_url": null,
"date_captured": "2021-12-17T04:00:23Z"
}, {
"id": 91,
"width": 1280,
"height": 800,
"file_name": "1575538907652967928_left_camera.jpeg",
"license": null,
"flickr_url": "",
"coco_url": null,
"date_captured": "2021-12-17T04:00:58Z"
}, {
"id": 92,
"width": 1280,
"height": 800,
"file_name": "1575538908777566356_left_camera.jpeg",
"license": null,
"flickr_url": "",
"coco_url": null,
"date_captured": "2021-12-17T04:00:58Z"
}, {
"id": 93,
"width": 1280,
"height": 800,
"file_name": "1575539038228070487_left_camera.jpeg",
"license": null,
"flickr_url": "",
"coco_url": null,
"date_captured": "2021-12-17T04:00:58Z"
}, {
"id": 94,
"width": 1280,
"height": 800,
"file_name": "1575539039269099179_left_camera.jpeg",
"license": null,
"flickr_url": "",
"coco_url": null,
"date_captured": "2021-12-17T04:00:58Z"
}, {
"id": 95,
"width": 1280,
"height": 800,
"file_name": "1575539040112557625_left_camera.jpeg",
"license": null,
"flickr_url": "",
"coco_url": null,
"date_captured": "2021-12-17T04:01:00Z"
}, {
"id": 96,
"width": 1280,
"height": 800,
"file_name": "1575539040904320156_left_camera.jpeg",
"license": null,
"flickr_url": "",
"coco_url": null,
"date_captured": "2021-12-17T04:01:00Z"
}, {
"id": 97,
"width": 1280,
"height": 800,
"file_name": "1575539041952261296_left_camera.jpeg",
"license": null,
"flickr_url": "",
"coco_url": null,
"date_captured": "2021-12-17T04:01:00Z"
}, {
"id": 98,
"width": 1280,
"height": 800,
"file_name": "1606997574560016728_left_camera.jpeg",
"license": null,
"flickr_url": "",
"coco_url": null,
"date_captured": "2021-12-17T04:01:00Z"
}, {
"id": 99,
"width": 1280,
"height": 800,
"file_name": "1606997586177641006_left_camera.jpeg",
"license": null,
"flickr_url": "",
"coco_url": null,
"date_captured": "2021-12-17T04:01:00Z"
}, {
"id": 100,
"width": 1280,
"height": 800,
"file_name": "1606997586812520550_left_camera.jpeg",
"license": null,
"flickr_url": "",
"coco_url": null,
"date_captured": "2021-12-17T04:01:02Z"
}, {
"id": 101,
"width": 1280,
"height": 800,
"file_name": "1606997598422744287_left_camera.jpeg",
"license": null,
"flickr_url": "",
"coco_url": null,
"date_captured": "2021-12-17T04:01:02Z"
}, {
"id": 102,
"width": 1280,
"height": 800,
"file_name": "1606997606063111733_left_camera.jpeg",
"license": null,
"flickr_url": "",
"coco_url": null,
"date_captured": "2021-12-17T04:01:02Z"
}, {
"id": 103,
"width": 1280,
"height": 800,
"file_name": "1606997612610711372_left_camera.jpeg",
"license": null,
"flickr_url": "",
"coco_url": null,
"date_captured": "2021-12-17T04:01:02Z"
}, {
"id": 104,
"width": 1280,
"height": 800,
"file_name": "1606997645169521393_left_camera.jpeg",
"license": null,
"flickr_url": "",
"coco_url": null,
"date_captured": "2021-12-17T04:01:02Z"
}, {
"id": 105,
"width": 1280,
"height": 800,
"file_name": "1606997675164445448_left_camera.jpeg",
"license": null,
"flickr_url": "",
"coco_url": null,
"date_captured": "2021-12-17T04:01:04Z"
}, {
"id": 106,
"width": 1280,
"height": 800,
"file_name": "1606997679367901781_left_camera.jpeg",
"license": null,
"flickr_url": "",
"coco_url": null,
"date_captured": "2021-12-17T04:01:04Z"
}, {
"id": 107,
"width": 1280,
"height": 800,
"file_name": "1606997700116076537_left_camera.jpeg",
"license": null,
"flickr_url": "",
"coco_url": null,
"date_captured": "2021-12-17T04:01:04Z"
}, {
"id": 108,
"width": 1280,
"height": 800,
"file_name": "1606997852690904750_left_camera.jpeg",
"license": null,
"flickr_url": "",
"coco_url": null,
"date_captured": "2021-12-17T04:01:04Z"
}, {
"id": 109,
"width": 1280,
"height": 800,
"file_name": "1606997913449859245_left_camera.jpeg",
"license": null,
"flickr_url": "",
"coco_url": null,
"date_captured": "2021-12-17T04:01:04Z"
}, {
"id": 110,
"width": 1280,
"height": 800,
"file_name": "1606997913711337673_left_camera.jpeg",
"license": null,
"flickr_url": "",
"coco_url": null,
"date_captured": "2021-12-17T04:01:06Z"
}, {
"id": 111,
"width": 1280,
"height": 800,
"file_name": "1606997914169389568_left_camera.jpeg",
"license": null,
"flickr_url": "",
"coco_url": null,
"date_captured": "2021-12-17T04:01:06Z"
}, {
"id": 112,
"width": 1280,
"height": 800,
"file_name": "1606997972589391545_left_camera.jpeg",
"license": null,
"flickr_url": "",
"coco_url": null,
"date_captured": "2021-12-17T04:01:06Z"
}, {
"id": 113,
"width": 1280,
"height": 800,
"file_name": "1606997973052907861_left_camera.jpeg",
"license": null,
"flickr_url": "",
"coco_url": null,
"date_captured": "2021-12-17T04:01:06Z"
}, {
"id": 114,
"width": 1280,
"height": 800,
"file_name": "1606997973445898252_left_camera.jpeg",
"license": null,
"flickr_url": "",
"coco_url": null,
"date_captured": "2021-12-17T04:01:06Z"
}, {
"id": 115,
"width": 1280,
"height": 800,
"file_name": "1606997973836407489_left_camera.jpeg",
"license": null,
"flickr_url": "",
"coco_url": null,
"date_captured": "2021-12-17T04:01:08Z"
}, {
"id": 116,
"width": 1280,
"height": 800,
"file_name": "1606997974099373735_left_camera.jpeg",
"license": null,
"flickr_url": "",
"coco_url": null,
"date_captured": "2021-12-17T04:01:08Z"
}, {
"id": 117,
"width": 1280,
"height": 800,
"file_name": "1606997980289861123_left_camera.jpeg",
"license": null,
"flickr_url": "",
"coco_url": null,
"date_captured": "2021-12-17T04:01:08Z"
}, {
"id": 118,
"width": 1280,
"height": 800,
"file_name": "1606998000678795840_left_camera.jpeg",
"license": null,
"flickr_url": "",
"coco_url": null,
"date_captured": "2021-12-17T04:01:08Z"
}, {
"id": 119,
"width": 1280,
"height": 800,
"file_name": "1606998001008386428_left_camera.jpeg",
"license": null,
"flickr_url": "",
"coco_url": null,
"date_captured": "2021-12-17T04:01:10Z"
}, {
"id": 120,
"width": 1280,
"height": 800,
"file_name": "1606998117838918631_left_camera.jpeg",
"license": null,
"flickr_url": "",
"coco_url": null,
"date_captured": "2021-12-17T04:01:10Z"
}, {
"id": 121,
"width": 1280,
"height": 800,
"file_name": "1606998118293559588_left_camera.jpeg",
"license": null,
"flickr_url": "",
"coco_url": null,
"date_captured": "2021-12-17T04:01:10Z"
}, {
"id": 122,
"width": 1280,
"height": 800,
"file_name": "1606998128361369892_left_camera.jpeg",
"license": null,
"flickr_url": "",
"coco_url": null,
"date_captured": "2021-12-17T04:01:10Z"
}, {
"id": 123,
"width": 1280,
"height": 800,
"file_name": "1612954464819107892_left_camera.jpeg",
"license": null,
"flickr_url": "",
"coco_url": null,
"date_captured": "2021-12-17T04:01:10Z"
}, {
"id": 124,
"width": 1280,
"height": 800,
"file_name": "1612954512145302155_left_camera.jpeg",
"license": null,
"flickr_url": "",
"coco_url": null,
"date_captured": "2021-12-17T04:01:13Z"
}, {
"id": 125,
"width": 1280,
"height": 800,
"file_name": "1612954529590565443_left_camera.jpeg",
"license": null,
"flickr_url": "",
"coco_url": null,
"date_captured": "2021-12-17T04:01:13Z"
}, {
"id": 126,
"width": 1280,
"height": 800,
"file_name": "1618998605780457824_left_camera.jpeg",
"license": null,
"flickr_url": "",
"coco_url": null,
"date_captured": "2021-12-17T04:01:12Z"
}, {
"id": 127,
"width": 1280,
"height": 800,
"file_name": "1629815224359870968_left_camera.jpeg",
"license": null,
"flickr_url": "",
"coco_url": null,
"date_captured": "2021-12-17T04:01:13Z"
}, {
"id": 128,
"width": 1280,
"height": 800,
"file_name": "1629815226538171630_left_camera.jpeg",
"license": null,
"flickr_url": "",
"coco_url": null,
"date_captured": "2021-12-17T04:01:13Z"
}, {
"id": 129,
"width": 1280,
"height": 800,
"file_name": "1629815227327045341_left_camera.jpeg",
"license": null,
"flickr_url": "",
"coco_url": null,
"date_captured": "2021-12-17T04:00:58Z"
}, {
"id": 130,
"width": 1280,
"height": 800,
"file_name": "1629815256067724802_left_camera.jpeg",
"license": null,
"flickr_url": "",
"coco_url": null,
"date_captured": "2021-12-17T04:01:34Z"
}, {
"id": 131,
"width": 1280,
"height": 800,
"file_name": "1629815262497456213_left_camera.jpeg",
"license": null,
"flickr_url": "",
"coco_url": null,
"date_captured": "2021-12-17T04:01:34Z"
}, {
"id": 132,
"width": 1280,
"height": 800,
"file_name": "1630059980475155031_left_camera.jpeg",
"license": null,
"flickr_url": "",
"coco_url": null,
"date_captured": "2021-12-17T04:01:34Z"
}, {
"id": 133,
"width": 1280,
"height": 800,
"file_name": "1630059981402019410_left_camera.jpeg",
"license": null,
"flickr_url": "",
"coco_url": null,
"date_captured": "2021-12-17T04:01:36Z"
}, {
"id": 134,
"width": 1280,
"height": 800,
"file_name": "1630059994564136110_left_camera.jpeg",
"license": null,
"flickr_url": "",
"coco_url": null,
"date_captured": "2021-12-17T04:01:36Z"
}, {
"id": 135,
"width": 1280,
"height": 800,
"file_name": "1630060033453800841_left_camera.jpeg",
"license": null,
"flickr_url": "",
"coco_url": null,
"date_captured": "2021-12-17T04:01:36Z"
}, {
"id": 136,
"width": 1280,
"height": 800,
"file_name": "1630060034624673362_left_camera.jpeg",
"license": null,
"flickr_url": "",
"coco_url": null,
"date_captured": "2021-12-17T04:01:36Z"
}, {
"id": 137,
"width": 1280,
"height": 800,
"file_name": "1630060036248555264_left_camera.jpeg",
"license": null,
"flickr_url": "",
"coco_url": null,
"date_captured": "2021-12-17T04:01:36Z"
}, {
"id": 138,
"width": 1280,
"height": 800,
"file_name": "1630060037031624794_left_camera.jpeg",
"license": null,
"flickr_url": "",
"coco_url": null,
"date_captured": "2021-12-17T04:01:37Z"
}, {
"id": 139,
"width": 1280,
"height": 800,
"file_name": "1630060102738804899_left_camera.jpeg",
"license": null,
"flickr_url": "",
"coco_url": null,
"date_captured": "2021-12-17T04:01:19Z"
}, {
"id": 140,
"width": 1280,
"height": 800,
"file_name": "1630060106355483034_left_camera.jpeg",
"license": null,
"flickr_url": "",
"coco_url": null,
"date_captured": "2021-12-17T04:01:19Z"
}, {
"id": 141,
"width": 1280,
"height": 800,
"file_name": "1630060109898912638_left_camera.jpeg",
"license": null,
"flickr_url": "",
"coco_url": null,
"date_captured": "2021-12-17T04:01:19Z"
}, {
"id": 142,
"width": 1280,
"height": 800,
"file_name": "1630060119532884080_left_camera.jpeg",
"license": null,
"flickr_url": "",
"coco_url": null,
"date_captured": "2021-12-17T04:01:19Z"
}, {
"id": 143,
"width": 1280,
"height": 800,
"file_name": "1630485058202414901_left_camera.jpeg",
"license": null,
"flickr_url": "",
"coco_url": null,
"date_captured": "2021-12-17T04:01:19Z"
}, {
"id": 144,
"width": 1280,
"height": 800,
"file_name": "1630485090504599180_left_camera.jpeg",
"license": null,
"flickr_url": "",
"coco_url": null,
"date_captured": "2021-12-17T04:01:21Z"
}, {
"id": 145,
"width": 1280,
"height": 800,
"file_name": "1630485091896813641_left_camera.jpeg",
"license": null,
"flickr_url": "",
"coco_url": null,
"date_captured": "2021-12-17T04:01:21Z"
}, {
"id": 146,
"width": 1280,
"height": 800,
"file_name": "1630485093271117601_left_camera.jpeg",
"license": null,
"flickr_url": "",
"coco_url": null,
"date_captured": "2021-12-17T04:01:21Z"
}, {
"id": 147,
"width": 1280,
"height": 800,
"file_name": "1637931186982289612_left_camera.jpeg",
"license": null,
"flickr_url": "",
"coco_url": null,
"date_captured": "2021-12-17T04:01:21Z"
}, {
"id": 148,
"width": 1280,
"height": 800,
"file_name": "1637931187901769845_left_camera.jpeg",
"license": null,
"flickr_url": "",
"coco_url": null,
"date_captured": "2021-12-17T04:01:21Z"
}, {
"id": 149,
"width": 1280,
"height": 800,
"file_name": "1637931190666104027_left_camera.jpeg",
"license": null,
"flickr_url": "",
"coco_url": null,
"date_captured": "2021-12-17T04:01:23Z"
}, {
"id": 150,
"width": 1280,
"height": 800,
"file_name": "1637931801879660310_left_camera.jpeg",
"license": null,
"flickr_url": "",
"coco_url": null,
"date_captured": "2021-12-17T04:01:23Z"
}, {
"id": 151,
"width": 1280,
"height": 800,
"file_name": "1637932236482015703_left_camera.jpeg",
"license": null,
"flickr_url": "",
"coco_url": null,
"date_captured": "2021-12-17T04:01:23Z"
}, {
"id": 152,
"width": 1280,
"height": 800,
"file_name": "1637932236871752764_left_camera.jpeg",
"license": null,
"flickr_url": "",
"coco_url": null,
"date_captured": "2021-12-17T04:01:23Z"
}, {
"id": 153,
"width": 1280,
"height": 800,
"file_name": "1637932237268757715_left_camera.jpeg",
"license": null,
"flickr_url": "",
"coco_url": null,
"date_captured": "2021-12-17T04:01:23Z"
}, {
"id": 154,
"width": 1280,
"height": 800,
"file_name": "1637932237667765800_left_camera.jpeg",
"license": null,
"flickr_url": "",
"coco_url": null,
"date_captured": "2021-12-17T04:01:25Z"
}, {
"id": 155,
"width": 1280,
"height": 800,
"file_name": "1637932378467252550_left_camera.jpeg",
"license": null,
"flickr_url": "",
"coco_url": null,
"date_captured": "2021-12-17T04:01:25Z"
}, {
"id": 156,
"width": 1280,
"height": 800,
"file_name": "1637932379255241866_left_camera.jpeg",
"license": null,
"flickr_url": "",
"coco_url": null,
"date_captured": "2021-12-17T04:01:25Z"
}, {
"id": 157,
"width": 1280,
"height": 800,
"file_name": "1638277208539804276_left_camera.jpeg",
"license": null,
"flickr_url": "",
"coco_url": null,
"date_captured": "2021-12-17T04:01:25Z"
}, {
"id": 158,
"width": 1280,
"height": 800,
"file_name": "1638277210862918495_left_camera.jpeg",
"license": null,
"flickr_url": "",
"coco_url": null,
"date_captured": "2021-12-17T04:01:25Z"
}, {
"id": 159,
"width": 1280,
"height": 800,
"file_name": "1638277225596942841_left_camera.jpeg",
"license": null,
"flickr_url": "",
"coco_url": null,
"date_captured": "2021-12-17T04:01:27Z"
}, {
"id": 160,
"width": 1280,
"height": 800,
"file_name": "1638280146802980067_left_camera.jpeg",
"license": null,
"flickr_url": "",
"coco_url": null,
"date_captured": "2021-12-17T04:01:27Z"
}, {
"id": 161,
"width": 1280,
"height": 800,
"file_name": "1638280147467665754_left_camera.jpeg",
"license": null,
"flickr_url": "",
"coco_url": null,
"date_captured": "2021-12-17T04:01:27Z"
}, {
"id": 162,
"width": 1280,
"height": 800,
"file_name": "1638280187671549380_left_camera.jpeg",
"license": null,
"flickr_url": "",
"coco_url": null,
"date_captured": "2021-12-17T04:01:27Z"
}, {
"id": 163,
"width": 1280,
"height": 800,
"file_name": "1638280188887284909_left_camera.jpeg",
"license": null,
"flickr_url": "",
"coco_url": null,
"date_captured": "2021-12-17T04:01:27Z"
}, {
"id": 164,
"width": 1280,
"height": 800,
"file_name": "1638280356427059459_left_camera.jpeg",
"license": null,
"flickr_url": "",
"coco_url": null,
"date_captured": "2021-12-17T04:01:29Z"
}, {
"id": 165,
"width": 1280,
"height": 800,
"file_name": "1638280357259230369_left_camera.jpeg",
"license": null,
"flickr_url": "",
"coco_url": null,
"date_captured": "2021-12-17T04:01:29Z"
}, {
"id": 166,
"width": 1280,
"height": 800,
"file_name": "1638280358384653100_left_camera.jpeg",
"license": null,
"flickr_url": "",
"coco_url": null,
"date_captured": "2021-12-17T04:01:29Z"
}, {
"id": 167,
"width": 1280,
"height": 800,
"file_name": "1638523188532665334_left_camera.jpeg",
"license": null,
"flickr_url": "",
"coco_url": null,
"date_captured": "2021-12-17T04:01:29Z"
}, {
"id": 168,
"width": 1280,
"height": 800,
"file_name": "1638523191202401482_left_camera.jpeg",
"license": null,
"flickr_url": "",
"coco_url": null,
"date_captured": "2021-12-17T04:01:29Z"
}, {
"id": 169,
"width": 1280,
"height": 800,
"file_name": "1638523192167014981_left_camera.jpeg",
"license": null,
"flickr_url": "",
"coco_url": null,
"date_captured": "2021-12-17T04:01:32Z"
}, {
"id": 170,
"width": 1280,
"height": 800,
"file_name": "1638523192949415189_left_camera.jpeg",
"license": null,
"flickr_url": "",
"coco_url": null,
"date_captured": "2021-12-17T04:01:32Z"
}, {
"id": 171,
"width": 1280,
"height": 800,
"file_name": "1638523227385796008_left_camera.jpeg",
"license": null,
"flickr_url": "",
"coco_url": null,
"date_captured": "2021-12-17T04:01:32Z"
}, {
"id": 172,
"width": 1280,
"height": 800,
"file_name": "1638523228948075988_left_camera.jpeg",
"license": null,
"flickr_url": "",
"coco_url": null,
"date_captured": "2021-12-17T04:01:32Z"
}, {
"id": 173,
"width": 1280,
"height": 800,
"file_name": "1638523229536238830_left_camera.jpeg",
"license": null,
"flickr_url": "",
"coco_url": null,
"date_captured": "2021-12-17T04:01:32Z"
}, {
"id": 174,
"width": 1280,
"height": 800,
"file_name": "1638523230954975996_left_camera.jpeg",
"license": null,
"flickr_url": "",
"coco_url": null,
"date_captured": "2021-12-17T04:01:33Z"
}, {
"id": 175,
"width": 1280,
"height": 800,
"file_name": "1638523232318940851_left_camera.jpeg",
"license": null,
"flickr_url": "",
"coco_url": null,
"date_captured": "2021-12-17T04:01:34Z"
}], "annotations": [{
"id": 0,
"image_id": 9,
"category_id": 1,
"segmentation": null,
"area": 28441,
"bbox": [
651,
56,
119,
239
],
"iscrowd": 0
}, {
"id": 1,
"image_id": 65,
"category_id": 1,
"segmentation": null,
"area": 58080,
"bbox": [
756,
31,
165,
352
],
"iscrowd": 0
}, {
"id": 2,
"image_id": 45,
"category_id": 1,
"segmentation": null,
"area": 3978,
"bbox": [
395,
194,
51,
78
],
"iscrowd": 0
}, {
"id": 3,
"image_id": 164,
"category_id": 1,
"segmentation": null,
"area": 18879,
"bbox": [
475,
99,
87,
217
],
"iscrowd": 0
}, {
"id": 4,
"image_id": 164,
"category_id": 1,
"segmentation": null,
"area": 11580,
"bbox": [
563,
117,
60,
193
],
"iscrowd": 0
}, {
"id": 5,
"image_id": 113,
"category_id": 1,
"segmentation": null,
"area": 29748,
"bbox": [
986,
149,
134,
222
],
"iscrowd": 0
}, {
"id": 6,
"image_id": 118,
"category_id": 1,
"segmentation": null,
"area": 29725,
"bbox": [
1028,
207,
145,
205
],
"iscrowd": 0
}, {
"id": 7,
"image_id": 114,
"category_id": 1,
"segmentation": null,
"area": 49896,
"bbox": [
598,
24,
154,
324
],
"iscrowd": 0
}, {
"id": 8,
"image_id": 44,
"category_id": 1,
"segmentation": null,
"area": 4218,
"bbox": [
771,
154,
38,
111
],
"iscrowd": 0
}, {
"id": 9,
"image_id": 44,
"category_id": 1,
"segmentation": null,
"area": 752,
"bbox": [
636,
185,
16,
47
],
"iscrowd": 0
}, {
"id": 10,
"image_id": 62,
"category_id": 1,
"segmentation": null,
"area": 83025,
"bbox": [
38,
155,
225,
369
],
"iscrowd": 0
}, {
"id": 11,
"image_id": 123,
"category_id": 1,
"segmentation": null,
"area": 3465,
"bbox": [
880,
169,
45,
77
],
"iscrowd": 0
}, {
"id": 12,
"image_id": 168,
"category_id": 1,
"segmentation": null,
"area": 13112,
"bbox": [
702,
146,
88,
149
],
"iscrowd": 0
}, {
"id": 13,
"image_id": 168,
"category_id": 1,
"segmentation": null,
"area": 1281,
"bbox": [
569,
183,
21,
61
],
"iscrowd": 0
}, {
"id": 14,
"image_id": 168,
"category_id": 1,
"segmentation": null,
"area": 2542,
"bbox": [
844,
181,
31,
82
],
"iscrowd": 0
}, {
"id": 15,
"image_id": 168,
"category_id": 1,
"segmentation": null,
"area": 4620,
"bbox": [
809,
169,
44,
105
],
"iscrowd": 0
}, {
"id": 16,
"image_id": 142,
"category_id": 1,
"segmentation": null,
"area": 32058,
"bbox": [
1136,
237,
117,
274
],
"iscrowd": 0
}, {
"id": 17,
"image_id": 99,
"category_id": 1,
"segmentation": null,
"area": 1357,
"bbox": [
691,
182,
23,
59
],
"iscrowd": 0
}, {
"id": 18,
"image_id": 99,
"category_id": 1,
"segmentation": null,
"area": 1624,
"bbox": [
840,
201,
29,
56
],
"iscrowd": 0
}, {
"id": 19,
"image_id": 172,
"category_id": 1,
"segmentation": null,
"area": 26433,
"bbox": [
633,
81,
99,
267
],
"iscrowd": 0
}, {
"id": 20,
"image_id": 172,
"category_id": 1,
"segmentation": null,
"area": 68748,
"bbox": [
959,
104,
204,
337
],
"iscrowd": 0
}, {
"id": 21,
"image_id": 172,
"category_id": 1,
"segmentation": null,
"area": 17372,
"bbox": [
711,
118,
86,
202
],
"iscrowd": 0
}, {
"id": 22,
"image_id": 78,
"category_id": 1,
"segmentation": null,
"area": 5424,
"bbox": [
854,
161,
48,
113
],
"iscrowd": 0
}, {
"id": 23,
"image_id": 74,
"category_id": 1,
"segmentation": null,
"area": 7772,
"bbox": [
394,
156,
58,
134
],
"iscrowd": 0
}, {
"id": 24,
"image_id": 67,
"category_id": 1,
"segmentation": null,
"area": 13468,
"bbox": [
192,
214,
91,
148
],
"iscrowd": 0
}, {
"id": 25,
"image_id": 144,
"category_id": 1,
"segmentation": null,
"area": 18424,
"bbox": [
918,
166,
98,
188
],
"iscrowd": 0
}, {
"id": 26,
"image_id": 144,
"category_id": 1,
"segmentation": null,
"area": 28704,
"bbox": [
748,
76,
104,
276
],
"iscrowd": 0
}, {
"id": 27,
"image_id": 25,
"category_id": 1,
"segmentation": null,
"area": 70560,
"bbox": [
256,
74,
245,
288
],
"iscrowd": 0
}, {
"id": 28,
"image_id": 2,
"category_id": 1,
"segmentation": null,
"area": 5046,
"bbox": [
636,
159,
58,
87
],
"iscrowd": 0
}, {
"id": 29,
"image_id": 3,
"category_id": 1,
"segmentation": null,
"area": 5264,
"bbox": [
580,
149,
56,
94
],
"iscrowd": 0
}, {
"id": 30,
"image_id": 22,
"category_id": 1,
"segmentation": null,
"area": 2223,
"bbox": [
203,
254,
39,
57
],
"iscrowd": 0
}, {
"id": 31,
"image_id": 22,
"category_id": 1,
"segmentation": null,
"area": 6413,
"bbox": [
322,
168,
53,
121
],
"iscrowd": 0
}, {
"id": 32,
"image_id": 22,
"category_id": 1,
"segmentation": null,
"area": 7345,
"bbox": [
361,
165,
65,
113
],
"iscrowd": 0
}, {
"id": 33,
"image_id": 33,
"category_id": 1,
"segmentation": null,
"area": 7800,
"bbox": [
260,
186,
60,
130
],
"iscrowd": 0
}, {
"id": 34,
"image_id": 33,
"category_id": 1,
"segmentation": null,
"area": 8875,
"bbox": [
234,
203,
71,
125
],
"iscrowd": 0
}, {
"id": 35,
"image_id": 33,
"category_id": 1,
"segmentation": null,
"area": 10152,
"bbox": [
161,
229,
72,
141
],
"iscrowd": 0
}, {
"id": 36,
"image_id": 33,
"category_id": 1,
"segmentation": null,
"area": 5278,
"bbox": [
212,
239,
58,
91
],
"iscrowd": 0
}, {
"id": 37,
"image_id": 54,
"category_id": 1,
"segmentation": null,
"area": 5115,
"bbox": [
299,
204,
55,
93
],
"iscrowd": 0
}, {
"id": 38,
"image_id": 100,
"category_id": 1,
"segmentation": null,
"area": 1998,
"bbox": [
595,
190,
37,
54
],
"iscrowd": 0
}, {
"id": 39,
"image_id": 100,
"category_id": 1,
"segmentation": null,
"area": 1428,
"bbox": [
474,
200,
28,
51
],
"iscrowd": 0
}, {
"id": 40,
"image_id": 103,
"category_id": 1,
"segmentation": null,
"area": 1596,
"bbox": [
802,
193,
28,
57
],
"iscrowd": 0
}, {
"id": 41,
"image_id": 130,
"category_id": 1,
"segmentation": null,
"area": 1728,
"bbox": [
278,
221,
27,
64
],
"iscrowd": 0
}, {
"id": 42,
"image_id": 130,
"category_id": 1,
"segmentation": null,
"area": 2812,
"bbox": [
219,
240,
38,
74
],
"iscrowd": 0
}, {
"id": 43,
"image_id": 131,
"category_id": 1,
"segmentation": null,
"area": 4200,
"bbox": [
501,
167,
42,
100
],
"iscrowd": 0
}, {
"id": 44,
"image_id": 131,
"category_id": 1,
"segmentation": null,
"area": 7747,
"bbox": [
828,
149,
61,
127
],
"iscrowd": 0
}, {
"id": 45,
"image_id": 169,
"category_id": 1,
"segmentation": null,
"area": 12168,
"bbox": [
512,
145,
78,
156
],
"iscrowd": 0
}, {
"id": 46,
"image_id": 169,
"category_id": 1,
"segmentation": null,
"area": 6944,
"bbox": [
821,
157,
56,
124
],
"iscrowd": 0
}, {
"id": 47,
"image_id": 169,
"category_id": 1,
"segmentation": null,
"area": 6760,
"bbox": [
745,
146,
52,
130
],
"iscrowd": 0
}, {
"id": 48,
"image_id": 134,
"category_id": 1,
"segmentation": null,
"area": 3535,
"bbox": [
852,
161,
35,
101
],
"iscrowd": 0
}, {
"id": 49,
"image_id": 122,
"category_id": 1,
"segmentation": null,
"area": 4224,
"bbox": [
840,
176,
44,
96
],
"iscrowd": 0
}, {
"id": 50,
"image_id": 136,
"category_id": 1,
"segmentation": null,
"area": 1450,
"bbox": [
519,
190,
25,
58
],
"iscrowd": 0
}, {
"id": 51,
"image_id": 136,
"category_id": 1,
"segmentation": null,
"area": 7296,
"bbox": [
935,
209,
64,
114
],
"iscrowd": 0
}, {
"id": 52,
"image_id": 136,
"category_id": 1,
"segmentation": null,
"area": 11152,
"bbox": [
877,
186,
82,
136
],
"iscrowd": 0
}, {
"id": 53,
"image_id": 136,
"category_id": 1,
"segmentation": null,
"area": 7104,
"bbox": [
844,
188,
64,
111
],
"iscrowd": 0
}, {
"id": 54,
"image_id": 155,
"category_id": 1,
"segmentation": null,
"area": 7192,
"bbox": [
866,
173,
62,
116
],
"iscrowd": 0
}, {
"id": 55,
"image_id": 155,
"category_id": 1,
"segmentation": null,
"area": 7686,
"bbox": [
914,
180,
63,
122
],
"iscrowd": 0
}, {
"id": 56,
"image_id": 155,
"category_id": 1,
"segmentation": null,
"area": 3948,
"bbox": [
959,
207,
42,
94
],
"iscrowd": 0
}, {
"id": 57,
"image_id": 57,
"category_id": 1,
"segmentation": null,
"area": 17278,
"bbox": [
1147,
299,
106,
163
],
"iscrowd": 0
}, {
"id": 58,
"image_id": 57,
"category_id": 1,
"segmentation": null,
"area": 4794,
"bbox": [
942,
198,
51,
94
],
"iscrowd": 0
}, {
"id": 59,
"image_id": 53,
"category_id": 1,
"segmentation": null,
"area": 9159,
"bbox": [
502,
138,
71,
129
],
"iscrowd": 0
}, {
"id": 60,
"image_id": 72,
"category_id": 1,
"segmentation": null,
"area": 8024,
"bbox": [
1043,
216,
68,
118
],
"iscrowd": 0
}, {
"id": 61,
"image_id": 83,
"category_id": 1,
"segmentation": null,
"area": 7467,
"bbox": [
700,
133,
57,
131
],
"iscrowd": 0
}, {
"id": 62,
"image_id": 156,
"category_id": 1,
"segmentation": null,
"area": 4956,
"bbox": [
463,
162,
42,
118
],
"iscrowd": 0
}, {
"id": 63,
"image_id": 156,
"category_id": 1,
"segmentation": null,
"area": 4142,
"bbox": [
542,
165,
38,
109
],
"iscrowd": 0
}, {
"id": 64,
"image_id": 149,
"category_id": 1,
"segmentation": null,
"area": 18616,
"bbox": [
1176,
318,
104,
179
],
"iscrowd": 0
}, {
"id": 65,
"image_id": 128,
"category_id": 1,
"segmentation": null,
"area": 28435,
"bbox": [
906,
129,
121,
235
],
"iscrowd": 0
}, {
"id": 66,
"image_id": 170,
"category_id": 1,
"segmentation": null,
"area": 7371,
"bbox": [
373,
187,
63,
117
],
"iscrowd": 0
}, {
"id": 67,
"image_id": 170,
"category_id": 1,
"segmentation": null,
"area": 10416,
"bbox": [
643,
120,
62,
168
],
"iscrowd": 0
}, {
"id": 68,
"image_id": 170,
"category_id": 1,
"segmentation": null,
"area": 5124,
"bbox": [
600,
145,
42,
122
],
"iscrowd": 0
}, {
"id": 69,
"image_id": 143,
"category_id": 1,
"segmentation": null,
"area": 1922,
"bbox": [
486,
190,
31,
62
],
"iscrowd": 0
}, {
"id": 70,
"image_id": 157,
"category_id": 1,
"segmentation": null,
"area": 4085,
"bbox": [
601,
170,
43,
95
],
"iscrowd": 0
}, {
"id": 71,
"image_id": 85,
"category_id": 1,
"segmentation": null,
"area": 11928,
"bbox": [
1141,
275,
84,
142
],
"iscrowd": 0
}, {
"id": 72,
"image_id": 108,
"category_id": 1,
"segmentation": null,
"area": 3432,
"bbox": [
817,
165,
44,
78
],
"iscrowd": 0
}, {
"id": 73,
"image_id": 1,
"category_id": 1,
"segmentation": null,
"area": 3375,
"bbox": [
971,
204,
45,
75
],
"iscrowd": 0
}, {
"id": 74,
"image_id": 107,
"category_id": 1,
"segmentation": null,
"area": 4980,
"bbox": [
901,
182,
60,
83
],
"iscrowd": 0
}, {
"id": 75,
"image_id": 13,
"category_id": 1,
"segmentation": null,
"area": 2080,
"bbox": [
296,
219,
32,
65
],
"iscrowd": 0
}, {
"id": 76,
"image_id": 13,
"category_id": 1,
"segmentation": null,
"area": 2700,
"bbox": [
861,
180,
36,
75
],
"iscrowd": 0
}, {
"id": 77,
"image_id": 13,
"category_id": 1,
"segmentation": null,
"area": 2666,
"bbox": [
174,
273,
43,
62
],
"iscrowd": 0
}, {
"id": 78,
"image_id": 69,
"category_id": 1,
"segmentation": null,
"area": 46816,
"bbox": [
992,
128,
152,
308
],
"iscrowd": 0
}, {
"id": 79,
"image_id": 146,
"category_id": 1,
"segmentation": null,
"area": 5704,
"bbox": [
224,
223,
46,
124
],
"iscrowd": 0
}, {
"id": 80,
"image_id": 146,
"category_id": 1,
"segmentation": null,
"area": 6600,
"bbox": [
285,
213,
60,
110
],
"iscrowd": 0
}, {
"id": 81,
"image_id": 175,
"category_id": 1,
"segmentation": null,
"area": 5922,
"bbox": [
278,
221,
63,
94
],
"iscrowd": 0
}, {
"id": 82,
"image_id": 175,
"category_id": 1,
"segmentation": null,
"area": 3744,
"bbox": [
356,
211,
48,
78
],
"iscrowd": 0
}, {
"id": 83,
"image_id": 175,
"category_id": 1,
"segmentation": null,
"area": 3910,
"bbox": [
325,
212,
46,
85
],
"iscrowd": 0
}, {
"id": 84,
"image_id": 63,
"category_id": 1,
"segmentation": null,
"area": 144738,
"bbox": [
109,
98,
306,
473
],
"iscrowd": 0
}, {
"id": 85,
"image_id": 102,
"category_id": 1,
"segmentation": null,
"area": 1272,
"bbox": [
568,
181,
24,
53
],
"iscrowd": 0
}, {
"id": 86,
"image_id": 159,
"category_id": 1,
"segmentation": null,
"area": 1040,
"bbox": [
587,
185,
20,
52
],
"iscrowd": 0
}, {
"id": 87,
"image_id": 159,
"category_id": 1,
"segmentation": null,
"area": 1456,
"bbox": [
612,
184,
28,
52
],
"iscrowd": 0
}, {
"id": 88,
"image_id": 68,
"category_id": 1,
"segmentation": null,
"area": 11440,
"bbox": [
1176,
288,
80,
143
],
"iscrowd": 0
}, {
"id": 89,
"image_id": 29,
"category_id": 1,
"segmentation": null,
"area": 62400,
"bbox": [
899,
5,
156,
400
],
"iscrowd": 0
}, {
"id": 90,
"image_id": 29,
"category_id": 1,
"segmentation": null,
"area": 20691,
"bbox": [
812,
81,
99,
209
],
"iscrowd": 0
}, {
"id": 91,
"image_id": 29,
"category_id": 1,
"segmentation": null,
"area": 19188,
"bbox": [
745,
82,
82,
234
],
"iscrowd": 0
}, {
"id": 92,
"image_id": 37,
"category_id": 1,
"segmentation": null,
"area": 12635,
"bbox": [
380,
148,
95,
133
],
"iscrowd": 0
}, {
"id": 93,
"image_id": 37,
"category_id": 1,
"segmentation": null,
"area": 1768,
"bbox": [
287,
224,
34,
52
],
"iscrowd": 0
}, {
"id": 94,
"image_id": 30,
"category_id": 1,
"segmentation": null,
"area": 15343,
"bbox": [
583,
81,
67,
229
],
"iscrowd": 0
}, {
"id": 95,
"image_id": 30,
"category_id": 1,
"segmentation": null,
"area": 26226,
"bbox": [
764,
50,
94,
279
],
"iscrowd": 0
}, {
"id": 96,
"image_id": 30,
"category_id": 1,
"segmentation": null,
"area": 65928,
"bbox": [
625,
0,
164,
402
],
"iscrowd": 0
}, {
"id": 97,
"image_id": 167,
"category_id": 1,
"segmentation": null,
"area": 3818,
"bbox": [
732,
175,
46,
83
],
"iscrowd": 0
}, {
"id": 98,
"image_id": 112,
"category_id": 1,
"segmentation": null,
"area": 11310,
"bbox": [
1150,
274,
78,
145
],
"iscrowd": 0
}, {
"id": 99,
"image_id": 15,
"category_id": 1,
"segmentation": null,
"area": 2886,
"bbox": [
246,
226,
39,
74
],
"iscrowd": 0
}, {
"id": 100,
"image_id": 15,
"category_id": 1,
"segmentation": null,
"area": 9513,
"bbox": [
1042,
172,
63,
151
],
"iscrowd": 0
}, {
"id": 101,
"image_id": 119,
"category_id": 1,
"segmentation": null,
"area": 37700,
"bbox": [
463,
42,
116,
325
],
"iscrowd": 0
}, {
"id": 102,
"image_id": 109,
"category_id": 1,
"segmentation": null,
"area": 16653,
"bbox": [
919,
106,
91,
183
],
"iscrowd": 0
}, {
"id": 103,
"image_id": 28,
"category_id": 1,
"segmentation": null,
"area": 9514,
"bbox": [
1070,
213,
67,
142
],
"iscrowd": 0
}, {
"id": 104,
"image_id": 28,
"category_id": 1,
"segmentation": null,
"area": 11682,
"bbox": [
1161,
237,
66,
177
],
"iscrowd": 0
}, {
"id": 105,
"image_id": 71,
"category_id": 1,
"segmentation": null,
"area": 17226,
"bbox": [
192,
197,
99,
174
],
"iscrowd": 0
}, {
"id": 106,
"image_id": 76,
"category_id": 1,
"segmentation": null,
"area": 14696,
"bbox": [
598,
147,
88,
167
],
"iscrowd": 0
}, {
"id": 107,
"image_id": 150,
"category_id": 1,
"segmentation": null,
"area": 6708,
"bbox": [
633,
133,
52,
129
],
"iscrowd": 0
}, {
"id": 108,
"image_id": 77,
"category_id": 1,
"segmentation": null,
"area": 13024,
"bbox": [
428,
170,
88,
148
],
"iscrowd": 0
}, {
"id": 109,
"image_id": 48,
"category_id": 1,
"segmentation": null,
"area": 4214,
"bbox": [
464,
176,
49,
86
],
"iscrowd": 0
}, {
"id": 110,
"image_id": 24,
"category_id": 1,
"segmentation": null,
"area": 8103,
"bbox": [
405,
158,
73,
111
],
"iscrowd": 0
}, {
"id": 111,
"image_id": 116,
"category_id": 1,
"segmentation": null,
"area": 12126,
"bbox": [
206,
200,
86,
141
],
"iscrowd": 0
}, {
"id": 112,
"image_id": 160,
"category_id": 1,
"segmentation": null,
"area": 9408,
"bbox": [
658,
131,
64,
147
],
"iscrowd": 0
}, {
"id": 113,
"image_id": 55,
"category_id": 1,
"segmentation": null,
"area": 11571,
"bbox": [
1116,
262,
87,
133
],
"iscrowd": 0
}, {
"id": 114,
"image_id": 55,
"category_id": 1,
"segmentation": null,
"area": 1860,
"bbox": [
783,
182,
30,
62
],
"iscrowd": 0
}, {
"id": 115,
"image_id": 64,
"category_id": 1,
"segmentation": null,
"area": 27875,
"bbox": [
1041,
182,
125,
223
],
"iscrowd": 0
}, {
"id": 116,
"image_id": 19,
"category_id": 1,
"segmentation": null,
"area": 12672,
"bbox": [
876,
114,
72,
176
],
"iscrowd": 0
}, {
"id": 117,
"image_id": 56,
"category_id": 1,
"segmentation": null,
"area": 9512,
"bbox": [
1024,
230,
82,
116
],
"iscrowd": 0
}, {
"id": 118,
"image_id": 56,
"category_id": 1,
"segmentation": null,
"area": 5544,
"bbox": [
977,
209,
56,
99
],
"iscrowd": 0
}, {
"id": 119,
"image_id": 60,
"category_id": 1,
"segmentation": null,
"area": 3680,
"bbox": [
903,
210,
46,
80
],
"iscrowd": 0
}, {
"id": 120,
"image_id": 60,
"category_id": 1,
"segmentation": null,
"area": 3920,
"bbox": [
882,
202,
49,
80
],
"iscrowd": 0
}, {
"id": 121,
"image_id": 12,
"category_id": 1,
"segmentation": null,
"area": 1254,
"bbox": [
470,
182,
19,
66
],
"iscrowd": 0
}, {
"id": 122,
"image_id": 12,
"category_id": 1,
"segmentation": null,
"area": 3192,
"bbox": [
288,
215,
38,
84
],
"iscrowd": 0
}, {
"id": 123,
"image_id": 12,
"category_id": 1,
"segmentation": null,
"area": 1566,
"bbox": [
369,
210,
27,
58
],
"iscrowd": 0
}, {
"id": 124,
"image_id": 12,
"category_id": 1,
"segmentation": null,
"area": 484,
"bbox": [
486,
191,
11,
44
],
"iscrowd": 0
}, {
"id": 125,
"image_id": 138,
"category_id": 1,
"segmentation": null,
"area": 7020,
"bbox": [
450,
159,
54,
130
],
"iscrowd": 0
}, {
"id": 126,
"image_id": 138,
"category_id": 1,
"segmentation": null,
"area": 12250,
"bbox": [
531,
131,
70,
175
],
"iscrowd": 0
}, {
"id": 127,
"image_id": 87,
"category_id": 1,
"segmentation": null,
"area": 19272,
"bbox": [
675,
84,
88,
219
],
"iscrowd": 0
}, {
"id": 128,
"image_id": 141,
"category_id": 1,
"segmentation": null,
"area": 17372,
"bbox": [
686,
149,
101,
172
],
"iscrowd": 0
}, {
"id": 129,
"image_id": 153,
"category_id": 1,
"segmentation": null,
"area": 24089,
"bbox": [
281,
145,
109,
221
],
"iscrowd": 0
}, {
"id": 130,
"image_id": 59,
"category_id": 1,
"segmentation": null,
"area": 1280,
"bbox": [
611,
176,
20,
64
],
"iscrowd": 0
}, {
"id": 131,
"image_id": 59,
"category_id": 1,
"segmentation": null,
"area": 1633,
"bbox": [
588,
174,
23,
71
],
"iscrowd": 0
}, {
"id": 132,
"image_id": 89,
"category_id": 1,
"segmentation": null,
"area": 2450,
"bbox": [
623,
163,
35,
70
],
"iscrowd": 0
}, {
"id": 133,
"image_id": 96,
"category_id": 1,
"segmentation": null,
"area": 22458,
"bbox": [
1017,
198,
114,
197
],
"iscrowd": 0
}, {
"id": 134,
"image_id": 96,
"category_id": 1,
"segmentation": null,
"area": 48708,
"bbox": [
1147,
243,
132,
369
],
"iscrowd": 0
}, {
"id": 135,
"image_id": 171,
"category_id": 1,
"segmentation": null,
"area": 63985,
"bbox": [
1001,
111,
191,
335
],
"iscrowd": 0
}, {
"id": 136,
"image_id": 147,
"category_id": 1,
"segmentation": null,
"area": 6148,
"bbox": [
915,
190,
58,
106
],
"iscrowd": 0
}, {
"id": 137,
"image_id": 147,
"category_id": 1,
"segmentation": null,
"area": 10406,
"bbox": [
1058,
252,
86,
121
],
"iscrowd": 0
}, {
"id": 138,
"image_id": 106,
"category_id": 1,
"segmentation": null,
"area": 2368,
"bbox": [
629,
154,
32,
74
],
"iscrowd": 0
}, {
"id": 139,
"image_id": 81,
"category_id": 1,
"segmentation": null,
"area": 5394,
"bbox": [
472,
165,
58,
93
],
"iscrowd": 0
}, {
"id": 140,
"image_id": 145,
"category_id": 1,
"segmentation": null,
"area": 10730,
"bbox": [
542,
131,
58,
185
],
"iscrowd": 0
}, {
"id": 141,
"image_id": 145,
"category_id": 1,
"segmentation": null,
"area": 17220,
"bbox": [
378,
126,
82,
210
],
"iscrowd": 0
}, {
"id": 142,
"image_id": 49,
"category_id": 1,
"segmentation": null,
"area": 24380,
"bbox": [
965,
140,
115,
212
],
"iscrowd": 0
}, {
"id": 143,
"image_id": 49,
"category_id": 1,
"segmentation": null,
"area": 21505,
"bbox": [
1106,
205,
115,
187
],
"iscrowd": 0
}, {
"id": 144,
"image_id": 51,
"category_id": 1,
"segmentation": null,
"area": 14915,
"bbox": [
217,
184,
95,
157
],
"iscrowd": 0
}, {
"id": 145,
"image_id": 51,
"category_id": 1,
"segmentation": null,
"area": 9009,
"bbox": [
176,
235,
77,
117
],
"iscrowd": 0
}, {
"id": 146,
"image_id": 8,
"category_id": 1,
"segmentation": null,
"area": 20453,
"bbox": [
933,
135,
113,
181
],
"iscrowd": 0
}, {
"id": 147,
"image_id": 117,
"category_id": 1,
"segmentation": null,
"area": 8322,
"bbox": [
232,
214,
73,
114
],
"iscrowd": 0
}, {
"id": 148,
"image_id": 20,
"category_id": 1,
"segmentation": null,
"area": 12648,
"bbox": [
716,
88,
68,
186
],
"iscrowd": 0
}, {
"id": 149,
"image_id": 20,
"category_id": 1,
"segmentation": null,
"area": 4510,
"bbox": [
125,
295,
55,
82
],
"iscrowd": 0
}, {
"id": 150,
"image_id": 88,
"category_id": 1,
"segmentation": null,
"area": 17441,
"bbox": [
331,
151,
107,
163
],
"iscrowd": 0
}, {
"id": 151,
"image_id": 36,
"category_id": 1,
"segmentation": null,
"area": 4888,
"bbox": [
587,
133,
47,
104
],
"iscrowd": 0
}, {
"id": 152,
"image_id": 26,
"category_id": 1,
"segmentation": null,
"area": 18029,
"bbox": [
122,
204,
121,
149
],
"iscrowd": 0
}, {
"id": 153,
"image_id": 26,
"category_id": 1,
"segmentation": null,
"area": 10593,
"bbox": [
237,
183,
99,
107
],
"iscrowd": 0
}, {
"id": 154,
"image_id": 126,
"category_id": 1,
"segmentation": null,
"area": 23718,
"bbox": [
526,
137,
118,
201
],
"iscrowd": 0
}, {
"id": 155,
"image_id": 98,
"category_id": 1,
"segmentation": null,
"area": 1716,
"bbox": [
824,
192,
26,
66
],
"iscrowd": 0
}, {
"id": 156,
"image_id": 173,
"category_id": 1,
"segmentation": null,
"area": 59947,
"bbox": [
688,
6,
151,
397
],
"iscrowd": 0
}, {
"id": 157,
"image_id": 173,
"category_id": 1,
"segmentation": null,
"area": 21400,
"bbox": [
477,
108,
100,
214
],
"iscrowd": 0
}, {
"id": 158,
"image_id": 173,
"category_id": 1,
"segmentation": null,
"area": 10740,
"bbox": [
566,
124,
60,
179
],
"iscrowd": 0
}, {
"id": 159,
"image_id": 6,
"category_id": 1,
"segmentation": null,
"area": 20503,
"bbox": [
727,
96,
101,
203
],
"iscrowd": 0
}, {
"id": 160,
"image_id": 163,
"category_id": 1,
"segmentation": null,
"area": 38468,
"bbox": [
611,
59,
118,
326
],
"iscrowd": 0
}, {
"id": 161,
"image_id": 23,
"category_id": 1,
"segmentation": null,
"area": 9306,
"bbox": [
785,
127,
66,
141
],
"iscrowd": 0
}, {
"id": 162,
"image_id": 10,
"category_id": 1,
"segmentation": null,
"area": 546,
"bbox": [
687,
180,
13,
42
],
"iscrowd": 0
}, {
"id": 163,
"image_id": 10,
"category_id": 1,
"segmentation": null,
"area": 494,
"bbox": [
640,
183,
13,
38
],
"iscrowd": 0
}, {
"id": 164,
"image_id": 10,
"category_id": 1,
"segmentation": null,
"area": 864,
"bbox": [
665,
173,
16,
54
],
"iscrowd": 0
}, {
"id": 165,
"image_id": 10,
"category_id": 1,
"segmentation": null,
"area": 2508,
"bbox": [
818,
178,
33,
76
],
"iscrowd": 0
}, {
"id": 166,
"image_id": 165,
"category_id": 1,
"segmentation": null,
"area": 35249,
"bbox": [
581,
38,
101,
349
],
"iscrowd": 0
}, {
"id": 167,
"image_id": 165,
"category_id": 1,
"segmentation": null,
"area": 19890,
"bbox": [
672,
91,
78,
255
],
"iscrowd": 0
}, {
"id": 168,
"image_id": 11,
"category_id": 1,
"segmentation": null,
"area": 2808,
"bbox": [
490,
175,
36,
78
],
"iscrowd": 0
}, {
"id": 169,
"image_id": 11,
"category_id": 1,
"segmentation": null,
"area": 1260,
"bbox": [
561,
174,
21,
60
],
"iscrowd": 0
}, {
"id": 170,
"image_id": 11,
"category_id": 1,
"segmentation": null,
"area": 675,
"bbox": [
586,
180,
15,
45
],
"iscrowd": 0
}, {
"id": 171,
"image_id": 11,
"category_id": 1,
"segmentation": null,
"area": 11438,
"bbox": [
906,
158,
86,
133
],
"iscrowd": 0
}, {
"id": 172,
"image_id": 152,
"category_id": 1,
"segmentation": null,
"area": 53784,
"bbox": [
795,
66,
166,
324
],
"iscrowd": 0
}, {
"id": 173,
"image_id": 75,
"category_id": 1,
"segmentation": null,
"area": 14014,
"bbox": [
989,
212,
98,
143
],
"iscrowd": 0
}, {
"id": 174,
"image_id": 97,
"category_id": 1,
"segmentation": null,
"area": 39274,
"bbox": [
1134,
267,
146,
269
],
"iscrowd": 0
}, {
"id": 175,
"image_id": 92,
"category_id": 1,
"segmentation": null,
"area": 20706,
"bbox": [
812,
117,
102,
203
],
"iscrowd": 0
}, {
"id": 176,
"image_id": 124,
"category_id": 1,
"segmentation": null,
"area": 3306,
"bbox": [
885,
169,
38,
87
],
"iscrowd": 0
}, {
"id": 177,
"image_id": 124,
"category_id": 1,
"segmentation": null,
"area": 3192,
"bbox": [
913,
172,
38,
84
],
"iscrowd": 0
}, {
"id": 178,
"image_id": 124,
"category_id": 1,
"segmentation": null,
"area": 4992,
"bbox": [
939,
181,
52,
96
],
"iscrowd": 0
}, {
"id": 179,
"image_id": 90,
"category_id": 1,
"segmentation": null,
"area": 279538,
"bbox": [
625,
1,
487,
574
],
"iscrowd": 0
}, {
"id": 180,
"image_id": 105,
"category_id": 1,
"segmentation": null,
"area": 3268,
"bbox": [
840,
173,
43,
76
],
"iscrowd": 0
}, {
"id": 181,
"image_id": 5,
"category_id": 1,
"segmentation": null,
"area": 37929,
"bbox": [
900,
7,
141,
269
],
"iscrowd": 0
}, {
"id": 182,
"image_id": 39,
"category_id": 1,
"segmentation": null,
"area": 5243,
"bbox": [
742,
147,
49,
107
],
"iscrowd": 0
}, {
"id": 183,
"image_id": 32,
"category_id": 1,
"segmentation": null,
"area": 21560,
"bbox": [
376,
103,
98,
220
],
"iscrowd": 0
}, {
"id": 184,
"image_id": 32,
"category_id": 1,
"segmentation": null,
"area": 13005,
"bbox": [
301,
165,
85,
153
],
"iscrowd": 0
}, {
"id": 185,
"image_id": 32,
"category_id": 1,
"segmentation": null,
"area": 25960,
"bbox": [
223,
128,
110,
236
],
"iscrowd": 0
}, {
"id": 186,
"image_id": 34,
"category_id": 1,
"segmentation": null,
"area": 4704,
"bbox": [
801,
165,
49,
96
],
"iscrowd": 0
}, {
"id": 187,
"image_id": 34,
"category_id": 1,
"segmentation": null,
"area": 9546,
"bbox": [
843,
164,
74,
129
],
"iscrowd": 0
}, {
"id": 188,
"image_id": 58,
"category_id": 1,
"segmentation": null,
"area": 2201,
"bbox": [
552,
166,
31,
71
],
"iscrowd": 0
}, {
"id": 189,
"image_id": 58,
"category_id": 1,
"segmentation": null,
"area": 1776,
"bbox": [
584,
170,
24,
74
],
"iscrowd": 0
}, {
"id": 190,
"image_id": 101,
"category_id": 1,
"segmentation": null,
"area": 4335,
"bbox": [
664,
177,
51,
85
],
"iscrowd": 0
}, {
"id": 191,
"image_id": 158,
"category_id": 1,
"segmentation": null,
"area": 3555,
"bbox": [
443,
186,
45,
79
],
"iscrowd": 0
}, {
"id": 192,
"image_id": 70,
"category_id": 1,
"segmentation": null,
"area": 66582,
"bbox": [
654,
1,
162,
411
],
"iscrowd": 0
}, {
"id": 193,
"image_id": 61,
"category_id": 1,
"segmentation": null,
"area": 4455,
"bbox": [
641,
161,
45,
99
],
"iscrowd": 0
}, {
"id": 194,
"image_id": 91,
"category_id": 1,
"segmentation": null,
"area": 110808,
"bbox": [
831,
31,
243,
456
],
"iscrowd": 0
}, {
"id": 195,
"image_id": 40,
"category_id": 1,
"segmentation": null,
"area": 33839,
"bbox": [
218,
127,
137,
247
],
"iscrowd": 0
}, {
"id": 196,
"image_id": 73,
"category_id": 1,
"segmentation": null,
"area": 13200,
"bbox": [
760,
114,
75,
176
],
"iscrowd": 0
}, {
"id": 197,
"image_id": 133,
"category_id": 1,
"segmentation": null,
"area": 8710,
"bbox": [
393,
152,
67,
130
],
"iscrowd": 0
}, {
"id": 198,
"image_id": 14,
"category_id": 1,
"segmentation": null,
"area": 2736,
"bbox": [
522,
173,
38,
72
],
"iscrowd": 0
}, {
"id": 199,
"image_id": 14,
"category_id": 1,
"segmentation": null,
"area": 3132,
"bbox": [
429,
173,
36,
87
],
"iscrowd": 0
}, {
"id": 200,
"image_id": 14,
"category_id": 1,
"segmentation": null,
"area": 4503,
"bbox": [
266,
220,
57,
79
],
"iscrowd": 0
}, {
"id": 201,
"image_id": 104,
"category_id": 1,
"segmentation": null,
"area": 4048,
"bbox": [
651,
151,
46,
88
],
"iscrowd": 0
}, {
"id": 202,
"image_id": 86,
"category_id": 1,
"segmentation": null,
"area": 18375,
"bbox": [
1000,
182,
105,
175
],
"iscrowd": 0
}, {
"id": 203,
"image_id": 139,
"category_id": 1,
"segmentation": null,
"area": 12690,
"bbox": [
1066,
227,
90,
141
],
"iscrowd": 0
}, {
"id": 204,
"image_id": 139,
"category_id": 1,
"segmentation": null,
"area": 2923,
"bbox": [
691,
169,
37,
79
],
"iscrowd": 0
}, {
"id": 205,
"image_id": 110,
"category_id": 1,
"segmentation": null,
"area": 28798,
"bbox": [
372,
101,
121,
238
],
"iscrowd": 0
}, {
"id": 206,
"image_id": 127,
"category_id": 1,
"segmentation": null,
"area": 765,
"bbox": [
753,
183,
17,
45
],
"iscrowd": 0
}, {
"id": 207,
"image_id": 127,
"category_id": 1,
"segmentation": null,
"area": 5500,
"bbox": [
782,
161,
50,
110
],
"iscrowd": 0
}, {
"id": 208,
"image_id": 127,
"category_id": 1,
"segmentation": null,
"area": 864,
"bbox": [
736,
176,
16,
54
],
"iscrowd": 0
}, {
"id": 209,
"image_id": 93,
"category_id": 1,
"segmentation": null,
"area": 10230,
"bbox": [
845,
148,
66,
155
],
"iscrowd": 0
}, {
"id": 210,
"image_id": 17,
"category_id": 1,
"segmentation": null,
"area": 8280,
"bbox": [
232,
195,
72,
115
],
"iscrowd": 0
}, {
"id": 211,
"image_id": 42,
"category_id": 1,
"segmentation": null,
"area": 3955,
"bbox": [
738,
140,
35,
113
],
"iscrowd": 0
}, {
"id": 212,
"image_id": 42,
"category_id": 1,
"segmentation": null,
"area": 4905,
"bbox": [
690,
142,
45,
109
],
"iscrowd": 0
}, {
"id": 213,
"image_id": 174,
"category_id": 1,
"segmentation": null,
"area": 6710,
"bbox": [
370,
184,
61,
110
],
"iscrowd": 0
}, {
"id": 214,
"image_id": 174,
"category_id": 1,
"segmentation": null,
"area": 14400,
"bbox": [
299,
170,
90,
160
],
"iscrowd": 0
}, {
"id": 215,
"image_id": 18,
"category_id": 1,
"segmentation": null,
"area": 5280,
"bbox": [
560,
158,
55,
96
],
"iscrowd": 0
}, {
"id": 216,
"image_id": 120,
"category_id": 1,
"segmentation": null,
"area": 9825,
"bbox": [
1030,
239,
75,
131
],
"iscrowd": 0
}, {
"id": 217,
"image_id": 43,
"category_id": 1,
"segmentation": null,
"area": 3978,
"bbox": [
914,
186,
39,
102
],
"iscrowd": 0
}, {
"id": 218,
"image_id": 4,
"category_id": 1,
"segmentation": null,
"area": 3600,
"bbox": [
1165,
296,
48,
75
],
"iscrowd": 0
}, {
"id": 219,
"image_id": 4,
"category_id": 1,
"segmentation": null,
"area": 3822,
"bbox": [
1198,
314,
49,
78
],
"iscrowd": 0
}, {
"id": 220,
"image_id": 132,
"category_id": 1,
"segmentation": null,
"area": 14444,
"bbox": [
882,
142,
92,
157
],
"iscrowd": 0
}, {
"id": 221,
"image_id": 129,
"category_id": 1,
"segmentation": null,
"area": 58464,
"bbox": [
1010,
153,
168,
348
],
"iscrowd": 0
}, {
"id": 222,
"image_id": 7,
"category_id": 1,
"segmentation": null,
"area": 63759,
"bbox": [
668,
0,
159,
401
],
"iscrowd": 0
}, {
"id": 223,
"image_id": 52,
"category_id": 1,
"segmentation": null,
"area": 6042,
"bbox": [
1038,
219,
57,
106
],
"iscrowd": 0
}, {
"id": 224,
"image_id": 137,
"category_id": 1,
"segmentation": null,
"area": 8120,
"bbox": [
634,
144,
56,
145
],
"iscrowd": 0
}, {
"id": 225,
"image_id": 137,
"category_id": 1,
"segmentation": null,
"area": 18528,
"bbox": [
711,
127,
96,
193
],
"iscrowd": 0
}, {
"id": 226,
"image_id": 137,
"category_id": 1,
"segmentation": null,
"area": 13783,
"bbox": [
552,
133,
77,
179
],
"iscrowd": 0
}, {
"id": 227,
"image_id": 95,
"category_id": 1,
"segmentation": null,
"area": 15030,
"bbox": [
951,
188,
90,
167
],
"iscrowd": 0
}, {
"id": 228,
"image_id": 95,
"category_id": 1,
"segmentation": null,
"area": 50020,
"bbox": [
1000,
145,
164,
305
],
"iscrowd": 0
}, {
"id": 229,
"image_id": 121,
"category_id": 1,
"segmentation": null,
"area": 9145,
"bbox": [
588,
149,
59,
155
],
"iscrowd": 0
}, {
"id": 230,
"image_id": 94,
"category_id": 1,
"segmentation": null,
"area": 25155,
"bbox": [
904,
145,
117,
215
],
"iscrowd": 0
}, {
"id": 231,
"image_id": 151,
"category_id": 1,
"segmentation": null,
"area": 16968,
"bbox": [
1106,
255,
101,
168
],
"iscrowd": 0
}, {
"id": 232,
"image_id": 111,
"category_id": 1,
"segmentation": null,
"area": 7848,
"bbox": [
151,
254,
72,
109
],
"iscrowd": 0
}, {
"id": 233,
"image_id": 135,
"category_id": 1,
"segmentation": null,
"area": 4655,
"bbox": [
951,
215,
49,
95
],
"iscrowd": 0
}, {
"id": 234,
"image_id": 135,
"category_id": 1,
"segmentation": null,
"area": 5643,
"bbox": [
1009,
228,
57,
99
],
"iscrowd": 0
}, {
"id": 235,
"image_id": 16,
"category_id": 1,
"segmentation": null,
"area": 22113,
"bbox": [
393,
110,
117,
189
],
"iscrowd": 0
}, {
"id": 236,
"image_id": 115,
"category_id": 1,
"segmentation": null,
"area": 25986,
"bbox": [
276,
140,
122,
213
],
"iscrowd": 0
}, {
"id": 237,
"image_id": 47,
"category_id": 1,
"segmentation": null,
"area": 5440,
"bbox": [
428,
180,
68,
80
],
"iscrowd": 0
}, {
"id": 238,
"image_id": 38,
"category_id": 1,
"segmentation": null,
"area": 3990,
"bbox": [
870,
162,
38,
105
],
"iscrowd": 0
}, {
"id": 239,
"image_id": 140,
"category_id": 1,
"segmentation": null,
"area": 16695,
"bbox": [
1004,
194,
105,
159
],
"iscrowd": 0
}, {
"id": 240,
"image_id": 140,
"category_id": 1,
"segmentation": null,
"area": 5376,
"bbox": [
672,
166,
56,
96
],
"iscrowd": 0
}, {
"id": 241,
"image_id": 154,
"category_id": 1,
"segmentation": null,
"area": 7488,
"bbox": [
179,
243,
64,
117
],
"iscrowd": 0
}, {
"id": 242,
"image_id": 21,
"category_id": 1,
"segmentation": null,
"area": 8176,
"bbox": [
418,
128,
56,
146
],
"iscrowd": 0
}, {
"id": 243,
"image_id": 21,
"category_id": 1,
"segmentation": null,
"area": 7626,
"bbox": [
464,
141,
62,
123
],
"iscrowd": 0
}, {
"id": 244,
"image_id": 21,
"category_id": 1,
"segmentation": null,
"area": 4165,
"bbox": [
186,
264,
49,
85
],
"iscrowd": 0
}, {
"id": 245,
"image_id": 162,
"category_id": 1,
"segmentation": null,
"area": 126314,
"bbox": [
969,
110,
274,
461
],
"iscrowd": 0
}, {
"id": 246,
"image_id": 50,
"category_id": 1,
"segmentation": null,
"area": 34036,
"bbox": [
975,
116,
134,
254
],
"iscrowd": 0
}, {
"id": 247,
"image_id": 50,
"category_id": 1,
"segmentation": null,
"area": 28448,
"bbox": [
753,
66,
112,
254
],
"iscrowd": 0
}, {
"id": 248,
"image_id": 35,
"category_id": 1,
"segmentation": null,
"area": 8928,
"bbox": [
713,
137,
62,
144
],
"iscrowd": 0
}, {
"id": 249,
"image_id": 35,
"category_id": 1,
"segmentation": null,
"area": 3360,
"bbox": [
706,
147,
32,
105
],
"iscrowd": 0
}, {
"id": 250,
"image_id": 125,
"category_id": 1,
"segmentation": null,
"area": 4224,
"bbox": [
645,
147,
44,
96
],
"iscrowd": 0
}, {
"id": 251,
"image_id": 41,
"category_id": 1,
"segmentation": null,
"area": 3483,
"bbox": [
668,
172,
43,
81
],
"iscrowd": 0
}, {
"id": 252,
"image_id": 84,
"category_id": 1,
"segmentation": null,
"area": 3256,
"bbox": [
292,
207,
44,
74
],
"iscrowd": 0
}, {
"id": 253,
"image_id": 82,
"category_id": 1,
"segmentation": null,
"area": 9114,
"bbox": [
828,
124,
62,
147
],
"iscrowd": 0
}, {
"id": 254,
"image_id": 46,
"category_id": 1,
"segmentation": null,
"area": 6080,
"bbox": [
605,
155,
64,
95
],
"iscrowd": 0
}, {
"id": 255,
"image_id": 27,
"category_id": 1,
"segmentation": null,
"area": 8712,
"bbox": [
204,
207,
88,
99
],
"iscrowd": 0
}, {
"id": 256,
"image_id": 27,
"category_id": 1,
"segmentation": null,
"area": 14616,
"bbox": [
104,
246,
126,
116
],
"iscrowd": 0
}, {
"id": 257,
"image_id": 166,
"category_id": 1,
"segmentation": null,
"area": 183996,
"bbox": [
801,
1,
342,
538
],
"iscrowd": 0
}, {
"id": 258,
"image_id": 66,
"category_id": 1,
"segmentation": null,
"area": 32880,
"bbox": [
364,
88,
120,
274
],
"iscrowd": 0
}, {
"id": 259,
"image_id": 31,
"category_id": 1,
"segmentation": null,
"area": 18904,
"bbox": [
601,
38,
68,
278
],
"iscrowd": 0
}, {
"id": 260,
"image_id": 31,
"category_id": 1,
"segmentation": null,
"area": 17820,
"bbox": [
537,
68,
81,
220
],
"iscrowd": 0
}, {
"id": 261,
"image_id": 31,
"category_id": 1,
"segmentation": null,
"area": 57564,
"bbox": [
382,
32,
164,
351
],
"iscrowd": 0
}, {
"id": 262,
"image_id": 148,
"category_id": 1,
"segmentation": null,
"area": 13332,
"bbox": [
1130,
290,
101,
132
],
"iscrowd": 0
}, {
"id": 263,
"image_id": 148,
"category_id": 1,
"segmentation": null,
"area": 6540,
"bbox": [
988,
209,
60,
109
],
"iscrowd": 0
}, {
"id": 264,
"image_id": 80,
"category_id": 1,
"segmentation": null,
"area": 57511,
"bbox": [
977,
154,
199,
289
],
"iscrowd": 0
}, {
"id": 265,
"image_id": 80,
"category_id": 1,
"segmentation": null,
"area": 38016,
"bbox": [
916,
144,
144,
264
],
"iscrowd": 0
}, {
"id": 266,
"image_id": 80,
"category_id": 1,
"segmentation": null,
"area": 41292,
"bbox": [
835,
107,
148,
279
],
"iscrowd": 0
}, {
"id": 267,
"image_id": 161,
"category_id": 1,
"segmentation": null,
"area": 31755,
"bbox": [
1055,
211,
145,
219
],
"iscrowd": 0
}, {
"id": 268,
"image_id": 79,
"category_id": 1,
"segmentation": null,
"area": 14620,
"bbox": [
1162,
274,
85,
172
],
"iscrowd": 0
}, {
"id": 269,
"image_id": 79,
"category_id": 1,
"segmentation": null,
"area": 16450,
"bbox": [
1071,
233,
94,
175
],
"iscrowd": 0
}]}