0 0.7113281250000001 0.13125 0.039843750000000004 0.20500000000000002 
0 0.127734375 0.47125 0.16953125000000002 0.23500000000000001 
0 0.22382812500000002 0.361875 0.07109375 0.16875 
0 0.25429687500000003 0.296875 0.08828125 0.19125 
