0 0.548046875 0.146875 0.03515625 0.16125 
0 0.63046875 0.11812500000000001 0.03125 0.09625 
0 0.365234375 0.2175 0.10234375000000001 0.2225 
0 0.272265625 0.30312500000000003 0.08828125 0.17375000000000002 
0 0.19492187500000002 0.3875 0.08046875 0.1375 
0 0.148828125 0.455 0.06640625 0.08750000000000001 
0 0.114453125 0.515 0.05078125 0.08750000000000001 
