{"info": {
"year": 2021,
"date_created": "2021-12-06T19:26:37Z",
"version": "1.0",
"description": "viercamera None",
"contributor": "",
"url": "https://app.hasty.ai/projects/4dafd7aa-34c0-48d8-85ec-199432881ea9"
}, "licenses": [], "categories": [{
"id": 1,
"name": "pedestrian",
"supercategory": "object"
}], "images": [{
"id": 1,
"width": 1280,
"height": 800,
"file_name": "1461942937029586365_right_camera.jpeg",
"license": null,
"flickr_url": "",
"coco_url": null,
"date_captured": "2021-12-17T02:43:40Z"
}, {
"id": 2,
"width": 1280,
"height": 800,
"file_name": "1461942938474310027_right_camera.jpeg",
"license": null,
"flickr_url": "",
"coco_url": null,
"date_captured": "2021-12-17T02:43:42Z"
}, {
"id": 3,
"width": 1280,
"height": 800,
"file_name": "1467641689337495365_right_camera.jpeg",
"license": null,
"flickr_url": "",
"coco_url": null,
"date_captured": "2021-12-17T02:43:42Z"
}, {
"id": 4,
"width": 1280,
"height": 800,
"file_name": "1467641690788058855_right_camera.jpeg",
"license": null,
"flickr_url": "",
"coco_url": null,
"date_captured": "2021-12-17T02:43:42Z"
}, {
"id": 5,
"width": 1280,
"height": 800,
"file_name": "1467641841676380411_right_camera.jpeg",
"license": null,
"flickr_url": "",
"coco_url": null,
"date_captured": "2021-12-17T02:43:42Z"
}, {
"id": 6,
"width": 1280,
"height": 800,
"file_name": "1467642072740680104_right_camera.jpeg",
"license": null,
"flickr_url": "",
"coco_url": null,
"date_captured": "2021-12-17T02:43:42Z"
}, {
"id": 7,
"width": 1280,
"height": 800,
"file_name": "1467642074403477170_right_camera.jpeg",
"license": null,
"flickr_url": "",
"coco_url": null,
"date_captured": "2021-12-17T02:43:45Z"
}, {
"id": 8,
"width": 1280,
"height": 800,
"file_name": "1467642083605699633_right_camera.jpeg",
"license": null,
"flickr_url": "",
"coco_url": null,
"date_captured": "2021-12-17T02:43:45Z"
}, {
"id": 9,
"width": 1280,
"height": 800,
"file_name": "1467642086704811202_right_camera.jpeg",
"license": null,
"flickr_url": "",
"coco_url": null,
"date_captured": "2021-12-17T02:43:45Z"
}, {
"id": 10,
"width": 1280,
"height": 800,
"file_name": "1467642135079865858_right_camera.jpeg",
"license": null,
"flickr_url": "",
"coco_url": null,
"date_captured": "2021-12-17T02:43:45Z"
}, {
"id": 11,
"width": 1280,
"height": 800,
"file_name": "1467642140944560252_right_camera.jpeg",
"license": null,
"flickr_url": "",
"coco_url": null,
"date_captured": "2021-12-17T02:43:45Z"
}, {
"id": 12,
"width": 1280,
"height": 800,
"file_name": "1467642159218150410_right_camera.jpeg",
"license": null,
"flickr_url": "",
"coco_url": null,
"date_captured": "2021-12-17T02:43:47Z"
}, {
"id": 13,
"width": 1280,
"height": 800,
"file_name": "1467642162248991420_right_camera.jpeg",
"license": null,
"flickr_url": "",
"coco_url": null,
"date_captured": "2021-12-17T02:43:47Z"
}, {
"id": 14,
"width": 1280,
"height": 800,
"file_name": "1467642363469212275_right_camera.jpeg",
"license": null,
"flickr_url": "",
"coco_url": null,
"date_captured": "2021-12-17T02:43:47Z"
}, {
"id": 15,
"width": 1280,
"height": 800,
"file_name": "1475145269012064897_right_camera.jpeg",
"license": null,
"flickr_url": "",
"coco_url": null,
"date_captured": "2021-12-17T02:43:47Z"
}, {
"id": 16,
"width": 1280,
"height": 800,
"file_name": "1475145269615534737_right_camera.jpeg",
"license": null,
"flickr_url": "",
"coco_url": null,
"date_captured": "2021-12-17T02:43:47Z"
}, {
"id": 17,
"width": 1280,
"height": 800,
"file_name": "1475145269958989560_right_camera.jpeg",
"license": null,
"flickr_url": "",
"coco_url": null,
"date_captured": "2021-12-17T02:43:50Z"
}, {
"id": 18,
"width": 1280,
"height": 800,
"file_name": "1515062611556235042_right_camera.jpeg",
"license": null,
"flickr_url": "",
"coco_url": null,
"date_captured": "2021-12-17T02:43:49Z"
}, {
"id": 19,
"width": 1280,
"height": 800,
"file_name": "1515062611951253891_right_camera.jpeg",
"license": null,
"flickr_url": "",
"coco_url": null,
"date_captured": "2021-12-17T02:43:50Z"
}, {
"id": 20,
"width": 1280,
"height": 800,
"file_name": "1515062617944777454_right_camera.jpeg",
"license": null,
"flickr_url": "",
"coco_url": null,
"date_captured": "2021-12-17T02:43:50Z"
}, {
"id": 21,
"width": 1280,
"height": 800,
"file_name": "1515062685621877386_right_camera.jpeg",
"license": null,
"flickr_url": "",
"coco_url": null,
"date_captured": "2021-12-17T02:43:50Z"
}, {
"id": 22,
"width": 1280,
"height": 800,
"file_name": "1515062689827419605_right_camera.jpeg",
"license": null,
"flickr_url": "",
"coco_url": null,
"date_captured": "2021-12-17T02:43:52Z"
}, {
"id": 23,
"width": 1280,
"height": 800,
"file_name": "1515062880983267303_right_camera.jpeg",
"license": null,
"flickr_url": "",
"coco_url": null,
"date_captured": "2021-12-17T02:43:52Z"
}, {
"id": 24,
"width": 1280,
"height": 800,
"file_name": "1515062881848467985_right_camera.jpeg",
"license": null,
"flickr_url": "",
"coco_url": null,
"date_captured": "2021-12-17T02:43:52Z"
}, {
"id": 25,
"width": 1280,
"height": 800,
"file_name": "1515062924654861241_right_camera.jpeg",
"license": null,
"flickr_url": "",
"coco_url": null,
"date_captured": "2021-12-17T02:43:52Z"
}, {
"id": 26,
"width": 1280,
"height": 800,
"file_name": "1515063043553354178_right_camera.jpeg",
"license": null,
"flickr_url": "",
"coco_url": null,
"date_captured": "2021-12-17T02:43:38Z"
}, {
"id": 27,
"width": 1280,
"height": 800,
"file_name": "1515063056000982046_right_camera.jpeg",
"license": null,
"flickr_url": "",
"coco_url": null,
"date_captured": "2021-12-17T02:43:38Z"
}, {
"id": 28,
"width": 1280,
"height": 800,
"file_name": "1515063059618327777_right_camera.jpeg",
"license": null,
"flickr_url": "",
"coco_url": null,
"date_captured": "2021-12-17T02:43:38Z"
}, {
"id": 29,
"width": 1280,
"height": 800,
"file_name": "1515063063177550271_right_camera.jpeg",
"license": null,
"flickr_url": "",
"coco_url": null,
"date_captured": "2021-12-17T02:43:38Z"
}, {
"id": 30,
"width": 1280,
"height": 800,
"file_name": "1515063210147543204_right_camera.jpeg",
"license": null,
"flickr_url": "",
"coco_url": null,
"date_captured": "2021-12-17T02:43:38Z"
}, {
"id": 31,
"width": 1280,
"height": 800,
"file_name": "1518518260608595925_right_camera.jpeg",
"license": null,
"flickr_url": "",
"coco_url": null,
"date_captured": "2021-12-17T02:43:40Z"
}, {
"id": 32,
"width": 1280,
"height": 800,
"file_name": "1518518262381215791_right_camera.jpeg",
"license": null,
"flickr_url": "",
"coco_url": null,
"date_captured": "2021-12-17T02:43:40Z"
}, {
"id": 33,
"width": 1280,
"height": 800,
"file_name": "1518519011032845044_right_camera.jpeg",
"license": null,
"flickr_url": "",
"coco_url": null,
"date_captured": "2021-12-17T02:43:40Z"
}, {
"id": 34,
"width": 1280,
"height": 800,
"file_name": "1518519547223478227_right_camera.jpeg",
"license": null,
"flickr_url": "",
"coco_url": null,
"date_captured": "2021-12-17T02:44:13Z"
}, {
"id": 35,
"width": 1280,
"height": 800,
"file_name": "1518519550853699444_right_camera.jpeg",
"license": null,
"flickr_url": "",
"coco_url": null,
"date_captured": "2021-12-17T02:44:13Z"
}, {
"id": 36,
"width": 1280,
"height": 800,
"file_name": "1518519553695949785_right_camera.jpeg",
"license": null,
"flickr_url": "",
"coco_url": null,
"date_captured": "2021-12-17T02:44:13Z"
}, {
"id": 37,
"width": 1280,
"height": 800,
"file_name": "1518519650523153022_right_camera.jpeg",
"license": null,
"flickr_url": "",
"coco_url": null,
"date_captured": "2021-12-17T02:44:15Z"
}, {
"id": 38,
"width": 1280,
"height": 800,
"file_name": "1518519652657537992_right_camera.jpeg",
"license": null,
"flickr_url": "",
"coco_url": null,
"date_captured": "2021-12-17T02:44:16Z"
}, {
"id": 39,
"width": 1280,
"height": 800,
"file_name": "1560848737574012681_right_camera.jpeg",
"license": null,
"flickr_url": "",
"coco_url": null,
"date_captured": "2021-12-17T02:44:16Z"
}, {
"id": 40,
"width": 1280,
"height": 800,
"file_name": "1560848739793127970_right_camera.jpeg",
"license": null,
"flickr_url": "",
"coco_url": null,
"date_captured": "2021-12-17T02:44:16Z"
}, {
"id": 41,
"width": 1280,
"height": 800,
"file_name": "1560848740850325220_right_camera.jpeg",
"license": null,
"flickr_url": "",
"coco_url": null,
"date_captured": "2021-12-17T02:44:16Z"
}, {
"id": 42,
"width": 1280,
"height": 800,
"file_name": "1560848742030592562_right_camera.jpeg",
"license": null,
"flickr_url": "",
"coco_url": null,
"date_captured": "2021-12-17T02:44:18Z"
}, {
"id": 43,
"width": 1280,
"height": 800,
"file_name": "1560848742490257544_right_camera.jpeg",
"license": null,
"flickr_url": "",
"coco_url": null,
"date_captured": "2021-12-17T02:44:18Z"
}, {
"id": 44,
"width": 1280,
"height": 800,
"file_name": "1561539769330851315_right_camera.jpeg",
"license": null,
"flickr_url": "",
"coco_url": null,
"date_captured": "2021-12-17T02:44:18Z"
}, {
"id": 45,
"width": 1280,
"height": 800,
"file_name": "1561539769527324485_right_camera.jpeg",
"license": null,
"flickr_url": "",
"coco_url": null,
"date_captured": "2021-12-17T02:44:18Z"
}, {
"id": 46,
"width": 1280,
"height": 800,
"file_name": "1561539769723191124_right_camera.jpeg",
"license": null,
"flickr_url": "",
"coco_url": null,
"date_captured": "2021-12-17T02:44:18Z"
}, {
"id": 47,
"width": 1280,
"height": 800,
"file_name": "1561539769953028567_right_camera.jpeg",
"license": null,
"flickr_url": "",
"coco_url": null,
"date_captured": "2021-12-17T02:44:20Z"
}, {
"id": 48,
"width": 1280,
"height": 800,
"file_name": "1561540295030612086_right_camera.jpeg",
"license": null,
"flickr_url": "",
"coco_url": null,
"date_captured": "2021-12-17T02:44:20Z"
}, {
"id": 49,
"width": 1280,
"height": 800,
"file_name": "1561540353700536350_right_camera.jpeg",
"license": null,
"flickr_url": "",
"coco_url": null,
"date_captured": "2021-12-17T02:44:20Z"
}, {
"id": 50,
"width": 1280,
"height": 800,
"file_name": "1567682194116955997_right_camera.jpeg",
"license": null,
"flickr_url": "",
"coco_url": null,
"date_captured": "2021-12-17T02:44:20Z"
}, {
"id": 51,
"width": 1280,
"height": 800,
"file_name": "1574946071273513942_right_camera.jpeg",
"license": null,
"flickr_url": "",
"coco_url": null,
"date_captured": "2021-12-17T02:44:20Z"
}, {
"id": 52,
"width": 1280,
"height": 800,
"file_name": "1574946072047500165_right_camera.jpeg",
"license": null,
"flickr_url": "",
"coco_url": null,
"date_captured": "2021-12-17T02:44:22Z"
}, {
"id": 53,
"width": 1280,
"height": 800,
"file_name": "1574946181770182507_right_camera.jpeg",
"license": null,
"flickr_url": "",
"coco_url": null,
"date_captured": "2021-12-17T02:44:22Z"
}, {
"id": 54,
"width": 1280,
"height": 800,
"file_name": "1574946403570871384_right_camera.jpeg",
"license": null,
"flickr_url": "",
"coco_url": null,
"date_captured": "2021-12-17T02:44:22Z"
}, {
"id": 55,
"width": 1280,
"height": 800,
"file_name": "1574946404353639816_right_camera.jpeg",
"license": null,
"flickr_url": "",
"coco_url": null,
"date_captured": "2021-12-17T02:44:22Z"
}, {
"id": 56,
"width": 1280,
"height": 800,
"file_name": "1574946411887378681_right_camera.jpeg",
"license": null,
"flickr_url": "",
"coco_url": null,
"date_captured": "2021-12-17T02:44:24Z"
}, {
"id": 57,
"width": 1280,
"height": 800,
"file_name": "1574946460452281022_right_camera.jpeg",
"license": null,
"flickr_url": "",
"coco_url": null,
"date_captured": "2021-12-17T02:44:24Z"
}, {
"id": 58,
"width": 1280,
"height": 800,
"file_name": "1574946491853710817_right_camera.jpeg",
"license": null,
"flickr_url": "",
"coco_url": null,
"date_captured": "2021-12-17T02:44:25Z"
}, {
"id": 59,
"width": 1280,
"height": 800,
"file_name": "1574946492845123773_right_camera.jpeg",
"license": null,
"flickr_url": "",
"coco_url": null,
"date_captured": "2021-12-17T02:44:25Z"
}, {
"id": 60,
"width": 1280,
"height": 800,
"file_name": "1574946493643453009_right_camera.jpeg",
"license": null,
"flickr_url": "",
"coco_url": null,
"date_captured": "2021-12-17T02:44:25Z"
}, {
"id": 61,
"width": 1280,
"height": 800,
"file_name": "1575539043094072002_right_camera.jpeg",
"license": null,
"flickr_url": "",
"coco_url": null,
"date_captured": "2021-12-17T02:44:13Z"
}, {
"id": 62,
"width": 1280,
"height": 800,
"file_name": "1575539045379119554_right_camera.jpeg",
"license": null,
"flickr_url": "",
"coco_url": null,
"date_captured": "2021-12-17T02:44:13Z"
}, {
"id": 63,
"width": 1280,
"height": 800,
"file_name": "1606997287862799835_right_camera.jpeg",
"license": null,
"flickr_url": "",
"coco_url": null,
"date_captured": "2021-12-17T02:44:42Z"
}, {
"id": 64,
"width": 1280,
"height": 800,
"file_name": "1606997289551784420_right_camera.jpeg",
"license": null,
"flickr_url": "",
"coco_url": null,
"date_captured": "2021-12-17T02:44:42Z"
}, {
"id": 65,
"width": 1280,
"height": 800,
"file_name": "1606997290663243333_right_camera.jpeg",
"license": null,
"flickr_url": "",
"coco_url": null,
"date_captured": "2021-12-17T02:44:42Z"
}, {
"id": 66,
"width": 1280,
"height": 800,
"file_name": "1606997303624810229_right_camera.jpeg",
"license": null,
"flickr_url": "",
"coco_url": null,
"date_captured": "2021-12-17T02:44:42Z"
}, {
"id": 67,
"width": 1280,
"height": 800,
"file_name": "1606997304016951895_right_camera.jpeg",
"license": null,
"flickr_url": "",
"coco_url": null,
"date_captured": "2021-12-17T02:44:45Z"
}, {
"id": 68,
"width": 1280,
"height": 800,
"file_name": "1606997311138300028_right_camera.jpeg",
"license": null,
"flickr_url": "",
"coco_url": null,
"date_captured": "2021-12-17T02:44:45Z"
}, {
"id": 69,
"width": 1280,
"height": 800,
"file_name": "1606997313495428636_right_camera.jpeg",
"license": null,
"flickr_url": "",
"coco_url": null,
"date_captured": "2021-12-17T02:44:45Z"
}, {
"id": 70,
"width": 1280,
"height": 800,
"file_name": "1606997314084332714_right_camera.jpeg",
"license": null,
"flickr_url": "",
"coco_url": null,
"date_captured": "2021-12-17T02:44:45Z"
}, {
"id": 71,
"width": 1280,
"height": 800,
"file_name": "1606997323739512969_right_camera.jpeg",
"license": null,
"flickr_url": "",
"coco_url": null,
"date_captured": "2021-12-17T02:44:45Z"
}, {
"id": 72,
"width": 1280,
"height": 800,
"file_name": "1606997362446832627_right_camera.jpeg",
"license": null,
"flickr_url": "",
"coco_url": null,
"date_captured": "2021-12-17T02:44:47Z"
}, {
"id": 73,
"width": 1280,
"height": 800,
"file_name": "1606997387359599991_right_camera.jpeg",
"license": null,
"flickr_url": "",
"coco_url": null,
"date_captured": "2021-12-17T02:44:47Z"
}, {
"id": 74,
"width": 1280,
"height": 800,
"file_name": "1606997403656849926_right_camera.jpeg",
"license": null,
"flickr_url": "",
"coco_url": null,
"date_captured": "2021-12-17T02:44:47Z"
}, {
"id": 75,
"width": 1280,
"height": 800,
"file_name": "1606997564319929803_right_camera.jpeg",
"license": null,
"flickr_url": "",
"coco_url": null,
"date_captured": "2021-12-17T02:44:47Z"
}, {
"id": 76,
"width": 1280,
"height": 800,
"file_name": "1606997590643175464_right_camera.jpeg",
"license": null,
"flickr_url": "",
"coco_url": null,
"date_captured": "2021-12-17T02:44:47Z"
}, {
"id": 77,
"width": 1280,
"height": 800,
"file_name": "1606997605614231499_right_camera.jpeg",
"license": null,
"flickr_url": "",
"coco_url": null,
"date_captured": "2021-12-17T02:44:50Z"
}, {
"id": 78,
"width": 1280,
"height": 800,
"file_name": "1606997606852637129_right_camera.jpeg",
"license": null,
"flickr_url": "",
"coco_url": null,
"date_captured": "2021-12-17T02:44:50Z"
}, {
"id": 79,
"width": 1280,
"height": 800,
"file_name": "1606997607116655662_right_camera.jpeg",
"license": null,
"flickr_url": "",
"coco_url": null,
"date_captured": "2021-12-17T02:44:50Z"
}, {
"id": 80,
"width": 1280,
"height": 800,
"file_name": "1606997692934134637_right_camera.jpeg",
"license": null,
"flickr_url": "",
"coco_url": null,
"date_captured": "2021-12-17T02:44:50Z"
}, {
"id": 81,
"width": 1280,
"height": 800,
"file_name": "1606997694346118017_right_camera.jpeg",
"license": null,
"flickr_url": "",
"coco_url": null,
"date_captured": "2021-12-17T02:44:50Z"
}, {
"id": 82,
"width": 1280,
"height": 800,
"file_name": "1606997752887593040_right_camera.jpeg",
"license": null,
"flickr_url": "",
"coco_url": null,
"date_captured": "2021-12-17T02:44:52Z"
}, {
"id": 83,
"width": 1280,
"height": 800,
"file_name": "1606997788277208747_right_camera.jpeg",
"license": null,
"flickr_url": "",
"coco_url": null,
"date_captured": "2021-12-17T02:44:52Z"
}, {
"id": 84,
"width": 1280,
"height": 800,
"file_name": "1606997792311392138_right_camera.jpeg",
"license": null,
"flickr_url": "",
"coco_url": null,
"date_captured": "2021-12-17T02:44:52Z"
}, {
"id": 85,
"width": 1280,
"height": 800,
"file_name": "1606997828550399654_right_camera.jpeg",
"license": null,
"flickr_url": "",
"coco_url": null,
"date_captured": "2021-12-17T02:44:52Z"
}, {
"id": 86,
"width": 1280,
"height": 800,
"file_name": "1606997829715453218_right_camera.jpeg",
"license": null,
"flickr_url": "",
"coco_url": null,
"date_captured": "2021-12-17T02:44:52Z"
}, {
"id": 87,
"width": 1280,
"height": 800,
"file_name": "1606997895111077240_right_camera.jpeg",
"license": null,
"flickr_url": "",
"coco_url": null,
"date_captured": "2021-12-17T02:44:54Z"
}, {
"id": 88,
"width": 1280,
"height": 800,
"file_name": "1606998103919309794_right_camera.jpeg",
"license": null,
"flickr_url": "",
"coco_url": null,
"date_captured": "2021-12-17T02:44:55Z"
}, {
"id": 89,
"width": 1280,
"height": 800,
"file_name": "1606998104501063355_right_camera.jpeg",
"license": null,
"flickr_url": "",
"coco_url": null,
"date_captured": "2021-12-17T02:44:55Z"
}, {
"id": 90,
"width": 1280,
"height": 800,
"file_name": "1606998118293559588_right_camera.jpeg",
"license": null,
"flickr_url": "",
"coco_url": null,
"date_captured": "2021-12-17T02:44:55Z"
}, {
"id": 91,
"width": 1280,
"height": 800,
"file_name": "1606998124418369851_right_camera.jpeg",
"license": null,
"flickr_url": "",
"coco_url": null,
"date_captured": "2021-12-17T02:44:55Z"
}, {
"id": 92,
"width": 1280,
"height": 800,
"file_name": "1606998125332527496_right_camera.jpeg",
"license": null,
"flickr_url": "",
"coco_url": null,
"date_captured": "2021-12-17T02:44:57Z"
}, {
"id": 93,
"width": 1280,
"height": 800,
"file_name": "1612954533623154055_right_camera.jpeg",
"license": null,
"flickr_url": "",
"coco_url": null,
"date_captured": "2021-12-17T02:44:57Z"
}, {
"id": 94,
"width": 1280,
"height": 800,
"file_name": "1612954540685767866_right_camera.jpeg",
"license": null,
"flickr_url": "",
"coco_url": null,
"date_captured": "2021-12-17T02:44:57Z"
}, {
"id": 95,
"width": 1280,
"height": 800,
"file_name": "1612954542582789751_right_camera.jpeg",
"license": null,
"flickr_url": "",
"coco_url": null,
"date_captured": "2021-12-17T02:44:57Z"
}, {
"id": 96,
"width": 1280,
"height": 800,
"file_name": "1612954543569075598_right_camera.jpeg",
"license": null,
"flickr_url": "",
"coco_url": null,
"date_captured": "2021-12-17T02:44:57Z"
}, {
"id": 97,
"width": 1280,
"height": 800,
"file_name": "1629815230141815129_right_camera.jpeg",
"license": null,
"flickr_url": "",
"coco_url": null,
"date_captured": "2021-12-17T02:44:59Z"
}, {
"id": 98,
"width": 1280,
"height": 800,
"file_name": "1629815231539531457_right_camera.jpeg",
"license": null,
"flickr_url": "",
"coco_url": null,
"date_captured": "2021-12-17T02:44:59Z"
}, {
"id": 99,
"width": 1280,
"height": 800,
"file_name": "1629815253957665163_right_camera.jpeg",
"license": null,
"flickr_url": "",
"coco_url": null,
"date_captured": "2021-12-17T02:44:59Z"
}, {
"id": 100,
"width": 1280,
"height": 800,
"file_name": "1629815255553024635_right_camera.jpeg",
"license": null,
"flickr_url": "",
"coco_url": null,
"date_captured": "2021-12-17T02:44:59Z"
}, {
"id": 101,
"width": 1280,
"height": 800,
"file_name": "1629815265215431264_right_camera.jpeg",
"license": null,
"flickr_url": "",
"coco_url": null,
"date_captured": "2021-12-17T02:45:01Z"
}, {
"id": 102,
"width": 1280,
"height": 800,
"file_name": "1629815302866477643_right_camera.jpeg",
"license": null,
"flickr_url": "",
"coco_url": null,
"date_captured": "2021-12-17T02:45:01Z"
}, {
"id": 103,
"width": 1280,
"height": 800,
"file_name": "1629815303200598224_right_camera.jpeg",
"license": null,
"flickr_url": "",
"coco_url": null,
"date_captured": "2021-12-17T02:45:01Z"
}, {
"id": 104,
"width": 1280,
"height": 800,
"file_name": "1629815304001005446_right_camera.jpeg",
"license": null,
"flickr_url": "",
"coco_url": null,
"date_captured": "2021-12-17T02:45:01Z"
}, {
"id": 105,
"width": 1280,
"height": 800,
"file_name": "1629815372494338015_right_camera.jpeg",
"license": null,
"flickr_url": "",
"coco_url": null,
"date_captured": "2021-12-17T02:45:01Z"
}, {
"id": 106,
"width": 1280,
"height": 800,
"file_name": "1629815406156648282_right_camera.jpeg",
"license": null,
"flickr_url": "",
"coco_url": null,
"date_captured": "2021-12-17T02:45:04Z"
}, {
"id": 107,
"width": 1280,
"height": 800,
"file_name": "1630484938584566098_right_camera.jpeg",
"license": null,
"flickr_url": "",
"coco_url": null,
"date_captured": "2021-12-17T02:45:04Z"
}, {
"id": 108,
"width": 1280,
"height": 800,
"file_name": "1630484942148138590_right_camera.jpeg",
"license": null,
"flickr_url": "",
"coco_url": null,
"date_captured": "2021-12-17T02:45:04Z"
}, {
"id": 109,
"width": 1280,
"height": 800,
"file_name": "1630484945174153733_right_camera.jpeg",
"license": null,
"flickr_url": "",
"coco_url": null,
"date_captured": "2021-12-17T02:45:04Z"
}, {
"id": 110,
"width": 1280,
"height": 800,
"file_name": "1630484971451266601_right_camera.jpeg",
"license": null,
"flickr_url": "",
"coco_url": null,
"date_captured": "2021-12-17T02:45:04Z"
}, {
"id": 111,
"width": 1280,
"height": 800,
"file_name": "1630484976203773656_right_camera.jpeg",
"license": null,
"flickr_url": "",
"coco_url": null,
"date_captured": "2021-12-17T02:44:42Z"
}, {
"id": 112,
"width": 1280,
"height": 800,
"file_name": "1630484977791788662_right_camera.jpeg",
"license": null,
"flickr_url": "",
"coco_url": null,
"date_captured": "2021-12-17T02:45:28Z"
}, {
"id": 113,
"width": 1280,
"height": 800,
"file_name": "1630484990639577720_right_camera.jpeg",
"license": null,
"flickr_url": "",
"coco_url": null,
"date_captured": "2021-12-17T02:45:28Z"
}, {
"id": 114,
"width": 1280,
"height": 800,
"file_name": "1630484994447806862_right_camera.jpeg",
"license": null,
"flickr_url": "",
"coco_url": null,
"date_captured": "2021-12-17T02:45:28Z"
}, {
"id": 115,
"width": 1280,
"height": 800,
"file_name": "1630484998204436137_right_camera.jpeg",
"license": null,
"flickr_url": "",
"coco_url": null,
"date_captured": "2021-12-17T02:45:29Z"
}, {
"id": 116,
"width": 1280,
"height": 800,
"file_name": "1630484999455301208_right_camera.jpeg",
"license": null,
"flickr_url": "",
"coco_url": null,
"date_captured": "2021-12-17T02:45:30Z"
}, {
"id": 117,
"width": 1280,
"height": 800,
"file_name": "1630485003017814337_right_camera.jpeg",
"license": null,
"flickr_url": "",
"coco_url": null,
"date_captured": "2021-12-17T02:46:12Z"
}, {
"id": 118,
"width": 1280,
"height": 800,
"file_name": "1630485093194559673_right_camera.jpeg",
"license": null,
"flickr_url": "",
"coco_url": null,
"date_captured": "2021-12-17T02:45:30Z"
}, {
"id": 119,
"width": 1280,
"height": 800,
"file_name": "1630485094392755845_right_camera.jpeg",
"license": null,
"flickr_url": "",
"coco_url": null,
"date_captured": "2021-12-17T02:45:30Z"
}, {
"id": 120,
"width": 1280,
"height": 800,
"file_name": "1637931227547851828_right_camera.jpeg",
"license": null,
"flickr_url": "",
"coco_url": null,
"date_captured": "2021-12-17T02:45:32Z"
}, {
"id": 121,
"width": 1280,
"height": 800,
"file_name": "1637931248552544463_right_camera.jpeg",
"license": null,
"flickr_url": "",
"coco_url": null,
"date_captured": "2021-12-17T02:45:32Z"
}, {
"id": 122,
"width": 1280,
"height": 800,
"file_name": "1637931300204885001_right_camera.jpeg",
"license": null,
"flickr_url": "",
"coco_url": null,
"date_captured": "2021-12-17T02:45:32Z"
}, {
"id": 123,
"width": 1280,
"height": 800,
"file_name": "1637931301184252436_right_camera.jpeg",
"license": null,
"flickr_url": "",
"coco_url": null,
"date_captured": "2021-12-17T02:45:32Z"
}, {
"id": 124,
"width": 1280,
"height": 800,
"file_name": "1637931302170470137_right_camera.jpeg",
"license": null,
"flickr_url": "",
"coco_url": null,
"date_captured": "2021-12-17T02:45:32Z"
}, {
"id": 125,
"width": 1280,
"height": 800,
"file_name": "1637931303358903002_right_camera.jpeg",
"license": null,
"flickr_url": "",
"coco_url": null,
"date_captured": "2021-12-17T02:45:34Z"
}, {
"id": 126,
"width": 1280,
"height": 800,
"file_name": "1637931330428769113_right_camera.jpeg",
"license": null,
"flickr_url": "",
"coco_url": null,
"date_captured": "2021-12-17T02:45:34Z"
}, {
"id": 127,
"width": 1280,
"height": 800,
"file_name": "1637931335337276821_right_camera.jpeg",
"license": null,
"flickr_url": "",
"coco_url": null,
"date_captured": "2021-12-17T02:45:34Z"
}, {
"id": 128,
"width": 1280,
"height": 800,
"file_name": "1637931337883175868_right_camera.jpeg",
"license": null,
"flickr_url": "",
"coco_url": null,
"date_captured": "2021-12-17T02:45:34Z"
}, {
"id": 129,
"width": 1280,
"height": 800,
"file_name": "1637931605334506725_right_camera.jpeg",
"license": null,
"flickr_url": "",
"coco_url": null,
"date_captured": "2021-12-17T02:45:34Z"
}, {
"id": 130,
"width": 1280,
"height": 800,
"file_name": "1637931609174278360_right_camera.jpeg",
"license": null,
"flickr_url": "",
"coco_url": null,
"date_captured": "2021-12-17T02:45:36Z"
}, {
"id": 131,
"width": 1280,
"height": 800,
"file_name": "1637931609696580844_right_camera.jpeg",
"license": null,
"flickr_url": "",
"coco_url": null,
"date_captured": "2021-12-17T02:45:08Z"
}, {
"id": 132,
"width": 1280,
"height": 800,
"file_name": "1637931640891640205_right_camera.jpeg",
"license": null,
"flickr_url": "",
"coco_url": null,
"date_captured": "2021-12-17T02:45:08Z"
}, {
"id": 133,
"width": 1280,
"height": 800,
"file_name": "1637931645839735147_right_camera.jpeg",
"license": null,
"flickr_url": "",
"coco_url": null,
"date_captured": "2021-12-17T02:45:08Z"
}, {
"id": 134,
"width": 1280,
"height": 800,
"file_name": "1637931654542687622_right_camera.jpeg",
"license": null,
"flickr_url": "",
"coco_url": null,
"date_captured": "2021-12-17T02:45:08Z"
}, {
"id": 135,
"width": 1280,
"height": 800,
"file_name": "1637931655920543472_right_camera.jpeg",
"license": null,
"flickr_url": "",
"coco_url": null,
"date_captured": "2021-12-17T02:45:08Z"
}, {
"id": 136,
"width": 1280,
"height": 800,
"file_name": "1637931676389611398_right_camera.jpeg",
"license": null,
"flickr_url": "",
"coco_url": null,
"date_captured": "2021-12-17T02:45:10Z"
}, {
"id": 137,
"width": 1280,
"height": 800,
"file_name": "1637931704448091466_right_camera.jpeg",
"license": null,
"flickr_url": "",
"coco_url": null,
"date_captured": "2021-12-17T02:45:10Z"
}, {
"id": 138,
"width": 1280,
"height": 800,
"file_name": "1637931734570368837_right_camera.jpeg",
"license": null,
"flickr_url": "",
"coco_url": null,
"date_captured": "2021-12-17T02:45:10Z"
}, {
"id": 139,
"width": 1280,
"height": 800,
"file_name": "1637931782216179350_right_camera.jpeg",
"license": null,
"flickr_url": "",
"coco_url": null,
"date_captured": "2021-12-17T02:45:10Z"
}, {
"id": 140,
"width": 1280,
"height": 800,
"file_name": "1637931789634510135_right_camera.jpeg",
"license": null,
"flickr_url": "",
"coco_url": null,
"date_captured": "2021-12-17T02:45:10Z"
}, {
"id": 141,
"width": 1280,
"height": 800,
"file_name": "1637931791914076378_right_camera.jpeg",
"license": null,
"flickr_url": "",
"coco_url": null,
"date_captured": "2021-12-17T02:45:12Z"
}, {
"id": 142,
"width": 1280,
"height": 800,
"file_name": "1637931792837324226_right_camera.jpeg",
"license": null,
"flickr_url": "",
"coco_url": null,
"date_captured": "2021-12-17T02:45:13Z"
}, {
"id": 143,
"width": 1280,
"height": 800,
"file_name": "1637931804510458805_right_camera.jpeg",
"license": null,
"flickr_url": "",
"coco_url": null,
"date_captured": "2021-12-17T02:45:12Z"
}, {
"id": 144,
"width": 1280,
"height": 800,
"file_name": "1637931811059620178_right_camera.jpeg",
"license": null,
"flickr_url": "",
"coco_url": null,
"date_captured": "2021-12-17T02:45:13Z"
}, {
"id": 145,
"width": 1280,
"height": 800,
"file_name": "1637931838885878822_right_camera.jpeg",
"license": null,
"flickr_url": "",
"coco_url": null,
"date_captured": "2021-12-17T02:45:12Z"
}, {
"id": 146,
"width": 1280,
"height": 800,
"file_name": "1637931976833956230_right_camera.jpeg",
"license": null,
"flickr_url": "",
"coco_url": null,
"date_captured": "2021-12-17T02:45:15Z"
}, {
"id": 147,
"width": 1280,
"height": 800,
"file_name": "1637932060109615487_right_camera.jpeg",
"license": null,
"flickr_url": "",
"coco_url": null,
"date_captured": "2021-12-17T02:45:15Z"
}, {
"id": 148,
"width": 1280,
"height": 800,
"file_name": "1637932064687959641_right_camera.jpeg",
"license": null,
"flickr_url": "",
"coco_url": null,
"date_captured": "2021-12-17T02:45:15Z"
}, {
"id": 149,
"width": 1280,
"height": 800,
"file_name": "1637932065672885478_right_camera.jpeg",
"license": null,
"flickr_url": "",
"coco_url": null,
"date_captured": "2021-12-17T02:45:15Z"
}, {
"id": 150,
"width": 1280,
"height": 800,
"file_name": "1637932069008338082_right_camera.jpeg",
"license": null,
"flickr_url": "",
"coco_url": null,
"date_captured": "2021-12-17T02:45:15Z"
}, {
"id": 151,
"width": 1280,
"height": 800,
"file_name": "1637932079559973017_right_camera.jpeg",
"license": null,
"flickr_url": "",
"coco_url": null,
"date_captured": "2021-12-17T02:45:17Z"
}, {
"id": 152,
"width": 1280,
"height": 800,
"file_name": "1637932080867545202_right_camera.jpeg",
"license": null,
"flickr_url": "",
"coco_url": null,
"date_captured": "2021-12-17T02:45:17Z"
}, {
"id": 153,
"width": 1280,
"height": 800,
"file_name": "1637932095263441973_right_camera.jpeg",
"license": null,
"flickr_url": "",
"coco_url": null,
"date_captured": "2021-12-17T02:45:17Z"
}, {
"id": 154,
"width": 1280,
"height": 800,
"file_name": "1637932129586646012_right_camera.jpeg",
"license": null,
"flickr_url": "",
"coco_url": null,
"date_captured": "2021-12-17T02:45:17Z"
}, {
"id": 155,
"width": 1280,
"height": 800,
"file_name": "1637932171999378612_right_camera.jpeg",
"license": null,
"flickr_url": "",
"coco_url": null,
"date_captured": "2021-12-17T02:45:17Z"
}, {
"id": 156,
"width": 1280,
"height": 800,
"file_name": "1637932196815688141_right_camera.jpeg",
"license": null,
"flickr_url": "",
"coco_url": null,
"date_captured": "2021-12-17T02:45:19Z"
}, {
"id": 157,
"width": 1280,
"height": 800,
"file_name": "1637932210334770131_right_camera.jpeg",
"license": null,
"flickr_url": "",
"coco_url": null,
"date_captured": "2021-12-17T02:45:19Z"
}, {
"id": 158,
"width": 1280,
"height": 800,
"file_name": "1637932213321013381_right_camera.jpeg",
"license": null,
"flickr_url": "",
"coco_url": null,
"date_captured": "2021-12-17T02:45:19Z"
}, {
"id": 159,
"width": 1280,
"height": 800,
"file_name": "1637932215132749141_right_camera.jpeg",
"license": null,
"flickr_url": "",
"coco_url": null,
"date_captured": "2021-12-17T02:45:19Z"
}, {
"id": 160,
"width": 1280,
"height": 800,
"file_name": "1637932220871796070_right_camera.jpeg",
"license": null,
"flickr_url": "",
"coco_url": null,
"date_captured": "2021-12-17T02:45:19Z"
}, {
"id": 161,
"width": 1280,
"height": 800,
"file_name": "1637932234439667439_right_camera.jpeg",
"license": null,
"flickr_url": "",
"coco_url": null,
"date_captured": "2021-12-17T02:45:22Z"
}, {
"id": 162,
"width": 1280,
"height": 800,
"file_name": "1637932234845572763_right_camera.jpeg",
"license": null,
"flickr_url": "",
"coco_url": null,
"date_captured": "2021-12-17T02:45:22Z"
}, {
"id": 163,
"width": 1280,
"height": 800,
"file_name": "1637932267087688169_right_camera.jpeg",
"license": null,
"flickr_url": "",
"coco_url": null,
"date_captured": "2021-12-17T02:45:22Z"
}, {
"id": 164,
"width": 1280,
"height": 800,
"file_name": "1637932269801187407_right_camera.jpeg",
"license": null,
"flickr_url": "",
"coco_url": null,
"date_captured": "2021-12-17T02:45:22Z"
}, {
"id": 165,
"width": 1280,
"height": 800,
"file_name": "1637932380507563429_right_camera.jpeg",
"license": null,
"flickr_url": "",
"coco_url": null,
"date_captured": "2021-12-17T02:45:24Z"
}, {
"id": 166,
"width": 1280,
"height": 800,
"file_name": "1638277211254437024_right_camera.jpeg",
"license": null,
"flickr_url": "",
"coco_url": null,
"date_captured": "2021-12-17T02:45:24Z"
}, {
"id": 167,
"width": 1280,
"height": 800,
"file_name": "1638277233876969917_right_camera.jpeg",
"license": null,
"flickr_url": "",
"coco_url": null,
"date_captured": "2021-12-17T02:45:24Z"
}, {
"id": 168,
"width": 1280,
"height": 800,
"file_name": "1638277244671736001_right_camera.jpeg",
"license": null,
"flickr_url": "",
"coco_url": null,
"date_captured": "2021-12-17T02:45:24Z"
}, {
"id": 169,
"width": 1280,
"height": 800,
"file_name": "1638523188596937812_right_camera.jpeg",
"license": null,
"flickr_url": "",
"coco_url": null,
"date_captured": "2021-12-17T02:45:26Z"
}, {
"id": 170,
"width": 1280,
"height": 800,
"file_name": "1638523226155346637_right_camera.jpeg",
"license": null,
"flickr_url": "",
"coco_url": null,
"date_captured": "2021-12-17T02:45:26Z"
}, {
"id": 171,
"width": 1280,
"height": 800,
"file_name": "1638523230118376200_right_camera.jpeg",
"license": null,
"flickr_url": "",
"coco_url": null,
"date_captured": "2021-12-17T02:45:26Z"
}, {
"id": 172,
"width": 1280,
"height": 800,
"file_name": "1638523232253304689_right_camera.jpeg",
"license": null,
"flickr_url": "",
"coco_url": null,
"date_captured": "2021-12-17T02:45:26Z"
}, {
"id": 173,
"width": 1280,
"height": 800,
"file_name": "1638523233106632835_right_camera.jpeg",
"license": null,
"flickr_url": "",
"coco_url": null,
"date_captured": "2021-12-17T02:45:26Z"
}, {
"id": 174,
"width": 1280,
"height": 800,
"file_name": "1638524921140086767_right_camera.jpeg",
"license": null,
"flickr_url": "",
"coco_url": null,
"date_captured": "2021-12-17T02:45:28Z"
}, {
"id": 175,
"width": 1280,
"height": 800,
"file_name": "1638524939019069014_right_camera.jpeg",
"license": null,
"flickr_url": "",
"coco_url": null,
"date_captured": "2021-12-17T02:45:28Z"
}], "annotations": [{
"id": 0,
"image_id": 170,
"category_id": 1,
"segmentation": null,
"area": 4815,
"bbox": [
603,
91,
45,
107
],
"iscrowd": 0
}, {
"id": 1,
"image_id": 3,
"category_id": 1,
"segmentation": null,
"area": 51750,
"bbox": [
168,
184,
225,
230
],
"iscrowd": 0
}, {
"id": 2,
"image_id": 21,
"category_id": 1,
"segmentation": null,
"area": 3735,
"bbox": [
419,
147,
45,
83
],
"iscrowd": 0
}, {
"id": 3,
"image_id": 21,
"category_id": 1,
"segmentation": null,
"area": 6732,
"bbox": [
577,
85,
68,
99
],
"iscrowd": 0
}, {
"id": 4,
"image_id": 169,
"category_id": 1,
"segmentation": null,
"area": 8710,
"bbox": [
942,
65,
65,
134
],
"iscrowd": 0
}, {
"id": 5,
"image_id": 10,
"category_id": 1,
"segmentation": null,
"area": 14518,
"bbox": [
153,
286,
122,
119
],
"iscrowd": 0
}, {
"id": 6,
"image_id": 10,
"category_id": 1,
"segmentation": null,
"area": 14632,
"bbox": [
100,
335,
124,
118
],
"iscrowd": 0
}, {
"id": 7,
"image_id": 29,
"category_id": 1,
"segmentation": null,
"area": 25575,
"bbox": [
43,
366,
165,
155
],
"iscrowd": 0
}, {
"id": 8,
"image_id": 29,
"category_id": 1,
"segmentation": null,
"area": 3520,
"bbox": [
300,
198,
55,
64
],
"iscrowd": 0
}, {
"id": 9,
"image_id": 29,
"category_id": 1,
"segmentation": null,
"area": 2760,
"bbox": [
333,
188,
46,
60
],
"iscrowd": 0
}, {
"id": 10,
"image_id": 114,
"category_id": 1,
"segmentation": null,
"area": 7440,
"bbox": [
119,
345,
93,
80
],
"iscrowd": 0
}, {
"id": 11,
"image_id": 114,
"category_id": 1,
"segmentation": null,
"area": 16059,
"bbox": [
281,
148,
101,
159
],
"iscrowd": 0
}, {
"id": 12,
"image_id": 114,
"category_id": 1,
"segmentation": null,
"area": 15184,
"bbox": [
355,
114,
104,
146
],
"iscrowd": 0
}, {
"id": 13,
"image_id": 114,
"category_id": 1,
"segmentation": null,
"area": 6160,
"bbox": [
88,
388,
80,
77
],
"iscrowd": 0
}, {
"id": 14,
"image_id": 135,
"category_id": 1,
"segmentation": null,
"area": 42731,
"bbox": [
416,
8,
173,
247
],
"iscrowd": 0
}, {
"id": 15,
"image_id": 43,
"category_id": 1,
"segmentation": null,
"area": 16356,
"bbox": [
1081,
44,
87,
188
],
"iscrowd": 0
}, {
"id": 16,
"image_id": 116,
"category_id": 1,
"segmentation": null,
"area": 57960,
"bbox": [
181,
134,
230,
252
],
"iscrowd": 0
}, {
"id": 17,
"image_id": 116,
"category_id": 1,
"segmentation": null,
"area": 11628,
"bbox": [
195,
243,
102,
114
],
"iscrowd": 0
}, {
"id": 18,
"image_id": 116,
"category_id": 1,
"segmentation": null,
"area": 18032,
"bbox": [
403,
76,
98,
184
],
"iscrowd": 0
}, {
"id": 19,
"image_id": 116,
"category_id": 1,
"segmentation": null,
"area": 17900,
"bbox": [
444,
54,
100,
179
],
"iscrowd": 0
}, {
"id": 20,
"image_id": 116,
"category_id": 1,
"segmentation": null,
"area": 7076,
"bbox": [
768,
39,
58,
122
],
"iscrowd": 0
}, {
"id": 21,
"image_id": 116,
"category_id": 1,
"segmentation": null,
"area": 2296,
"bbox": [
914,
65,
28,
82
],
"iscrowd": 0
}, {
"id": 22,
"image_id": 116,
"category_id": 1,
"segmentation": null,
"area": 2664,
"bbox": [
945,
76,
37,
72
],
"iscrowd": 0
}, {
"id": 23,
"image_id": 147,
"category_id": 1,
"segmentation": null,
"area": 15876,
"bbox": [
246,
202,
126,
126
],
"iscrowd": 0
}, {
"id": 24,
"image_id": 149,
"category_id": 1,
"segmentation": null,
"area": 8775,
"bbox": [
574,
65,
75,
117
],
"iscrowd": 0
}, {
"id": 25,
"image_id": 149,
"category_id": 1,
"segmentation": null,
"area": 5320,
"bbox": [
900,
63,
56,
95
],
"iscrowd": 0
}, {
"id": 26,
"image_id": 149,
"category_id": 1,
"segmentation": null,
"area": 13431,
"bbox": [
142,
306,
121,
111
],
"iscrowd": 0
}, {
"id": 27,
"image_id": 26,
"category_id": 1,
"segmentation": null,
"area": 6195,
"bbox": [
679,
53,
59,
105
],
"iscrowd": 0
}, {
"id": 28,
"image_id": 26,
"category_id": 1,
"segmentation": null,
"area": 7384,
"bbox": [
24,
524,
104,
71
],
"iscrowd": 0
}, {
"id": 29,
"image_id": 28,
"category_id": 1,
"segmentation": null,
"area": 8787,
"bbox": [
428,
114,
87,
101
],
"iscrowd": 0
}, {
"id": 30,
"image_id": 28,
"category_id": 1,
"segmentation": null,
"area": 3577,
"bbox": [
552,
88,
49,
73
],
"iscrowd": 0
}, {
"id": 31,
"image_id": 28,
"category_id": 1,
"segmentation": null,
"area": 12177,
"bbox": [
352,
124,
99,
123
],
"iscrowd": 0
}, {
"id": 32,
"image_id": 11,
"category_id": 1,
"segmentation": null,
"area": 25098,
"bbox": [
250,
155,
141,
178
],
"iscrowd": 0
}, {
"id": 33,
"image_id": 11,
"category_id": 1,
"segmentation": null,
"area": 6142,
"bbox": [
57,
457,
83,
74
],
"iscrowd": 0
}, {
"id": 34,
"image_id": 11,
"category_id": 1,
"segmentation": null,
"area": 2144,
"bbox": [
965,
94,
32,
67
],
"iscrowd": 0
}, {
"id": 35,
"image_id": 27,
"category_id": 1,
"segmentation": null,
"area": 9966,
"bbox": [
690,
20,
66,
151
],
"iscrowd": 0
}, {
"id": 36,
"image_id": 4,
"category_id": 1,
"segmentation": null,
"area": 50298,
"bbox": [
505,
6,
166,
303
],
"iscrowd": 0
}, {
"id": 37,
"image_id": 124,
"category_id": 1,
"segmentation": null,
"area": 14994,
"bbox": [
181,
260,
126,
119
],
"iscrowd": 0
}, {
"id": 38,
"image_id": 124,
"category_id": 1,
"segmentation": null,
"area": 1960,
"bbox": [
886,
80,
28,
70
],
"iscrowd": 0
}, {
"id": 39,
"image_id": 109,
"category_id": 1,
"segmentation": null,
"area": 26163,
"bbox": [
133,
307,
171,
153
],
"iscrowd": 0
}, {
"id": 40,
"image_id": 109,
"category_id": 1,
"segmentation": null,
"area": 27221,
"bbox": [
44,
402,
163,
167
],
"iscrowd": 0
}, {
"id": 41,
"image_id": 109,
"category_id": 1,
"segmentation": null,
"area": 14418,
"bbox": [
656,
60,
89,
162
],
"iscrowd": 0
}, {
"id": 42,
"image_id": 109,
"category_id": 1,
"segmentation": null,
"area": 11914,
"bbox": [
725,
34,
74,
161
],
"iscrowd": 0
}, {
"id": 43,
"image_id": 126,
"category_id": 1,
"segmentation": null,
"area": 8960,
"bbox": [
419,
124,
80,
112
],
"iscrowd": 0
}, {
"id": 44,
"image_id": 126,
"category_id": 1,
"segmentation": null,
"area": 5766,
"bbox": [
368,
153,
62,
93
],
"iscrowd": 0
}, {
"id": 45,
"image_id": 134,
"category_id": 1,
"segmentation": null,
"area": 7866,
"bbox": [
888,
26,
57,
138
],
"iscrowd": 0
}, {
"id": 46,
"image_id": 25,
"category_id": 1,
"segmentation": null,
"area": 52788,
"bbox": [
287,
108,
212,
249
],
"iscrowd": 0
}, {
"id": 47,
"image_id": 31,
"category_id": 1,
"segmentation": null,
"area": 4860,
"bbox": [
396,
173,
60,
81
],
"iscrowd": 0
}, {
"id": 48,
"image_id": 31,
"category_id": 1,
"segmentation": null,
"area": 2494,
"bbox": [
372,
198,
43,
58
],
"iscrowd": 0
}, {
"id": 49,
"image_id": 94,
"category_id": 1,
"segmentation": null,
"area": 8214,
"bbox": [
425,
136,
74,
111
],
"iscrowd": 0
}, {
"id": 50,
"image_id": 94,
"category_id": 1,
"segmentation": null,
"area": 4743,
"bbox": [
512,
122,
51,
93
],
"iscrowd": 0
}, {
"id": 51,
"image_id": 94,
"category_id": 1,
"segmentation": null,
"area": 2590,
"bbox": [
645,
96,
35,
74
],
"iscrowd": 0
}, {
"id": 52,
"image_id": 94,
"category_id": 1,
"segmentation": null,
"area": 2263,
"bbox": [
674,
94,
31,
73
],
"iscrowd": 0
}, {
"id": 53,
"image_id": 65,
"category_id": 1,
"segmentation": null,
"area": 5346,
"bbox": [
294,
219,
66,
81
],
"iscrowd": 0
}, {
"id": 54,
"image_id": 65,
"category_id": 1,
"segmentation": null,
"area": 1219,
"bbox": [
883,
85,
23,
53
],
"iscrowd": 0
}, {
"id": 55,
"image_id": 137,
"category_id": 1,
"segmentation": null,
"area": 2516,
"bbox": [
714,
85,
34,
74
],
"iscrowd": 0
}, {
"id": 56,
"image_id": 64,
"category_id": 1,
"segmentation": null,
"area": 6110,
"bbox": [
470,
116,
65,
94
],
"iscrowd": 0
}, {
"id": 57,
"image_id": 8,
"category_id": 1,
"segmentation": null,
"area": 8866,
"bbox": [
631,
56,
62,
143
],
"iscrowd": 0
}, {
"id": 58,
"image_id": 38,
"category_id": 1,
"segmentation": null,
"area": 15096,
"bbox": [
277,
186,
111,
136
],
"iscrowd": 0
}, {
"id": 59,
"image_id": 38,
"category_id": 1,
"segmentation": null,
"area": 18088,
"bbox": [
207,
231,
136,
133
],
"iscrowd": 0
}, {
"id": 60,
"image_id": 118,
"category_id": 1,
"segmentation": null,
"area": 100440,
"bbox": [
348,
3,
270,
372
],
"iscrowd": 0
}, {
"id": 61,
"image_id": 95,
"category_id": 1,
"segmentation": null,
"area": 38950,
"bbox": [
44,
351,
205,
190
],
"iscrowd": 0
}, {
"id": 62,
"image_id": 6,
"category_id": 1,
"segmentation": null,
"area": 10788,
"bbox": [
419,
114,
93,
116
],
"iscrowd": 0
}, {
"id": 63,
"image_id": 6,
"category_id": 1,
"segmentation": null,
"area": 6708,
"bbox": [
147,
314,
78,
86
],
"iscrowd": 0
}, {
"id": 64,
"image_id": 42,
"category_id": 1,
"segmentation": null,
"area": 35306,
"bbox": [
946,
0,
139,
254
],
"iscrowd": 0
}, {
"id": 65,
"image_id": 131,
"category_id": 1,
"segmentation": null,
"area": 6300,
"bbox": [
546,
88,
60,
105
],
"iscrowd": 0
}, {
"id": 66,
"image_id": 23,
"category_id": 1,
"segmentation": null,
"area": 4136,
"bbox": [
530,
107,
47,
88
],
"iscrowd": 0
}, {
"id": 67,
"image_id": 23,
"category_id": 1,
"segmentation": null,
"area": 3648,
"bbox": [
604,
91,
48,
76
],
"iscrowd": 0
}, {
"id": 68,
"image_id": 23,
"category_id": 1,
"segmentation": null,
"area": 2088,
"bbox": [
487,
134,
36,
58
],
"iscrowd": 0
}, {
"id": 69,
"image_id": 76,
"category_id": 1,
"segmentation": null,
"area": 12928,
"bbox": [
476,
76,
101,
128
],
"iscrowd": 0
}, {
"id": 70,
"image_id": 1,
"category_id": 1,
"segmentation": null,
"area": 11938,
"bbox": [
37,
459,
127,
94
],
"iscrowd": 0
}, {
"id": 71,
"image_id": 1,
"category_id": 1,
"segmentation": null,
"area": 12573,
"bbox": [
9,
513,
127,
99
],
"iscrowd": 0
}, {
"id": 72,
"image_id": 107,
"category_id": 1,
"segmentation": null,
"area": 12510,
"bbox": [
414,
124,
90,
139
],
"iscrowd": 0
}, {
"id": 73,
"image_id": 107,
"category_id": 1,
"segmentation": null,
"area": 13671,
"bbox": [
355,
139,
93,
147
],
"iscrowd": 0
}, {
"id": 74,
"image_id": 2,
"category_id": 1,
"segmentation": null,
"area": 12692,
"bbox": [
536,
63,
76,
167
],
"iscrowd": 0
}, {
"id": 75,
"image_id": 2,
"category_id": 1,
"segmentation": null,
"area": 8760,
"bbox": [
592,
66,
60,
146
],
"iscrowd": 0
}, {
"id": 76,
"image_id": 7,
"category_id": 1,
"segmentation": null,
"area": 12093,
"bbox": [
473,
83,
87,
139
],
"iscrowd": 0
}, {
"id": 77,
"image_id": 7,
"category_id": 1,
"segmentation": null,
"area": 8120,
"bbox": [
538,
74,
70,
116
],
"iscrowd": 0
}, {
"id": 78,
"image_id": 18,
"category_id": 1,
"segmentation": null,
"area": 62835,
"bbox": [
218,
76,
213,
295
],
"iscrowd": 0
}, {
"id": 79,
"image_id": 18,
"category_id": 1,
"segmentation": null,
"area": 2754,
"bbox": [
673,
70,
34,
81
],
"iscrowd": 0
}, {
"id": 80,
"image_id": 70,
"category_id": 1,
"segmentation": null,
"area": 2750,
"bbox": [
202,
306,
50,
55
],
"iscrowd": 0
}, {
"id": 81,
"image_id": 70,
"category_id": 1,
"segmentation": null,
"area": 3692,
"bbox": [
333,
201,
52,
71
],
"iscrowd": 0
}, {
"id": 82,
"image_id": 70,
"category_id": 1,
"segmentation": null,
"area": 2280,
"bbox": [
361,
192,
40,
57
],
"iscrowd": 0
}, {
"id": 83,
"image_id": 70,
"category_id": 1,
"segmentation": null,
"area": 2856,
"bbox": [
392,
171,
42,
68
],
"iscrowd": 0
}, {
"id": 84,
"image_id": 70,
"category_id": 1,
"segmentation": null,
"area": 2665,
"bbox": [
439,
145,
41,
65
],
"iscrowd": 0
}, {
"id": 85,
"image_id": 41,
"category_id": 1,
"segmentation": null,
"area": 48509,
"bbox": [
594,
2,
179,
271
],
"iscrowd": 0
}, {
"id": 86,
"image_id": 41,
"category_id": 1,
"segmentation": null,
"area": 1026,
"bbox": [
768,
70,
19,
54
],
"iscrowd": 0
}, {
"id": 87,
"image_id": 54,
"category_id": 1,
"segmentation": null,
"area": 4845,
"bbox": [
826,
73,
51,
95
],
"iscrowd": 0
}, {
"id": 88,
"image_id": 54,
"category_id": 1,
"segmentation": null,
"area": 3956,
"bbox": [
671,
78,
46,
86
],
"iscrowd": 0
}, {
"id": 89,
"image_id": 54,
"category_id": 1,
"segmentation": null,
"area": 15696,
"bbox": [
373,
118,
109,
144
],
"iscrowd": 0
}, {
"id": 90,
"image_id": 54,
"category_id": 1,
"segmentation": null,
"area": 5310,
"bbox": [
707,
51,
45,
118
],
"iscrowd": 0
}, {
"id": 91,
"image_id": 54,
"category_id": 1,
"segmentation": null,
"area": 3458,
"bbox": [
788,
68,
38,
91
],
"iscrowd": 0
}, {
"id": 92,
"image_id": 54,
"category_id": 1,
"segmentation": null,
"area": 5624,
"bbox": [
218,
267,
74,
76
],
"iscrowd": 0
}, {
"id": 93,
"image_id": 54,
"category_id": 1,
"segmentation": null,
"area": 4800,
"bbox": [
75,
434,
75,
64
],
"iscrowd": 0
}, {
"id": 94,
"image_id": 54,
"category_id": 1,
"segmentation": null,
"area": 3825,
"bbox": [
345,
185,
51,
75
],
"iscrowd": 0
}, {
"id": 95,
"image_id": 150,
"category_id": 1,
"segmentation": null,
"area": 21609,
"bbox": [
258,
173,
147,
147
],
"iscrowd": 0
}, {
"id": 96,
"image_id": 150,
"category_id": 1,
"segmentation": null,
"area": 12876,
"bbox": [
198,
229,
111,
116
],
"iscrowd": 0
}, {
"id": 97,
"image_id": 150,
"category_id": 1,
"segmentation": null,
"area": 2584,
"bbox": [
888,
65,
34,
76
],
"iscrowd": 0
}, {
"id": 98,
"image_id": 146,
"category_id": 1,
"segmentation": null,
"area": 4459,
"bbox": [
631,
77,
49,
91
],
"iscrowd": 0
}, {
"id": 99,
"image_id": 108,
"category_id": 1,
"segmentation": null,
"area": 21038,
"bbox": [
320,
150,
134,
157
],
"iscrowd": 0
}, {
"id": 100,
"image_id": 108,
"category_id": 1,
"segmentation": null,
"area": 30240,
"bbox": [
204,
216,
168,
180
],
"iscrowd": 0
}, {
"id": 101,
"image_id": 155,
"category_id": 1,
"segmentation": null,
"area": 21812,
"bbox": [
219,
176,
133,
164
],
"iscrowd": 0
}, {
"id": 102,
"image_id": 5,
"category_id": 1,
"segmentation": null,
"area": 29896,
"bbox": [
331,
90,
148,
202
],
"iscrowd": 0
}, {
"id": 103,
"image_id": 87,
"category_id": 1,
"segmentation": null,
"area": 3735,
"bbox": [
462,
153,
45,
83
],
"iscrowd": 0
}, {
"id": 104,
"image_id": 15,
"category_id": 1,
"segmentation": null,
"area": 11036,
"bbox": [
66,
433,
124,
89
],
"iscrowd": 0
}, {
"id": 105,
"image_id": 166,
"category_id": 1,
"segmentation": null,
"area": 4428,
"bbox": [
453,
161,
54,
82
],
"iscrowd": 0
}, {
"id": 106,
"image_id": 99,
"category_id": 1,
"segmentation": null,
"area": 7668,
"bbox": [
335,
182,
71,
108
],
"iscrowd": 0
}, {
"id": 107,
"image_id": 99,
"category_id": 1,
"segmentation": null,
"area": 6820,
"bbox": [
382,
167,
62,
110
],
"iscrowd": 0
}, {
"id": 108,
"image_id": 101,
"category_id": 1,
"segmentation": null,
"area": 1380,
"bbox": [
929,
92,
23,
60
],
"iscrowd": 0
}, {
"id": 109,
"image_id": 101,
"category_id": 1,
"segmentation": null,
"area": 481,
"bbox": [
905,
97,
13,
37
],
"iscrowd": 0
}, {
"id": 110,
"image_id": 101,
"category_id": 1,
"segmentation": null,
"area": 4264,
"bbox": [
443,
133,
52,
82
],
"iscrowd": 0
}, {
"id": 111,
"image_id": 101,
"category_id": 1,
"segmentation": null,
"area": 6600,
"bbox": [
413,
138,
66,
100
],
"iscrowd": 0
}, {
"id": 112,
"image_id": 101,
"category_id": 1,
"segmentation": null,
"area": 3950,
"bbox": [
391,
159,
50,
79
],
"iscrowd": 0
}, {
"id": 113,
"image_id": 40,
"category_id": 1,
"segmentation": null,
"area": 60168,
"bbox": [
303,
53,
218,
276
],
"iscrowd": 0
}, {
"id": 114,
"image_id": 152,
"category_id": 1,
"segmentation": null,
"area": 14238,
"bbox": [
78,
338,
126,
113
],
"iscrowd": 0
}, {
"id": 115,
"image_id": 152,
"category_id": 1,
"segmentation": null,
"area": 27404,
"bbox": [
482,
29,
124,
221
],
"iscrowd": 0
}, {
"id": 116,
"image_id": 152,
"category_id": 1,
"segmentation": null,
"area": 2409,
"bbox": [
881,
66,
33,
73
],
"iscrowd": 0
}, {
"id": 117,
"image_id": 152,
"category_id": 1,
"segmentation": null,
"area": 2652,
"bbox": [
954,
85,
39,
68
],
"iscrowd": 0
}, {
"id": 118,
"image_id": 172,
"category_id": 1,
"segmentation": null,
"area": 19950,
"bbox": [
850,
29,
95,
210
],
"iscrowd": 0
}, {
"id": 119,
"image_id": 75,
"category_id": 1,
"segmentation": null,
"area": 4095,
"bbox": [
669,
63,
45,
91
],
"iscrowd": 0
}, {
"id": 120,
"image_id": 55,
"category_id": 1,
"segmentation": null,
"area": 1200,
"bbox": [
954,
104,
25,
48
],
"iscrowd": 0
}, {
"id": 121,
"image_id": 55,
"category_id": 1,
"segmentation": null,
"area": 4472,
"bbox": [
821,
53,
43,
104
],
"iscrowd": 0
}, {
"id": 122,
"image_id": 55,
"category_id": 1,
"segmentation": null,
"area": 1829,
"bbox": [
917,
89,
31,
59
],
"iscrowd": 0
}, {
"id": 123,
"image_id": 55,
"category_id": 1,
"segmentation": null,
"area": 4800,
"bbox": [
562,
85,
48,
100
],
"iscrowd": 0
}, {
"id": 124,
"image_id": 55,
"category_id": 1,
"segmentation": null,
"area": 2340,
"bbox": [
655,
77,
30,
78
],
"iscrowd": 0
}, {
"id": 125,
"image_id": 55,
"category_id": 1,
"segmentation": null,
"area": 1200,
"bbox": [
981,
113,
25,
48
],
"iscrowd": 0
}, {
"id": 126,
"image_id": 55,
"category_id": 1,
"segmentation": null,
"area": 12463,
"bbox": [
272,
199,
103,
121
],
"iscrowd": 0
}, {
"id": 127,
"image_id": 127,
"category_id": 1,
"segmentation": null,
"area": 10668,
"bbox": [
360,
136,
84,
127
],
"iscrowd": 0
}, {
"id": 128,
"image_id": 37,
"category_id": 1,
"segmentation": null,
"area": 105546,
"bbox": [
262,
29,
294,
359
],
"iscrowd": 0
}, {
"id": 129,
"image_id": 37,
"category_id": 1,
"segmentation": null,
"area": 58312,
"bbox": [
436,
6,
197,
296
],
"iscrowd": 0
}, {
"id": 130,
"image_id": 80,
"category_id": 1,
"segmentation": null,
"area": 16272,
"bbox": [
423,
105,
113,
144
],
"iscrowd": 0
}, {
"id": 131,
"image_id": 80,
"category_id": 1,
"segmentation": null,
"area": 21528,
"bbox": [
337,
141,
138,
156
],
"iscrowd": 0
}, {
"id": 132,
"image_id": 171,
"category_id": 1,
"segmentation": null,
"area": 18091,
"bbox": [
722,
15,
79,
229
],
"iscrowd": 0
}, {
"id": 133,
"image_id": 49,
"category_id": 1,
"segmentation": null,
"area": 28548,
"bbox": [
235,
155,
156,
183
],
"iscrowd": 0
}, {
"id": 134,
"image_id": 81,
"category_id": 1,
"segmentation": null,
"area": 3762,
"bbox": [
827,
53,
33,
114
],
"iscrowd": 0
}, {
"id": 135,
"image_id": 81,
"category_id": 1,
"segmentation": null,
"area": 3060,
"bbox": [
807,
59,
30,
102
],
"iscrowd": 0
}, {
"id": 136,
"image_id": 81,
"category_id": 1,
"segmentation": null,
"area": 3196,
"bbox": [
773,
59,
34,
94
],
"iscrowd": 0
}, {
"id": 137,
"image_id": 142,
"category_id": 1,
"segmentation": null,
"area": 5031,
"bbox": [
739,
53,
43,
117
],
"iscrowd": 0
}, {
"id": 138,
"image_id": 142,
"category_id": 1,
"segmentation": null,
"area": 3366,
"bbox": [
784,
62,
34,
99
],
"iscrowd": 0
}, {
"id": 139,
"image_id": 142,
"category_id": 1,
"segmentation": null,
"area": 2343,
"bbox": [
971,
96,
33,
71
],
"iscrowd": 0
}, {
"id": 140,
"image_id": 63,
"category_id": 1,
"segmentation": null,
"area": 2040,
"bbox": [
646,
72,
24,
85
],
"iscrowd": 0
}, {
"id": 141,
"image_id": 63,
"category_id": 1,
"segmentation": null,
"area": 1748,
"bbox": [
662,
79,
23,
76
],
"iscrowd": 0
}, {
"id": 142,
"image_id": 63,
"category_id": 1,
"segmentation": null,
"area": 1175,
"bbox": [
862,
82,
25,
47
],
"iscrowd": 0
}, {
"id": 143,
"image_id": 63,
"category_id": 1,
"segmentation": null,
"area": 780,
"bbox": [
905,
91,
20,
39
],
"iscrowd": 0
}, {
"id": 144,
"image_id": 138,
"category_id": 1,
"segmentation": null,
"area": 7896,
"bbox": [
993,
57,
56,
141
],
"iscrowd": 0
}, {
"id": 145,
"image_id": 82,
"category_id": 1,
"segmentation": null,
"area": 2537,
"bbox": [
424,
167,
43,
59
],
"iscrowd": 0
}, {
"id": 146,
"image_id": 82,
"category_id": 1,
"segmentation": null,
"area": 2440,
"bbox": [
403,
177,
40,
61
],
"iscrowd": 0
}, {
"id": 147,
"image_id": 82,
"category_id": 1,
"segmentation": null,
"area": 2106,
"bbox": [
375,
199,
39,
54
],
"iscrowd": 0
}, {
"id": 148,
"image_id": 136,
"category_id": 1,
"segmentation": null,
"area": 5035,
"bbox": [
499,
107,
53,
95
],
"iscrowd": 0
}, {
"id": 149,
"image_id": 136,
"category_id": 1,
"segmentation": null,
"area": 3440,
"bbox": [
540,
110,
43,
80
],
"iscrowd": 0
}, {
"id": 150,
"image_id": 136,
"category_id": 1,
"segmentation": null,
"area": 1296,
"bbox": [
775,
77,
24,
54
],
"iscrowd": 0
}, {
"id": 151,
"image_id": 88,
"category_id": 1,
"segmentation": null,
"area": 27666,
"bbox": [
113,
278,
174,
159
],
"iscrowd": 0
}, {
"id": 152,
"image_id": 9,
"category_id": 1,
"segmentation": null,
"area": 14529,
"bbox": [
991,
74,
87,
167
],
"iscrowd": 0
}, {
"id": 153,
"image_id": 78,
"category_id": 1,
"segmentation": null,
"area": 2720,
"bbox": [
733,
60,
32,
85
],
"iscrowd": 0
}, {
"id": 154,
"image_id": 78,
"category_id": 1,
"segmentation": null,
"area": 1100,
"bbox": [
932,
86,
22,
50
],
"iscrowd": 0
}, {
"id": 155,
"image_id": 78,
"category_id": 1,
"segmentation": null,
"area": 10165,
"bbox": [
134,
335,
107,
95
],
"iscrowd": 0
}, {
"id": 156,
"image_id": 159,
"category_id": 1,
"segmentation": null,
"area": 23707,
"bbox": [
204,
188,
151,
157
],
"iscrowd": 0
}, {
"id": 157,
"image_id": 159,
"category_id": 1,
"segmentation": null,
"area": 22704,
"bbox": [
307,
111,
132,
172
],
"iscrowd": 0
}, {
"id": 158,
"image_id": 159,
"category_id": 1,
"segmentation": null,
"area": 23643,
"bbox": [
458,
19,
111,
213
],
"iscrowd": 0
}, {
"id": 159,
"image_id": 159,
"category_id": 1,
"segmentation": null,
"area": 13193,
"bbox": [
598,
25,
79,
167
],
"iscrowd": 0
}, {
"id": 160,
"image_id": 159,
"category_id": 1,
"segmentation": null,
"area": 3267,
"bbox": [
858,
51,
33,
99
],
"iscrowd": 0
}, {
"id": 161,
"image_id": 159,
"category_id": 1,
"segmentation": null,
"area": 2880,
"bbox": [
954,
76,
36,
80
],
"iscrowd": 0
}, {
"id": 162,
"image_id": 20,
"category_id": 1,
"segmentation": null,
"area": 8362,
"bbox": [
385,
145,
74,
113
],
"iscrowd": 0
}, {
"id": 163,
"image_id": 83,
"category_id": 1,
"segmentation": null,
"area": 13320,
"bbox": [
266,
209,
111,
120
],
"iscrowd": 0
}, {
"id": 164,
"image_id": 161,
"category_id": 1,
"segmentation": null,
"area": 5805,
"bbox": [
679,
53,
45,
129
],
"iscrowd": 0
}, {
"id": 165,
"image_id": 161,
"category_id": 1,
"segmentation": null,
"area": 3080,
"bbox": [
787,
56,
40,
77
],
"iscrowd": 0
}, {
"id": 166,
"image_id": 161,
"category_id": 1,
"segmentation": null,
"area": 23318,
"bbox": [
402,
85,
131,
178
],
"iscrowd": 0
}, {
"id": 167,
"image_id": 161,
"category_id": 1,
"segmentation": null,
"area": 15707,
"bbox": [
292,
173,
113,
139
],
"iscrowd": 0
}, {
"id": 168,
"image_id": 161,
"category_id": 1,
"segmentation": null,
"area": 11330,
"bbox": [
198,
255,
103,
110
],
"iscrowd": 0
}, {
"id": 169,
"image_id": 161,
"category_id": 1,
"segmentation": null,
"area": 5950,
"bbox": [
148,
329,
85,
70
],
"iscrowd": 0
}, {
"id": 170,
"image_id": 161,
"category_id": 1,
"segmentation": null,
"area": 4550,
"bbox": [
114,
377,
65,
70
],
"iscrowd": 0
}, {
"id": 171,
"image_id": 39,
"category_id": 1,
"segmentation": null,
"area": 20572,
"bbox": [
105,
304,
148,
139
],
"iscrowd": 0
}, {
"id": 172,
"image_id": 167,
"category_id": 1,
"segmentation": null,
"area": 37904,
"bbox": [
69,
320,
206,
184
],
"iscrowd": 0
}, {
"id": 173,
"image_id": 35,
"category_id": 1,
"segmentation": null,
"area": 6785,
"bbox": [
879,
68,
59,
115
],
"iscrowd": 0
}, {
"id": 174,
"image_id": 35,
"category_id": 1,
"segmentation": null,
"area": 5428,
"bbox": [
860,
57,
46,
118
],
"iscrowd": 0
}, {
"id": 175,
"image_id": 47,
"category_id": 1,
"segmentation": null,
"area": 18908,
"bbox": [
960,
63,
116,
163
],
"iscrowd": 0
}, {
"id": 176,
"image_id": 119,
"category_id": 1,
"segmentation": null,
"area": 33948,
"bbox": [
897,
9,
138,
246
],
"iscrowd": 0
}, {
"id": 177,
"image_id": 102,
"category_id": 1,
"segmentation": null,
"area": 50596,
"bbox": [
430,
6,
182,
278
],
"iscrowd": 0
}, {
"id": 178,
"image_id": 79,
"category_id": 1,
"segmentation": null,
"area": 2448,
"bbox": [
816,
68,
36,
68
],
"iscrowd": 0
}, {
"id": 179,
"image_id": 79,
"category_id": 1,
"segmentation": null,
"area": 1012,
"bbox": [
962,
99,
22,
46
],
"iscrowd": 0
}, {
"id": 180,
"image_id": 79,
"category_id": 1,
"segmentation": null,
"area": 14478,
"bbox": [
246,
213,
114,
127
],
"iscrowd": 0
}, {
"id": 181,
"image_id": 154,
"category_id": 1,
"segmentation": null,
"area": 14400,
"bbox": [
488,
53,
90,
160
],
"iscrowd": 0
}, {
"id": 182,
"image_id": 154,
"category_id": 1,
"segmentation": null,
"area": 1620,
"bbox": [
974,
91,
27,
60
],
"iscrowd": 0
}, {
"id": 183,
"image_id": 154,
"category_id": 1,
"segmentation": null,
"area": 1416,
"bbox": [
953,
85,
24,
59
],
"iscrowd": 0
}, {
"id": 184,
"image_id": 140,
"category_id": 1,
"segmentation": null,
"area": 25181,
"bbox": [
258,
168,
169,
149
],
"iscrowd": 0
}, {
"id": 185,
"image_id": 51,
"category_id": 1,
"segmentation": null,
"area": 9483,
"bbox": [
454,
127,
87,
109
],
"iscrowd": 0
}, {
"id": 186,
"image_id": 50,
"category_id": 1,
"segmentation": null,
"area": 21449,
"bbox": [
660,
0,
89,
241
],
"iscrowd": 0
}, {
"id": 187,
"image_id": 50,
"category_id": 1,
"segmentation": null,
"area": 91126,
"bbox": [
89,
182,
322,
283
],
"iscrowd": 0
}, {
"id": 188,
"image_id": 173,
"category_id": 1,
"segmentation": null,
"area": 14839,
"bbox": [
846,
17,
71,
209
],
"iscrowd": 0
}, {
"id": 189,
"image_id": 32,
"category_id": 1,
"segmentation": null,
"area": 1988,
"bbox": [
768,
73,
28,
71
],
"iscrowd": 0
}, {
"id": 190,
"image_id": 32,
"category_id": 1,
"segmentation": null,
"area": 1711,
"bbox": [
716,
84,
29,
59
],
"iscrowd": 0
}, {
"id": 191,
"image_id": 90,
"category_id": 1,
"segmentation": null,
"area": 15080,
"bbox": [
269,
205,
116,
130
],
"iscrowd": 0
}, {
"id": 192,
"image_id": 90,
"category_id": 1,
"segmentation": null,
"area": 5200,
"bbox": [
383,
161,
65,
80
],
"iscrowd": 0
}, {
"id": 193,
"image_id": 90,
"category_id": 1,
"segmentation": null,
"area": 893,
"bbox": [
909,
87,
19,
47
],
"iscrowd": 0
}, {
"id": 194,
"image_id": 158,
"category_id": 1,
"segmentation": null,
"area": 18078,
"bbox": [
165,
227,
138,
131
],
"iscrowd": 0
}, {
"id": 195,
"image_id": 158,
"category_id": 1,
"segmentation": null,
"area": 21150,
"bbox": [
241,
156,
141,
150
],
"iscrowd": 0
}, {
"id": 196,
"image_id": 158,
"category_id": 1,
"segmentation": null,
"area": 33300,
"bbox": [
366,
51,
150,
222
],
"iscrowd": 0
}, {
"id": 197,
"image_id": 158,
"category_id": 1,
"segmentation": null,
"area": 20580,
"bbox": [
530,
14,
98,
210
],
"iscrowd": 0
}, {
"id": 198,
"image_id": 158,
"category_id": 1,
"segmentation": null,
"area": 6760,
"bbox": [
738,
23,
52,
130
],
"iscrowd": 0
}, {
"id": 199,
"image_id": 105,
"category_id": 1,
"segmentation": null,
"area": 8236,
"bbox": [
527,
63,
71,
116
],
"iscrowd": 0
}, {
"id": 200,
"image_id": 117,
"category_id": 1,
"segmentation": null,
"area": 1800,
"bbox": [
671,
84,
25,
72
],
"iscrowd": 0
}, {
"id": 201,
"image_id": 117,
"category_id": 1,
"segmentation": null,
"area": 2940,
"bbox": [
841,
61,
28,
105
],
"iscrowd": 0
}, {
"id": 202,
"image_id": 117,
"category_id": 1,
"segmentation": null,
"area": 3026,
"bbox": [
740,
65,
34,
89
],
"iscrowd": 0
}, {
"id": 203,
"image_id": 162,
"category_id": 1,
"segmentation": null,
"area": 7216,
"bbox": [
193,
286,
82,
88
],
"iscrowd": 0
}, {
"id": 204,
"image_id": 162,
"category_id": 1,
"segmentation": null,
"area": 9951,
"bbox": [
283,
199,
93,
107
],
"iscrowd": 0
}, {
"id": 205,
"image_id": 162,
"category_id": 1,
"segmentation": null,
"area": 12994,
"bbox": [
423,
100,
89,
146
],
"iscrowd": 0
}, {
"id": 206,
"image_id": 162,
"category_id": 1,
"segmentation": null,
"area": 10430,
"bbox": [
581,
60,
70,
149
],
"iscrowd": 0
}, {
"id": 207,
"image_id": 162,
"category_id": 1,
"segmentation": null,
"area": 8316,
"bbox": [
719,
34,
54,
154
],
"iscrowd": 0
}, {
"id": 208,
"image_id": 162,
"category_id": 1,
"segmentation": null,
"area": 4018,
"bbox": [
833,
57,
41,
98
],
"iscrowd": 0
}, {
"id": 209,
"image_id": 164,
"category_id": 1,
"segmentation": null,
"area": 27370,
"bbox": [
174,
241,
161,
170
],
"iscrowd": 0
}, {
"id": 210,
"image_id": 12,
"category_id": 1,
"segmentation": null,
"area": 27250,
"bbox": [
541,
37,
125,
218
],
"iscrowd": 0
}, {
"id": 211,
"image_id": 77,
"category_id": 1,
"segmentation": null,
"area": 4087,
"bbox": [
164,
329,
61,
67
],
"iscrowd": 0
}, {
"id": 212,
"image_id": 77,
"category_id": 1,
"segmentation": null,
"area": 3870,
"bbox": [
671,
74,
43,
90
],
"iscrowd": 0
}, {
"id": 213,
"image_id": 93,
"category_id": 1,
"segmentation": null,
"area": 2960,
"bbox": [
671,
85,
40,
74
],
"iscrowd": 0
}, {
"id": 214,
"image_id": 132,
"category_id": 1,
"segmentation": null,
"area": 11300,
"bbox": [
385,
133,
100,
113
],
"iscrowd": 0
}, {
"id": 215,
"image_id": 111,
"category_id": 1,
"segmentation": null,
"area": 12540,
"bbox": [
210,
239,
114,
110
],
"iscrowd": 0
}, {
"id": 216,
"image_id": 30,
"category_id": 1,
"segmentation": null,
"area": 3060,
"bbox": [
448,
146,
45,
68
],
"iscrowd": 0
}, {
"id": 217,
"image_id": 30,
"category_id": 1,
"segmentation": null,
"area": 4928,
"bbox": [
342,
173,
56,
88
],
"iscrowd": 0
}, {
"id": 218,
"image_id": 168,
"category_id": 1,
"segmentation": null,
"area": 27263,
"bbox": [
416,
59,
137,
199
],
"iscrowd": 0
}, {
"id": 219,
"image_id": 133,
"category_id": 1,
"segmentation": null,
"area": 11211,
"bbox": [
304,
175,
101,
111
],
"iscrowd": 0
}, {
"id": 220,
"image_id": 123,
"category_id": 1,
"segmentation": null,
"area": 3784,
"bbox": [
654,
76,
43,
88
],
"iscrowd": 0
}, {
"id": 221,
"image_id": 143,
"category_id": 1,
"segmentation": null,
"area": 8148,
"bbox": [
366,
161,
84,
97
],
"iscrowd": 0
}, {
"id": 222,
"image_id": 143,
"category_id": 1,
"segmentation": null,
"area": 15458,
"bbox": [
219,
226,
118,
131
],
"iscrowd": 0
}, {
"id": 223,
"image_id": 143,
"category_id": 1,
"segmentation": null,
"area": 8662,
"bbox": [
563,
82,
71,
122
],
"iscrowd": 0
}, {
"id": 224,
"image_id": 151,
"category_id": 1,
"segmentation": null,
"area": 31110,
"bbox": [
227,
158,
170,
183
],
"iscrowd": 0
}, {
"id": 225,
"image_id": 151,
"category_id": 1,
"segmentation": null,
"area": 9672,
"bbox": [
80,
375,
104,
93
],
"iscrowd": 0
}, {
"id": 226,
"image_id": 151,
"category_id": 1,
"segmentation": null,
"area": 2343,
"bbox": [
937,
79,
33,
71
],
"iscrowd": 0
}, {
"id": 227,
"image_id": 151,
"category_id": 1,
"segmentation": null,
"area": 2117,
"bbox": [
888,
65,
29,
73
],
"iscrowd": 0
}, {
"id": 228,
"image_id": 24,
"category_id": 1,
"segmentation": null,
"area": 1127,
"bbox": [
600,
108,
23,
49
],
"iscrowd": 0
}, {
"id": 229,
"image_id": 24,
"category_id": 1,
"segmentation": null,
"area": 1173,
"bbox": [
730,
88,
23,
51
],
"iscrowd": 0
}, {
"id": 230,
"image_id": 24,
"category_id": 1,
"segmentation": null,
"area": 1456,
"bbox": [
819,
82,
26,
56
],
"iscrowd": 0
}, {
"id": 231,
"image_id": 24,
"category_id": 1,
"segmentation": null,
"area": 1276,
"bbox": [
797,
81,
22,
58
],
"iscrowd": 0
}, {
"id": 232,
"image_id": 67,
"category_id": 1,
"segmentation": null,
"area": 15750,
"bbox": [
462,
93,
105,
150
],
"iscrowd": 0
}, {
"id": 233,
"image_id": 98,
"category_id": 1,
"segmentation": null,
"area": 32308,
"bbox": [
267,
151,
164,
197
],
"iscrowd": 0
}, {
"id": 234,
"image_id": 68,
"category_id": 1,
"segmentation": null,
"area": 4368,
"bbox": [
543,
105,
48,
91
],
"iscrowd": 0
}, {
"id": 235,
"image_id": 110,
"category_id": 1,
"segmentation": null,
"area": 8262,
"bbox": [
920,
40,
54,
153
],
"iscrowd": 0
}, {
"id": 236,
"image_id": 110,
"category_id": 1,
"segmentation": null,
"area": 6213,
"bbox": [
832,
42,
57,
109
],
"iscrowd": 0
}, {
"id": 237,
"image_id": 72,
"category_id": 1,
"segmentation": null,
"area": 6080,
"bbox": [
403,
138,
76,
80
],
"iscrowd": 0
}, {
"id": 238,
"image_id": 34,
"category_id": 1,
"segmentation": null,
"area": 16468,
"bbox": [
502,
76,
92,
179
],
"iscrowd": 0
}, {
"id": 239,
"image_id": 59,
"category_id": 1,
"segmentation": null,
"area": 16335,
"bbox": [
461,
76,
99,
165
],
"iscrowd": 0
}, {
"id": 240,
"image_id": 141,
"category_id": 1,
"segmentation": null,
"area": 4320,
"bbox": [
892,
68,
48,
90
],
"iscrowd": 0
}, {
"id": 241,
"image_id": 141,
"category_id": 1,
"segmentation": null,
"area": 7872,
"bbox": [
264,
227,
82,
96
],
"iscrowd": 0
}, {
"id": 242,
"image_id": 141,
"category_id": 1,
"segmentation": null,
"area": 7371,
"bbox": [
239,
246,
81,
91
],
"iscrowd": 0
}, {
"id": 243,
"image_id": 52,
"category_id": 1,
"segmentation": null,
"area": 5624,
"bbox": [
167,
324,
74,
76
],
"iscrowd": 0
}, {
"id": 244,
"image_id": 148,
"category_id": 1,
"segmentation": null,
"area": 19104,
"bbox": [
544,
17,
96,
199
],
"iscrowd": 0
}, {
"id": 245,
"image_id": 148,
"category_id": 1,
"segmentation": null,
"area": 9568,
"bbox": [
249,
205,
92,
104
],
"iscrowd": 0
}, {
"id": 246,
"image_id": 148,
"category_id": 1,
"segmentation": null,
"area": 5655,
"bbox": [
77,
428,
87,
65
],
"iscrowd": 0
}, {
"id": 247,
"image_id": 56,
"category_id": 1,
"segmentation": null,
"area": 29274,
"bbox": [
591,
5,
102,
287
],
"iscrowd": 0
}, {
"id": 248,
"image_id": 56,
"category_id": 1,
"segmentation": null,
"area": 20418,
"bbox": [
730,
3,
82,
249
],
"iscrowd": 0
}, {
"id": 249,
"image_id": 56,
"category_id": 1,
"segmentation": null,
"area": 17810,
"bbox": [
677,
6,
65,
274
],
"iscrowd": 0
}, {
"id": 250,
"image_id": 85,
"category_id": 1,
"segmentation": null,
"area": 10286,
"bbox": [
773,
31,
74,
139
],
"iscrowd": 0
}, {
"id": 251,
"image_id": 53,
"category_id": 1,
"segmentation": null,
"area": 3332,
"bbox": [
549,
125,
49,
68
],
"iscrowd": 0
}, {
"id": 252,
"image_id": 84,
"category_id": 1,
"segmentation": null,
"area": 8584,
"bbox": [
560,
68,
58,
148
],
"iscrowd": 0
}, {
"id": 253,
"image_id": 84,
"category_id": 1,
"segmentation": null,
"area": 5936,
"bbox": [
521,
90,
53,
112
],
"iscrowd": 0
}, {
"id": 254,
"image_id": 16,
"category_id": 1,
"segmentation": null,
"area": 37011,
"bbox": [
420,
79,
169,
219
],
"iscrowd": 0
}, {
"id": 255,
"image_id": 46,
"category_id": 1,
"segmentation": null,
"area": 28896,
"bbox": [
790,
3,
112,
258
],
"iscrowd": 0
}, {
"id": 256,
"image_id": 104,
"category_id": 1,
"segmentation": null,
"area": 18643,
"bbox": [
471,
54,
103,
181
],
"iscrowd": 0
}, {
"id": 257,
"image_id": 104,
"category_id": 1,
"segmentation": null,
"area": 8201,
"bbox": [
940,
42,
59,
139
],
"iscrowd": 0
}, {
"id": 258,
"image_id": 104,
"category_id": 1,
"segmentation": null,
"area": 2325,
"bbox": [
891,
59,
31,
75
],
"iscrowd": 0
}, {
"id": 259,
"image_id": 104,
"category_id": 1,
"segmentation": null,
"area": 3570,
"bbox": [
860,
70,
42,
85
],
"iscrowd": 0
}, {
"id": 260,
"image_id": 112,
"category_id": 1,
"segmentation": null,
"area": 4277,
"bbox": [
786,
60,
47,
91
],
"iscrowd": 0
}, {
"id": 261,
"image_id": 57,
"category_id": 1,
"segmentation": null,
"area": 7350,
"bbox": [
360,
167,
70,
105
],
"iscrowd": 0
}, {
"id": 262,
"image_id": 113,
"category_id": 1,
"segmentation": null,
"area": 6399,
"bbox": [
179,
277,
79,
81
],
"iscrowd": 0
}, {
"id": 263,
"image_id": 113,
"category_id": 1,
"segmentation": null,
"area": 6557,
"bbox": [
130,
337,
83,
79
],
"iscrowd": 0
}, {
"id": 264,
"image_id": 113,
"category_id": 1,
"segmentation": null,
"area": 8888,
"bbox": [
72,
388,
101,
88
],
"iscrowd": 0
}, {
"id": 265,
"image_id": 144,
"category_id": 1,
"segmentation": null,
"area": 11050,
"bbox": [
484,
99,
85,
130
],
"iscrowd": 0
}, {
"id": 266,
"image_id": 100,
"category_id": 1,
"segmentation": null,
"area": 7923,
"bbox": [
512,
60,
57,
139
],
"iscrowd": 0
}, {
"id": 267,
"image_id": 100,
"category_id": 1,
"segmentation": null,
"area": 12546,
"bbox": [
577,
65,
82,
153
],
"iscrowd": 0
}, {
"id": 268,
"image_id": 48,
"category_id": 1,
"segmentation": null,
"area": 12008,
"bbox": [
566,
49,
76,
158
],
"iscrowd": 0
}, {
"id": 269,
"image_id": 13,
"category_id": 1,
"segmentation": null,
"area": 17680,
"bbox": [
854,
9,
80,
221
],
"iscrowd": 0
}, {
"id": 270,
"image_id": 92,
"category_id": 1,
"segmentation": null,
"area": 7579,
"bbox": [
937,
56,
53,
143
],
"iscrowd": 0
}, {
"id": 271,
"image_id": 45,
"category_id": 1,
"segmentation": null,
"area": 920,
"bbox": [
831,
87,
20,
46
],
"iscrowd": 0
}, {
"id": 272,
"image_id": 45,
"category_id": 1,
"segmentation": null,
"area": 65813,
"bbox": [
380,
8,
193,
341
],
"iscrowd": 0
}, {
"id": 273,
"image_id": 19,
"category_id": 1,
"segmentation": null,
"area": 16926,
"bbox": [
775,
3,
93,
182
],
"iscrowd": 0
}, {
"id": 274,
"image_id": 156,
"category_id": 1,
"segmentation": null,
"area": 29028,
"bbox": [
287,
113,
164,
177
],
"iscrowd": 0
}, {
"id": 275,
"image_id": 156,
"category_id": 1,
"segmentation": null,
"area": 6650,
"bbox": [
734,
23,
50,
133
],
"iscrowd": 0
}, {
"id": 276,
"image_id": 156,
"category_id": 1,
"segmentation": null,
"area": 4371,
"bbox": [
912,
57,
47,
93
],
"iscrowd": 0
}, {
"id": 277,
"image_id": 125,
"category_id": 1,
"segmentation": null,
"area": 6384,
"bbox": [
768,
34,
48,
133
],
"iscrowd": 0
}, {
"id": 278,
"image_id": 129,
"category_id": 1,
"segmentation": null,
"area": 11160,
"bbox": [
428,
102,
93,
120
],
"iscrowd": 0
}, {
"id": 279,
"image_id": 17,
"category_id": 1,
"segmentation": null,
"area": 11277,
"bbox": [
792,
36,
63,
179
],
"iscrowd": 0
}, {
"id": 280,
"image_id": 139,
"category_id": 1,
"segmentation": null,
"area": 11590,
"bbox": [
270,
195,
95,
122
],
"iscrowd": 0
}, {
"id": 281,
"image_id": 139,
"category_id": 1,
"segmentation": null,
"area": 8736,
"bbox": [
85,
385,
96,
91
],
"iscrowd": 0
}, {
"id": 282,
"image_id": 60,
"category_id": 1,
"segmentation": null,
"area": 11440,
"bbox": [
219,
230,
110,
104
],
"iscrowd": 0
}, {
"id": 283,
"image_id": 130,
"category_id": 1,
"segmentation": null,
"area": 7905,
"bbox": [
289,
202,
85,
93
],
"iscrowd": 0
}, {
"id": 284,
"image_id": 128,
"category_id": 1,
"segmentation": null,
"area": 6512,
"bbox": [
351,
170,
74,
88
],
"iscrowd": 0
}, {
"id": 285,
"image_id": 128,
"category_id": 1,
"segmentation": null,
"area": 4615,
"bbox": [
277,
227,
71,
65
],
"iscrowd": 0
}, {
"id": 286,
"image_id": 89,
"category_id": 1,
"segmentation": null,
"area": 13725,
"bbox": [
816,
22,
75,
183
],
"iscrowd": 0
}, {
"id": 287,
"image_id": 89,
"category_id": 1,
"segmentation": null,
"area": 2808,
"bbox": [
691,
63,
36,
78
],
"iscrowd": 0
}, {
"id": 288,
"image_id": 153,
"category_id": 1,
"segmentation": null,
"area": 10094,
"bbox": [
122,
324,
103,
98
],
"iscrowd": 0
}, {
"id": 289,
"image_id": 153,
"category_id": 1,
"segmentation": null,
"area": 9798,
"bbox": [
711,
32,
71,
138
],
"iscrowd": 0
}, {
"id": 290,
"image_id": 153,
"category_id": 1,
"segmentation": null,
"area": 1820,
"bbox": [
900,
71,
28,
65
],
"iscrowd": 0
}, {
"id": 291,
"image_id": 153,
"category_id": 1,
"segmentation": null,
"area": 1479,
"bbox": [
982,
100,
29,
51
],
"iscrowd": 0
}, {
"id": 292,
"image_id": 73,
"category_id": 1,
"segmentation": null,
"area": 1596,
"bbox": [
727,
90,
28,
57
],
"iscrowd": 0
}, {
"id": 293,
"image_id": 73,
"category_id": 1,
"segmentation": null,
"area": 1425,
"bbox": [
629,
99,
25,
57
],
"iscrowd": 0
}, {
"id": 294,
"image_id": 73,
"category_id": 1,
"segmentation": null,
"area": 2275,
"bbox": [
604,
96,
35,
65
],
"iscrowd": 0
}, {
"id": 295,
"image_id": 73,
"category_id": 1,
"segmentation": null,
"area": 1716,
"bbox": [
233,
290,
44,
39
],
"iscrowd": 0
}, {
"id": 296,
"image_id": 73,
"category_id": 1,
"segmentation": null,
"area": 4032,
"bbox": [
202,
303,
64,
63
],
"iscrowd": 0
}, {
"id": 297,
"image_id": 120,
"category_id": 1,
"segmentation": null,
"area": 4845,
"bbox": [
487,
122,
57,
85
],
"iscrowd": 0
}, {
"id": 298,
"image_id": 103,
"category_id": 1,
"segmentation": null,
"area": 8364,
"bbox": [
885,
23,
51,
164
],
"iscrowd": 0
}, {
"id": 299,
"image_id": 103,
"category_id": 1,
"segmentation": null,
"area": 40796,
"bbox": [
55,
283,
217,
188
],
"iscrowd": 0
}, {
"id": 300,
"image_id": 103,
"category_id": 1,
"segmentation": null,
"area": 12285,
"bbox": [
241,
222,
91,
135
],
"iscrowd": 0
}, {
"id": 301,
"image_id": 103,
"category_id": 1,
"segmentation": null,
"area": 17289,
"bbox": [
269,
161,
113,
153
],
"iscrowd": 0
}, {
"id": 302,
"image_id": 115,
"category_id": 1,
"segmentation": null,
"area": 15824,
"bbox": [
475,
66,
92,
172
],
"iscrowd": 0
}, {
"id": 303,
"image_id": 115,
"category_id": 1,
"segmentation": null,
"area": 4326,
"bbox": [
813,
39,
42,
103
],
"iscrowd": 0
}, {
"id": 304,
"image_id": 115,
"category_id": 1,
"segmentation": null,
"area": 4515,
"bbox": [
852,
46,
43,
105
],
"iscrowd": 0
}, {
"id": 305,
"image_id": 115,
"category_id": 1,
"segmentation": null,
"area": 13923,
"bbox": [
187,
227,
117,
119
],
"iscrowd": 0
}, {
"id": 306,
"image_id": 115,
"category_id": 1,
"segmentation": null,
"area": 13688,
"bbox": [
168,
256,
118,
116
],
"iscrowd": 0
}, {
"id": 307,
"image_id": 58,
"category_id": 1,
"segmentation": null,
"area": 9750,
"bbox": [
813,
42,
78,
125
],
"iscrowd": 0
}, {
"id": 308,
"image_id": 106,
"category_id": 1,
"segmentation": null,
"area": 5117,
"bbox": [
651,
60,
43,
119
],
"iscrowd": 0
}, {
"id": 309,
"image_id": 106,
"category_id": 1,
"segmentation": null,
"area": 2596,
"bbox": [
523,
131,
44,
59
],
"iscrowd": 0
}, {
"id": 310,
"image_id": 106,
"category_id": 1,
"segmentation": null,
"area": 4260,
"bbox": [
371,
167,
60,
71
],
"iscrowd": 0
}, {
"id": 311,
"image_id": 91,
"category_id": 1,
"segmentation": null,
"area": 25308,
"bbox": [
48,
374,
171,
148
],
"iscrowd": 0
}, {
"id": 312,
"image_id": 36,
"category_id": 1,
"segmentation": null,
"area": 3825,
"bbox": [
962,
88,
45,
85
],
"iscrowd": 0
}, {
"id": 313,
"image_id": 36,
"category_id": 1,
"segmentation": null,
"area": 3078,
"bbox": [
990,
100,
38,
81
],
"iscrowd": 0
}, {
"id": 314,
"image_id": 22,
"category_id": 1,
"segmentation": null,
"area": 6399,
"bbox": [
256,
233,
79,
81
],
"iscrowd": 0
}, {
"id": 315,
"image_id": 22,
"category_id": 1,
"segmentation": null,
"area": 5964,
"bbox": [
184,
301,
71,
84
],
"iscrowd": 0
}, {
"id": 316,
"image_id": 157,
"category_id": 1,
"segmentation": null,
"area": 28750,
"bbox": [
498,
8,
125,
230
],
"iscrowd": 0
}, {
"id": 317,
"image_id": 157,
"category_id": 1,
"segmentation": null,
"area": 15908,
"bbox": [
614,
11,
82,
194
],
"iscrowd": 0
}, {
"id": 318,
"image_id": 157,
"category_id": 1,
"segmentation": null,
"area": 12874,
"bbox": [
722,
5,
82,
157
],
"iscrowd": 0
}, {
"id": 319,
"image_id": 157,
"category_id": 1,
"segmentation": null,
"area": 9295,
"bbox": [
815,
19,
65,
143
],
"iscrowd": 0
}, {
"id": 320,
"image_id": 44,
"category_id": 1,
"segmentation": null,
"area": 56862,
"bbox": [
114,
238,
234,
243
],
"iscrowd": 0
}, {
"id": 321,
"image_id": 44,
"category_id": 1,
"segmentation": null,
"area": 1080,
"bbox": [
783,
85,
20,
54
],
"iscrowd": 0
}, {
"id": 322,
"image_id": 61,
"category_id": 1,
"segmentation": null,
"area": 86658,
"bbox": [
0,
343,
303,
286
],
"iscrowd": 0
}, {
"id": 323,
"image_id": 145,
"category_id": 1,
"segmentation": null,
"area": 27370,
"bbox": [
360,
105,
161,
170
],
"iscrowd": 0
}, {
"id": 324,
"image_id": 145,
"category_id": 1,
"segmentation": null,
"area": 3204,
"bbox": [
753,
62,
36,
89
],
"iscrowd": 0
}, {
"id": 325,
"image_id": 33,
"category_id": 1,
"segmentation": null,
"area": 13837,
"bbox": [
357,
135,
101,
137
],
"iscrowd": 0
}, {
"id": 326,
"image_id": 86,
"category_id": 1,
"segmentation": null,
"area": 19630,
"bbox": [
256,
167,
130,
151
],
"iscrowd": 0
}, {
"id": 327,
"image_id": 66,
"category_id": 1,
"segmentation": null,
"area": 10605,
"bbox": [
139,
329,
105,
101
],
"iscrowd": 0
}, {
"id": 328,
"image_id": 96,
"category_id": 1,
"segmentation": null,
"area": 28674,
"bbox": [
855,
3,
118,
243
],
"iscrowd": 0
}, {
"id": 329,
"image_id": 163,
"category_id": 1,
"segmentation": null,
"area": 9486,
"bbox": [
256,
188,
93,
102
],
"iscrowd": 0
}, {
"id": 330,
"image_id": 163,
"category_id": 1,
"segmentation": null,
"area": 54050,
"bbox": [
119,
184,
235,
230
],
"iscrowd": 0
}, {
"id": 331,
"image_id": 160,
"category_id": 1,
"segmentation": null,
"area": 22385,
"bbox": [
417,
65,
121,
185
],
"iscrowd": 0
}, {
"id": 332,
"image_id": 160,
"category_id": 1,
"segmentation": null,
"area": 1650,
"bbox": [
943,
76,
25,
66
],
"iscrowd": 0
}, {
"id": 333,
"image_id": 69,
"category_id": 1,
"segmentation": null,
"area": 3337,
"bbox": [
366,
187,
47,
71
],
"iscrowd": 0
}, {
"id": 334,
"image_id": 69,
"category_id": 1,
"segmentation": null,
"area": 2000,
"bbox": [
340,
215,
40,
50
],
"iscrowd": 0
}, {
"id": 335,
"image_id": 69,
"category_id": 1,
"segmentation": null,
"area": 3016,
"bbox": [
291,
231,
52,
58
],
"iscrowd": 0
}, {
"id": 336,
"image_id": 69,
"category_id": 1,
"segmentation": null,
"area": 1755,
"bbox": [
231,
290,
39,
45
],
"iscrowd": 0
}, {
"id": 337,
"image_id": 69,
"category_id": 1,
"segmentation": null,
"area": 2205,
"bbox": [
259,
255,
49,
45
],
"iscrowd": 0
}, {
"id": 338,
"image_id": 69,
"category_id": 1,
"segmentation": null,
"area": 2601,
"bbox": [
186,
326,
51,
51
],
"iscrowd": 0
}, {
"id": 339,
"image_id": 69,
"category_id": 1,
"segmentation": null,
"area": 1794,
"bbox": [
130,
397,
46,
39
],
"iscrowd": 0
}, {
"id": 340,
"image_id": 165,
"category_id": 1,
"segmentation": null,
"area": 3990,
"bbox": [
142,
349,
70,
57
],
"iscrowd": 0
}, {
"id": 341,
"image_id": 165,
"category_id": 1,
"segmentation": null,
"area": 9416,
"bbox": [
430,
122,
88,
107
],
"iscrowd": 0
}, {
"id": 342,
"image_id": 74,
"category_id": 1,
"segmentation": null,
"area": 9408,
"bbox": [
389,
151,
84,
112
],
"iscrowd": 0
}, {
"id": 343,
"image_id": 121,
"category_id": 1,
"segmentation": null,
"area": 4500,
"bbox": [
564,
91,
50,
90
],
"iscrowd": 0
}, {
"id": 344,
"image_id": 121,
"category_id": 1,
"segmentation": null,
"area": 6392,
"bbox": [
301,
201,
68,
94
],
"iscrowd": 0
}, {
"id": 345,
"image_id": 97,
"category_id": 1,
"segmentation": null,
"area": 103500,
"bbox": [
41,
250,
300,
345
],
"iscrowd": 0
}, {
"id": 346,
"image_id": 175,
"category_id": 1,
"segmentation": null,
"area": 7645,
"bbox": [
700,
26,
55,
139
],
"iscrowd": 0
}, {
"id": 347,
"image_id": 175,
"category_id": 1,
"segmentation": null,
"area": 2844,
"bbox": [
745,
60,
36,
79
],
"iscrowd": 0
}, {
"id": 348,
"image_id": 62,
"category_id": 1,
"segmentation": null,
"area": 34104,
"bbox": [
130,
272,
174,
196
],
"iscrowd": 0
}, {
"id": 349,
"image_id": 174,
"category_id": 1,
"segmentation": null,
"area": 4884,
"bbox": [
354,
181,
66,
74
],
"iscrowd": 0
}, {
"id": 350,
"image_id": 14,
"category_id": 1,
"segmentation": null,
"area": 36414,
"bbox": [
456,
14,
153,
238
],
"iscrowd": 0
}, {
"id": 351,
"image_id": 122,
"category_id": 1,
"segmentation": null,
"area": 6083,
"bbox": [
235,
250,
77,
79
],
"iscrowd": 0
}, {
"id": 352,
"image_id": 71,
"category_id": 1,
"segmentation": null,
"area": 3234,
"bbox": [
583,
99,
42,
77
],
"iscrowd": 0
}]}