0 0.21835937500000002 0.333125 0.11796875000000001 0.19625 
0 0.29140625000000003 0.24625 0.10312500000000001 0.215 
0 0.401171875 0.15687500000000001 0.08671875000000001 0.26625 
0 0.498046875 0.135625 0.06171875 0.20875 
0 0.683203125 0.12562500000000001 0.025781250000000002 0.12375 
0 0.759375 0.145 0.028125 0.1 
