0 0.8523437500000001 0.47750000000000004 0.026562500000000003 0.0775 
0 0.917578125 0.47000000000000003 0.02421875 0.11 
0 0.9417968750000001 0.475625 0.022656250000000003 0.09125 
0 0.898046875 0.46875 0.02734375 0.1 
0 0.67890625 0.478125 0.018750000000000003 0.06625 
