0 0.943359375 0.411875 0.08359375000000001 0.27625 
0 0.140625 0.49 0.021875000000000002 0.0825 
0 0.15976562500000002 0.49562500000000004 0.02109375 0.08875 
0 0.7351562500000001 0.451875 0.034375 0.13375 
0 0.19492187500000002 0.5 0.02109375 0.0725 
