0 0.8210937500000001 0.43875000000000003 0.0390625 0.16 
0 0.759375 0.450625 0.045312500000000006 0.18125 
0 0.6839843750000001 0.46125 0.02734375 0.10250000000000001 
0 0.73046875 0.455 0.029687500000000002 0.12 
0 0.661328125 0.464375 0.030468750000000003 0.09875 
0 0.79453125 0.44375000000000003 0.034375 0.1625 
